EESchema Schematic File Version 4
LIBS:bldc-esc-cache
EELAYER 30 0
EELAYER END
$Descr B 17000 11000
encoding utf-8
Sheet 7 9
Title "BLDC ESC"
Date "2017-06-18"
Rev "A0"
Comp "Sean Watson"
Comment1 ""
Comment2 ""
Comment3 ""
Comment4 ""
$EndDescr
$Comp
L power:GNDD #PWR0708
U 1 1 593FF832
P 7750 7500
F 0 "#PWR0708" H 7750 7250 50  0001 C CNN
F 1 "GNDD" H 7750 7350 50  0000 C CNN
F 2 "" H 7750 7500 50  0000 C CNN
F 3 "" H 7750 7500 50  0000 C CNN
	1    7750 7500
	1    0    0    -1  
$EndComp
$Comp
L power:+3.3V #PWR0707
U 1 1 593FF866
P 7750 2800
F 0 "#PWR0707" H 7750 2650 50  0001 C CNN
F 1 "+3.3V" H 7750 2940 50  0000 C CNN
F 2 "" H 7750 2800 50  0000 C CNN
F 3 "" H 7750 2800 50  0000 C CNN
	1    7750 2800
	1    0    0    -1  
$EndComp
$Comp
L Device:C_Small C702
U 1 1 593FF8BE
P 6500 2650
F 0 "C702" H 6510 2720 50  0000 L CNN
F 1 "100n" H 6510 2570 50  0000 L CNN
F 2 "Capacitor_SMD:C_0603_1608Metric" H 6500 2650 50  0001 C CNN
F 3 "" H 6500 2650 50  0000 C CNN
	1    6500 2650
	1    0    0    -1  
$EndComp
$Comp
L Device:C_Small C703
U 1 1 593FF9E0
P 6800 2650
F 0 "C703" H 6810 2720 50  0000 L CNN
F 1 "100n" H 6810 2570 50  0000 L CNN
F 2 "Capacitor_SMD:C_0603_1608Metric" H 6800 2650 50  0001 C CNN
F 3 "" H 6800 2650 50  0000 C CNN
	1    6800 2650
	1    0    0    -1  
$EndComp
$Comp
L Device:C_Small C704
U 1 1 593FFA55
P 7050 2650
F 0 "C704" H 7060 2720 50  0000 L CNN
F 1 "100n" H 7060 2570 50  0000 L CNN
F 2 "Capacitor_SMD:C_0603_1608Metric" H 7050 2650 50  0001 C CNN
F 3 "" H 7050 2650 50  0000 C CNN
	1    7050 2650
	1    0    0    -1  
$EndComp
$Comp
L Device:C_Small C705
U 1 1 593FFA7F
P 7300 2650
F 0 "C705" H 7310 2720 50  0000 L CNN
F 1 "100n" H 7310 2570 50  0000 L CNN
F 2 "Capacitor_SMD:C_0603_1608Metric" H 7300 2650 50  0001 C CNN
F 3 "" H 7300 2650 50  0000 C CNN
	1    7300 2650
	1    0    0    -1  
$EndComp
$Comp
L power:+3.3V #PWR0705
U 1 1 593FFAB3
P 6500 2100
F 0 "#PWR0705" H 6500 1950 50  0001 C CNN
F 1 "+3.3V" H 6500 2240 50  0000 C CNN
F 2 "" H 6500 2100 50  0000 C CNN
F 3 "" H 6500 2100 50  0000 C CNN
	1    6500 2100
	1    0    0    -1  
$EndComp
$Comp
L power:GNDD #PWR0706
U 1 1 593FFAE6
P 7300 2950
F 0 "#PWR0706" H 7300 2700 50  0001 C CNN
F 1 "GNDD" H 7300 2800 50  0000 C CNN
F 2 "" H 7300 2950 50  0000 C CNN
F 3 "" H 7300 2950 50  0000 C CNN
	1    7300 2950
	1    0    0    -1  
$EndComp
Text Notes 6650 2350 0    29   ~ 0
Place near DVDD pins
$Comp
L Device:CP1_Small C709
U 1 1 593FFCEE
P 9750 2650
F 0 "C709" H 9760 2720 50  0000 L CNN
F 1 "10u" H 9760 2570 50  0000 L CNN
F 2 "Capacitor_SMD:C_1206_3216Metric" H 9750 2650 50  0001 C CNN
F 3 "" H 9750 2650 50  0000 C CNN
	1    9750 2650
	1    0    0    -1  
$EndComp
$Comp
L Device:CP1_Small C712
U 1 1 593FFD86
P 10450 2650
F 0 "C712" H 10460 2720 50  0000 L CNN
F 1 "10u" H 10460 2570 50  0000 L CNN
F 2 "Capacitor_SMD:C_1206_3216Metric" H 10450 2650 50  0001 C CNN
F 3 "" H 10450 2650 50  0000 C CNN
	1    10450 2650
	1    0    0    -1  
$EndComp
$Comp
L Device:C_Small C706
U 1 1 593FFEBC
P 8800 2650
F 0 "C706" H 8810 2720 50  0000 L CNN
F 1 "100n" H 8810 2570 50  0000 L CNN
F 2 "Capacitor_SMD:C_0603_1608Metric" H 8800 2650 50  0001 C CNN
F 3 "" H 8800 2650 50  0000 C CNN
	1    8800 2650
	1    0    0    -1  
$EndComp
$Comp
L Device:C_Small C707
U 1 1 593FFF09
P 9050 2650
F 0 "C707" H 9060 2720 50  0000 L CNN
F 1 "100n" H 9060 2570 50  0000 L CNN
F 2 "Capacitor_SMD:C_0603_1608Metric" H 9050 2650 50  0001 C CNN
F 3 "" H 9050 2650 50  0000 C CNN
	1    9050 2650
	1    0    0    -1  
$EndComp
$Comp
L Device:C_Small C708
U 1 1 593FFF45
P 9300 2650
F 0 "C708" H 9310 2720 50  0000 L CNN
F 1 "100n" H 9310 2570 50  0000 L CNN
F 2 "Capacitor_SMD:C_0603_1608Metric" H 9300 2650 50  0001 C CNN
F 3 "" H 9300 2650 50  0000 C CNN
	1    9300 2650
	1    0    0    -1  
$EndComp
$Comp
L power:GNDA #PWR0711
U 1 1 594016E6
P 10450 3050
F 0 "#PWR0711" H 10450 2800 50  0001 C CNN
F 1 "GNDA" H 10450 2900 50  0000 C CNN
F 2 "" H 10450 3050 50  0000 C CNN
F 3 "" H 10450 3050 50  0000 C CNN
	1    10450 3050
	1    0    0    -1  
$EndComp
Text Notes 8800 2350 0    29   ~ 0
Place near AVDD pins
$Comp
L power:GNDA #PWR0709
U 1 1 59401DEA
P 8450 7100
F 0 "#PWR0709" H 8450 6850 50  0001 C CNN
F 1 "GNDA" H 8450 6950 50  0000 C CNN
F 2 "" H 8450 7100 50  0000 C CNN
F 3 "" H 8450 7100 50  0000 C CNN
	1    8450 7100
	1    0    0    -1  
$EndComp
$Comp
L Connector:RJ45_Amphenol_RJMG1BD3B8K1ANR J701
U 1 1 594020A1
P 12500 4100
F 0 "J701" H 12600 4700 50  0000 L CNN
F 1 "ARJC01-111002T" H 12450 4700 50  0000 R CNN
F 2 "Connector_RJ:RJ45_Wuerth_7499010121A_Horizontal" H 12500 4100 50  0001 C CNN
F 3 "" H 12500 4100 50  0000 C CNN
	1    12500 4100
	1    0    0    -1  
$EndComp
$Comp
L Device:C_Small C713
U 1 1 59402FDE
P 10750 4400
F 0 "C713" H 10760 4470 50  0000 L CNN
F 1 "100n" H 10760 4320 50  0000 L CNN
F 2 "Capacitor_SMD:C_0603_1608Metric" H 10750 4400 50  0001 C CNN
F 3 "" H 10750 4400 50  0000 C CNN
	1    10750 4400
	1    0    0    -1  
$EndComp
$Comp
L power:GNDA #PWR0717
U 1 1 59403298
P 13400 5150
F 0 "#PWR0717" H 13400 4900 50  0001 C CNN
F 1 "GNDA" H 13400 5000 50  0000 C CNN
F 2 "" H 13400 5150 50  0000 C CNN
F 3 "" H 13400 5150 50  0000 C CNN
	1    13400 5150
	1    0    0    -1  
$EndComp
$Comp
L Device:R_Small R702
U 1 1 594034A8
P 9500 4700
F 0 "R702" H 9530 4720 50  0000 L CNN
F 1 "6.8k" H 9530 4660 50  0000 L CNN
F 2 "Resistor_SMD:R_0603_1608Metric" H 9500 4700 50  0001 C CNN
F 3 "" H 9500 4700 50  0000 C CNN
	1    9500 4700
	0    1    1    0   
$EndComp
$Comp
L power:GNDA #PWR0710
U 1 1 594036E5
P 10350 4800
F 0 "#PWR0710" H 10350 4550 50  0001 C CNN
F 1 "GNDA" H 10350 4650 50  0000 C CNN
F 2 "" H 10350 4800 50  0000 C CNN
F 3 "" H 10350 4800 50  0000 C CNN
	1    10350 4800
	1    0    0    -1  
$EndComp
NoConn ~ 9300 4300
NoConn ~ 9300 6100
Text HLabel 4500 4350 0    29   Input ~ 0
TXD1
Text HLabel 4500 4450 0    29   Input ~ 0
TXD0
Text HLabel 4500 4550 0    29   Input ~ 0
TXEN
NoConn ~ 6950 4650
$Comp
L power:+3.3V #PWR0701
U 1 1 5940AD39
P 3800 5400
F 0 "#PWR0701" H 3800 5250 50  0001 C CNN
F 1 "+3.3V" H 3800 5540 50  0000 C CNN
F 2 "" H 3800 5400 50  0000 C CNN
F 3 "" H 3800 5400 50  0000 C CNN
	1    3800 5400
	1    0    0    -1  
$EndComp
$Comp
L Device:R_Small R701
U 1 1 5940AEC9
P 4750 5850
F 0 "R701" H 4780 5870 50  0000 L CNN
F 1 "2.2k" H 4780 5810 50  0000 L CNN
F 2 "Resistor_SMD:R_0603_1608Metric" H 4750 5850 50  0001 C CNN
F 3 "" H 4750 5850 50  0000 C CNN
	1    4750 5850
	1    0    0    -1  
$EndComp
Text HLabel 4500 5450 0    29   Output ~ 0
RX0
Text HLabel 4500 5350 0    29   Output ~ 0
RX1
Text HLabel 4500 5050 0    29   Output ~ 0
RXER
Text HLabel 4500 6050 0    29   Input ~ 0
MDC
Text HLabel 4500 6150 0    29   BiDi ~ 0
MDIO
Text HLabel 4500 6250 0    29   Output ~ 0
MDINTR
$Comp
L power:+3.3V #PWR0712
U 1 1 5940E13C
P 10550 4300
F 0 "#PWR0712" H 10550 4150 50  0001 C CNN
F 1 "+3.3V" H 10550 4440 50  0000 C CNN
F 2 "" H 10550 4300 50  0000 C CNN
F 3 "" H 10550 4300 50  0000 C CNN
	1    10550 4300
	1    0    0    -1  
$EndComp
$Comp
L Device:R_Small R709
U 1 1 5940E861
P 11850 4950
F 0 "R709" H 11880 4970 50  0000 L CNN
F 1 "22" H 11880 4910 50  0000 L CNN
F 2 "Resistor_SMD:R_0603_1608Metric" H 11850 4950 50  0001 C CNN
F 3 "" H 11850 4950 50  0000 C CNN
	1    11850 4950
	0    1    1    0   
$EndComp
$Comp
L Device:R_Small R708
U 1 1 5940E8F6
P 11850 4850
F 0 "R708" H 11880 4870 50  0000 L CNN
F 1 "75" H 11880 4810 50  0000 L CNN
F 2 "Resistor_SMD:R_0603_1608Metric" H 11850 4850 50  0001 C CNN
F 3 "" H 11850 4850 50  0000 C CNN
	1    11850 4850
	0    -1   -1   0   
$EndComp
$Comp
L power:GNDD #PWR0704
U 1 1 5940F5DE
P 6000 3850
F 0 "#PWR0704" H 6000 3600 50  0001 C CNN
F 1 "GNDD" H 6000 3700 50  0000 C CNN
F 2 "" H 6000 3850 50  0000 C CNN
F 3 "" H 6000 3850 50  0000 C CNN
	1    6000 3850
	1    0    0    -1  
$EndComp
$Comp
L Device:R_Small R704
U 1 1 5940F9CF
P 9850 4300
F 0 "R704" H 9880 4320 50  0000 L CNN
F 1 "49.9 1%" H 9880 4260 50  0000 L CNN
F 2 "Resistor_SMD:R_0603_1608Metric" H 9850 4300 50  0001 C CNN
F 3 "" H 9850 4300 50  0000 C CNN
	1    9850 4300
	-1   0    0    1   
$EndComp
$Comp
L Device:R_Small R706
U 1 1 5940FBAC
P 10050 4300
F 0 "R706" H 10080 4320 50  0000 L CNN
F 1 "49.9 1%" H 10080 4260 50  0000 L CNN
F 2 "Resistor_SMD:R_0603_1608Metric" H 10050 4300 50  0001 C CNN
F 3 "" H 10050 4300 50  0000 C CNN
	1    10050 4300
	1    0    0    -1  
$EndComp
$Comp
L Device:C_Small C711
U 1 1 5940FE1A
P 10200 4500
F 0 "C711" H 10210 4570 50  0000 L CNN
F 1 "100n" H 10210 4420 50  0000 L CNN
F 2 "Capacitor_SMD:C_0603_1608Metric" H 10200 4500 50  0001 C CNN
F 3 "" H 10200 4500 50  0000 C CNN
	1    10200 4500
	0    1    1    0   
$EndComp
$Comp
L Device:R_Small R703
U 1 1 59410BD5
P 9850 3400
F 0 "R703" H 9880 3420 50  0000 L CNN
F 1 "49.9 1%" H 9880 3360 50  0000 L CNN
F 2 "Resistor_SMD:R_0603_1608Metric" H 9850 3400 50  0001 C CNN
F 3 "" H 9850 3400 50  0000 C CNN
	1    9850 3400
	-1   0    0    1   
$EndComp
$Comp
L Device:R_Small R705
U 1 1 59410DC9
P 10050 3400
F 0 "R705" H 10080 3420 50  0000 L CNN
F 1 "49.9 1%" H 10080 3360 50  0000 L CNN
F 2 "Resistor_SMD:R_0603_1608Metric" H 10050 3400 50  0001 C CNN
F 3 "" H 10050 3400 50  0000 C CNN
	1    10050 3400
	1    0    0    -1  
$EndComp
$Comp
L Device:C_Small C710
U 1 1 59410E5E
P 9950 3100
F 0 "C710" H 9960 3170 50  0000 L CNN
F 1 "100n" H 9960 3020 50  0000 L CNN
F 2 "Capacitor_SMD:C_0603_1608Metric" H 9950 3100 50  0001 C CNN
F 3 "" H 9950 3100 50  0000 C CNN
	1    9950 3100
	1    0    0    1   
$EndComp
Text HLabel 11650 6200 2    29   Output ~ 0
REFCLK
$Comp
L oscillator:oscillator Y701
U 1 1 594131F6
P 10950 7150
F 0 "Y701" H 10700 7400 29  0000 C CNN
F 1 "ASFL1-50.000MHZ" H 10850 6900 29  0000 C CNN
F 2 "Oscillator:Oscillator_SMD_TXC_7C-4Pin_5.0x3.2mm" H 10950 7150 29  0001 C CNN
F 3 "" H 10950 7150 29  0000 C CNN
	1    10950 7150
	0    -1   -1   0   
$EndComp
$Comp
L power:GNDD #PWR0715
U 1 1 59413630
P 11050 7900
F 0 "#PWR0715" H 11050 7650 50  0001 C CNN
F 1 "GNDD" H 11050 7750 50  0000 C CNN
F 2 "" H 11050 7900 50  0000 C CNN
F 3 "" H 11050 7900 50  0000 C CNN
	1    11050 7900
	1    0    0    -1  
$EndComp
$Comp
L Device:R_Small R707
U 1 1 59413873
P 10600 7200
F 0 "R707" H 10630 7220 50  0000 L CNN
F 1 "10k" H 10630 7160 50  0000 L CNN
F 2 "Resistor_SMD:R_0603_1608Metric" H 10600 7200 50  0001 C CNN
F 3 "" H 10600 7200 50  0000 C CNN
	1    10600 7200
	-1   0    0    1   
$EndComp
$Comp
L power:+3.3V #PWR0713
U 1 1 594139D7
P 10600 6450
F 0 "#PWR0713" H 10600 6300 50  0001 C CNN
F 1 "+3.3V" H 10600 6590 50  0000 C CNN
F 2 "" H 10600 6450 50  0000 C CNN
F 3 "" H 10600 6450 50  0000 C CNN
	1    10600 6450
	1    0    0    -1  
$EndComp
Text HLabel 11650 7750 2    29   Input ~ 0
CLKEN
$Comp
L stm811:stm811 U701
U 1 1 594164A3
P 5550 3450
F 0 "U701" H 5350 3700 29  0000 C CNN
F 1 "stm811" H 5400 3200 29  0000 C CNN
F 2 "Package_TO_SOT_SMD:SOT-143" H 5700 3250 29  0001 C CNN
F 3 "" H 5700 3250 29  0000 C CNN
	1    5550 3450
	1    0    0    -1  
$EndComp
$Comp
L power:+3.3V #PWR0703
U 1 1 59416B89
P 4900 2600
F 0 "#PWR0703" H 4900 2450 50  0001 C CNN
F 1 "+3.3V" H 4900 2740 50  0000 C CNN
F 2 "" H 4900 2600 50  0000 C CNN
F 3 "" H 4900 2600 50  0000 C CNN
	1    4900 2600
	1    0    0    -1  
$EndComp
Text HLabel 4450 3550 0    29   Input ~ 0
RST
$Comp
L Device:C_Small C701
U 1 1 59417D79
P 4650 2950
F 0 "C701" H 4660 3020 50  0000 L CNN
F 1 "100n" H 4660 2870 50  0000 L CNN
F 2 "Capacitor_SMD:C_0603_1608Metric" H 4650 2950 50  0001 C CNN
F 3 "" H 4650 2950 50  0000 C CNN
	1    4650 2950
	1    0    0    -1  
$EndComp
$Comp
L power:GNDD #PWR0702
U 1 1 5941802C
P 4650 3150
F 0 "#PWR0702" H 4650 2900 50  0001 C CNN
F 1 "GNDD" H 4650 3000 50  0000 C CNN
F 2 "" H 4650 3150 50  0000 C CNN
F 3 "" H 4650 3150 50  0000 C CNN
	1    4650 3150
	1    0    0    -1  
$EndComp
Text HLabel 4500 5150 0    28   Output ~ 0
RXDV
$Comp
L Device:L_Small L701
U 1 1 594CF0CA
P 10100 2400
F 0 "L701" H 10130 2440 50  0000 L CNN
F 1 "BLM21BD222TN1" V 10050 2100 50  0000 L CNN
F 2 "Inductor_SMD:L_0805_2012Metric" H 10100 2400 50  0001 C CNN
F 3 "" H 10100 2400 50  0000 C CNN
	1    10100 2400
	0    -1   -1   0   
$EndComp
$Comp
L Device:R_Pack04 RP704
U 1 1 594EF557
P 10000 5250
F 0 "RP704" V 10200 5150 50  0000 C CNN
F 1 "10k" V 10200 5350 50  0000 C CNN
F 2 "Resistor_SMD:R_Array_Concave_4x0603" H 10000 5250 50  0001 C CNN
F 3 "" H 10000 5250 50  0000 C CNN
	1    10000 5250
	0    1    1    0   
$EndComp
Wire Wire Line
	7750 6850 7750 7250
Wire Wire Line
	5850 7250 5950 7250
Wire Wire Line
	7850 7250 7850 6850
Connection ~ 7750 7250
Wire Wire Line
	7950 7250 7950 6850
Connection ~ 7850 7250
Wire Wire Line
	7750 2800 7750 2950
Wire Wire Line
	7850 2950 7850 3100
Connection ~ 7750 2950
Wire Wire Line
	7950 2950 7950 3100
Connection ~ 7850 2950
Wire Wire Line
	6500 2100 6500 2400
Wire Wire Line
	6500 2400 6800 2400
Wire Wire Line
	6800 2400 6800 2550
Connection ~ 6500 2400
Wire Wire Line
	7050 2400 7050 2550
Connection ~ 6800 2400
Wire Wire Line
	7300 2400 7300 2550
Connection ~ 7050 2400
Wire Wire Line
	6500 2750 6500 2900
Wire Wire Line
	6500 2900 6800 2900
Wire Wire Line
	7300 2750 7300 2900
Connection ~ 7300 2900
Wire Wire Line
	7050 2750 7050 2900
Connection ~ 7050 2900
Wire Wire Line
	6800 2750 6800 2900
Connection ~ 6800 2900
Wire Wire Line
	8400 3100 8400 2950
Wire Wire Line
	8500 2250 8500 2950
Wire Wire Line
	8600 2400 8600 3100
Wire Wire Line
	8600 2400 8800 2400
Wire Wire Line
	8800 2550 8800 2400
Connection ~ 8800 2400
Wire Wire Line
	9050 2550 9050 2400
Connection ~ 9050 2400
Wire Wire Line
	9300 2550 9300 2400
Connection ~ 9300 2400
Wire Wire Line
	9750 2150 9750 2400
Connection ~ 9750 2400
Wire Wire Line
	10450 2250 10450 2400
Wire Wire Line
	8800 2750 8800 2950
Wire Wire Line
	8800 2950 9050 2950
Wire Wire Line
	10450 2750 10450 2950
Wire Wire Line
	9750 2750 9750 2950
Connection ~ 9750 2950
Wire Wire Line
	9300 2750 9300 2950
Connection ~ 9300 2950
Wire Wire Line
	9050 2750 9050 2950
Connection ~ 9050 2950
Connection ~ 10450 2950
Wire Wire Line
	8450 6850 8450 6950
Wire Wire Line
	8450 6950 8550 6950
Wire Wire Line
	8550 6950 8550 6850
Connection ~ 8450 6950
Wire Wire Line
	8650 6950 8650 6850
Connection ~ 8550 6950
Wire Wire Line
	10750 2150 10750 3250
Wire Wire Line
	10750 3700 11600 3700
Wire Wire Line
	10750 4000 11600 4000
Connection ~ 10750 3700
Wire Wire Line
	9300 3600 10050 3600
Wire Wire Line
	9300 3700 9850 3700
Wire Wire Line
	10050 3700 10050 3800
Wire Wire Line
	10050 3800 11600 3800
Wire Wire Line
	9300 3950 9850 3950
Wire Wire Line
	11200 3950 11200 3900
Wire Wire Line
	11200 3900 11600 3900
Wire Wire Line
	9300 4050 10050 4050
Wire Wire Line
	11200 4050 11200 4100
Wire Wire Line
	11200 4100 11600 4100
Connection ~ 10750 4000
Wire Wire Line
	13400 4500 13400 4800
Wire Wire Line
	9300 4700 9400 4700
Wire Wire Line
	9300 4600 9650 4600
Wire Wire Line
	10350 4500 10350 4750
Wire Wire Line
	6950 4550 4500 4550
Wire Wire Line
	6950 4450 4500 4450
Wire Wire Line
	6950 4350 4500 4350
Wire Wire Line
	4750 5600 4750 5750
Wire Wire Line
	4750 5950 4750 6150
Connection ~ 4750 6150
Wire Wire Line
	4500 5350 6650 5350
Wire Wire Line
	4500 5050 5950 5050
Wire Wire Line
	3900 6500 6950 6500
Wire Wire Line
	6650 5350 6650 6650
Connection ~ 6650 5350
Wire Wire Line
	6650 7050 6650 7250
Wire Wire Line
	6550 5250 6550 6650
Wire Wire Line
	6450 5150 6450 6650
Wire Wire Line
	5950 5050 5950 6650
Connection ~ 5950 5050
Wire Wire Line
	5950 7050 5950 7250
Connection ~ 6650 7250
Wire Wire Line
	6450 7050 6450 7250
Connection ~ 6450 7250
Wire Wire Line
	6550 7050 6550 7250
Connection ~ 6550 7250
Wire Wire Line
	6350 6650 6350 4950
Wire Wire Line
	6350 7050 6350 7250
Connection ~ 5950 7250
Wire Wire Line
	6950 5450 4500 5450
Wire Wire Line
	6550 5250 6950 5250
Wire Wire Line
	6450 5150 6950 5150
Wire Wire Line
	6350 4950 6950 4950
Wire Wire Line
	9350 5400 9300 5400
Wire Wire Line
	9450 5150 9450 5500
Wire Wire Line
	9550 5250 9550 5600
Connection ~ 9550 5600
Wire Wire Line
	10550 4300 10550 5050
Wire Wire Line
	6000 3550 6000 3700
Wire Wire Line
	6000 3700 6850 3700
Wire Wire Line
	9850 4200 9850 3950
Connection ~ 9850 3950
Wire Wire Line
	10050 4200 10050 4050
Connection ~ 10050 4050
Wire Wire Line
	9850 4400 9850 4500
Wire Wire Line
	9850 4500 10050 4500
Wire Wire Line
	10050 4400 10050 4500
Connection ~ 10050 4500
Wire Wire Line
	10300 4500 10350 4500
Wire Wire Line
	9600 4700 9650 4700
Wire Wire Line
	9650 4600 9650 4700
Wire Wire Line
	9650 4750 10350 4750
Connection ~ 10350 4750
Connection ~ 9650 4700
Wire Wire Line
	9850 3500 9850 3700
Connection ~ 9850 3700
Wire Wire Line
	10050 3500 10050 3600
Connection ~ 10050 3600
Wire Wire Line
	9850 3300 9850 3250
Wire Wire Line
	9850 3250 9950 3250
Wire Wire Line
	10050 3250 10050 3300
Connection ~ 9950 3250
Wire Wire Line
	9300 6200 11050 6200
Wire Wire Line
	11050 7650 11050 7900
Wire Wire Line
	10600 7300 10600 7750
Wire Wire Line
	10600 6450 10600 6550
Wire Wire Line
	10600 6550 10850 6550
Wire Wire Line
	10850 6550 10850 6700
Connection ~ 10600 6550
Wire Wire Line
	11050 6700 11050 6200
Connection ~ 11050 6200
Wire Wire Line
	10600 7750 10850 7750
Wire Wire Line
	10850 7750 10850 7650
Connection ~ 10850 7750
Connection ~ 6000 3700
Wire Wire Line
	4900 3350 5100 3350
Wire Wire Line
	4900 2600 4900 2750
Wire Wire Line
	6000 3350 6750 3350
Wire Wire Line
	6750 3350 6750 3600
Wire Wire Line
	6750 3600 6950 3600
Wire Wire Line
	5100 3550 4450 3550
Wire Wire Line
	4650 3150 4650 3050
Wire Wire Line
	4650 2850 4650 2750
Wire Wire Line
	4650 2750 4900 2750
Connection ~ 4900 2750
Wire Wire Line
	3800 5400 3800 5600
Wire Wire Line
	5850 5150 5850 5650
Wire Wire Line
	5850 7050 5850 7250
Connection ~ 6350 7250
Wire Wire Line
	5850 5150 4500 5150
Wire Wire Line
	9350 5050 9350 5400
Wire Wire Line
	10750 4750 10750 4500
$Comp
L power:GNDD #PWR0716
U 1 1 59542F25
P 12100 5150
F 0 "#PWR0716" H 12100 4900 50  0001 C CNN
F 1 "GNDD" H 12100 5000 50  0000 C CNN
F 2 "" H 12100 5150 50  0000 C CNN
F 3 "" H 12100 5150 50  0000 C CNN
	1    12100 5150
	1    0    0    -1  
$EndComp
$Comp
L Device:Q_PMOS_GSD Q701
U 1 1 5955A2DB
P 10950 5350
F 0 "Q701" H 11250 5400 50  0000 R CNN
F 1 "BSS84" H 11350 5300 50  0000 R CNN
F 2 "Package_TO_SOT_SMD:SOT-23" H 11150 5450 50  0001 C CNN
F 3 "" H 10950 5350 50  0000 C CNN
	1    10950 5350
	1    0    0    -1  
$EndComp
$Comp
L Device:Q_PMOS_GSD Q702
U 1 1 5955A95F
P 11200 5700
F 0 "Q702" H 11500 5750 50  0000 R CNN
F 1 "BSS84" H 11600 5650 50  0000 R CNN
F 2 "Package_TO_SOT_SMD:SOT-23" H 11400 5800 50  0001 C CNN
F 3 "" H 11200 5700 50  0000 C CNN
	1    11200 5700
	1    0    0    -1  
$EndComp
Wire Wire Line
	10550 5050 10200 5050
$Comp
L power:GNDA #PWR0714
U 1 1 59561469
P 10750 4750
F 0 "#PWR0714" H 10750 4500 50  0001 C CNN
F 1 "GNDA" H 10750 4600 50  0000 C CNN
F 2 "" H 10750 4750 50  0000 C CNN
F 3 "" H 10750 4750 50  0000 C CNN
	1    10750 4750
	1    0    0    -1  
$EndComp
Wire Wire Line
	9300 5600 9550 5600
Connection ~ 10550 5050
Wire Wire Line
	11300 5500 11300 4300
Wire Wire Line
	11300 4300 11600 4300
Wire Wire Line
	11400 4500 11400 5100
Wire Wire Line
	11400 4500 11600 4500
Wire Wire Line
	11600 4400 11500 4400
Wire Wire Line
	11500 4400 11500 4950
Wire Wire Line
	11500 4950 11750 4950
Wire Wire Line
	11600 4600 11600 4850
Wire Wire Line
	11600 4850 11750 4850
Wire Wire Line
	11950 4950 12100 4950
Wire Wire Line
	12100 4850 12100 4950
Wire Wire Line
	11950 4850 12100 4850
Connection ~ 12100 4950
NoConn ~ 3800 6100
Wire Wire Line
	8400 2950 8500 2950
Wire Wire Line
	10200 2400 10450 2400
Wire Wire Line
	10450 2250 8500 2250
Connection ~ 8500 2950
Connection ~ 10450 2400
Wire Wire Line
	9750 2150 10750 2150
$Comp
L power:PWR_FLAG #FLG0701
U 1 1 5965A73D
P 8500 2250
F 0 "#FLG0701" H 8500 2345 50  0001 C CNN
F 1 "PWR_FLAG" H 8500 2430 50  0000 C CNN
F 2 "" H 8500 2250 50  0000 C CNN
F 3 "" H 8500 2250 50  0000 C CNN
	1    8500 2250
	1    0    0    -1  
$EndComp
Text Notes 5200 3650 2    28   ~ 0
MR has internal 20k pull up
Text Notes 9900 5000 2    28   ~ 0
OP[0:2] pull up = auto neg mode
Text Notes 9800 3600 2    28   ~ 0
Place 50 Ohm resistors\nclose to TX+/-
Text Notes 9800 4200 2    28   ~ 0
Place 50 Ohm resistors\nclose to TX+/-
Text Notes 10150 4850 2    28   ~ 0
Place bandgap resistor\nclose to BGRES[G]
Text Notes 10600 3900 2    28   ~ 0
Route TX+/- and RX+/- as pairs
Wire Wire Line
	9950 3000 9950 2950
Connection ~ 9950 2950
Wire Wire Line
	9950 3250 9950 3200
Connection ~ 10750 3250
Connection ~ 10050 3250
Text Notes 7100 7050 2    28   ~ 0
PHY addr 00000
Wire Wire Line
	6850 4250 6950 4250
Wire Wire Line
	6850 3700 6850 4050
Connection ~ 6850 3700
Wire Wire Line
	6950 4150 6850 4150
Connection ~ 6850 4150
Wire Wire Line
	6950 4050 6850 4050
Connection ~ 6850 4050
Wire Wire Line
	9300 5700 9650 5700
Wire Wire Line
	9350 5050 9800 5050
Wire Wire Line
	9450 5150 9800 5150
Wire Wire Line
	9550 5250 9800 5250
Wire Wire Line
	9650 5700 9650 5350
Wire Wire Line
	9650 5350 9800 5350
Connection ~ 9650 5700
Wire Wire Line
	9450 5500 9300 5500
Wire Wire Line
	10550 5950 11300 5950
Wire Wire Line
	11300 5950 11300 5900
Wire Wire Line
	10350 5600 10350 5350
Wire Wire Line
	10350 5350 10750 5350
Wire Wire Line
	11050 5550 11050 5600
Wire Wire Line
	11050 5600 10550 5600
Connection ~ 10550 5600
Wire Wire Line
	11050 5150 11050 5100
Wire Wire Line
	11050 5100 11400 5100
Text Notes 9600 5800 2    28   ~ 0
Low = link up\nHigh = link down
$Comp
L dm9161:dm9161b U702
U 1 1 59581736
P 8150 4900
F 0 "U702" H 7200 6550 55  0000 C CNN
F 1 "dm9161b" H 7350 3100 55  0000 C CNN
F 2 "Package_QFP:LQFP-48-1EP_7x7mm_P0.5mm_EP3.6x3.6mm_ThermalVias" H 8250 4850 29  0001 C CNN
F 3 "" H 8250 4850 29  0000 C CNN
	1    8150 4900
	1    0    0    -1  
$EndComp
Wire Wire Line
	7750 2950 7850 2950
NoConn ~ 6950 5550
Wire Wire Line
	6950 5650 5850 5650
Connection ~ 5850 5650
Wire Wire Line
	4000 6300 6950 6300
Wire Wire Line
	4500 6050 6750 6050
Wire Wire Line
	6750 6050 6750 5850
Wire Wire Line
	6750 5850 6950 5850
Wire Wire Line
	4500 6150 4750 6150
Wire Wire Line
	6850 6150 6850 5950
Wire Wire Line
	6850 5950 6950 5950
Wire Wire Line
	4500 6250 4750 6250
Wire Wire Line
	6950 6250 6950 6050
$Comp
L Device:R_Pack04 RP702
U 1 1 59582910
P 5850 6850
F 0 "RP702" H 6100 6800 50  0000 C CNN
F 1 "10k" H 6100 6900 50  0000 C CNN
F 2 "Resistor_SMD:R_Array_Concave_4x0603" H 5850 6850 50  0001 C CNN
F 3 "" H 5850 6850 50  0000 C CNN
	1    5850 6850
	-1   0    0    1   
$EndComp
Wire Wire Line
	6050 7050 6050 7250
Connection ~ 6050 7250
Wire Wire Line
	6950 6400 6050 6400
Wire Wire Line
	6050 6400 6050 6650
Text Notes 3150 6200 0    28   ~ 0
LEDMODE pull up = single LED
NoConn ~ 5750 6650
NoConn ~ 5750 7050
Text Notes 5750 7350 0    28   ~ 0
DISMDIX pull down = auto MDIX enabled
Text Notes 5750 7450 0    28   ~ 0
RPTR pull down = node mode
Text Notes 5750 7400 0    28   ~ 0
TESTMODE pull down = normal mode
Text Notes 3150 6250 0    28   ~ 0
RMII pull up = RMII mode
$Comp
L Device:R_Pack04 RP701
U 1 1 594EF476
P 3900 5900
F 0 "RP701" H 4150 5850 50  0000 C CNN
F 1 "10k" H 4150 5950 50  0000 C CNN
F 2 "Resistor_SMD:R_Array_Concave_4x0603" H 3900 5900 50  0001 C CNN
F 3 "" H 3900 5900 50  0000 C CNN
	1    3900 5900
	-1   0    0    1   
$EndComp
Wire Wire Line
	3900 6500 3900 6100
Wire Wire Line
	4000 6300 4000 6100
Wire Wire Line
	3800 5600 3900 5600
Wire Wire Line
	3900 5600 3900 5700
Connection ~ 3800 5600
Wire Wire Line
	4000 5600 4000 5700
Connection ~ 3900 5600
Wire Wire Line
	4100 5600 4100 5700
Connection ~ 4000 5600
Connection ~ 4100 5600
Wire Wire Line
	4750 6250 4750 6200
Wire Wire Line
	4750 6200 4100 6200
Wire Wire Line
	4100 6200 4100 6100
Connection ~ 4750 6250
Wire Wire Line
	7750 7250 7750 7500
Wire Wire Line
	7750 7250 7850 7250
Wire Wire Line
	7850 7250 7950 7250
Wire Wire Line
	7750 2950 7750 3100
Wire Wire Line
	7850 2950 7950 2950
Wire Wire Line
	6500 2400 6500 2550
Wire Wire Line
	6800 2400 7050 2400
Wire Wire Line
	7050 2400 7300 2400
Wire Wire Line
	7300 2900 7300 2950
Wire Wire Line
	7050 2900 7300 2900
Wire Wire Line
	6800 2900 7050 2900
Wire Wire Line
	8800 2400 9050 2400
Wire Wire Line
	9050 2400 9300 2400
Wire Wire Line
	9300 2400 9750 2400
Wire Wire Line
	9750 2400 9750 2550
Wire Wire Line
	9750 2400 10000 2400
Wire Wire Line
	9750 2950 9950 2950
Wire Wire Line
	9300 2950 9750 2950
Wire Wire Line
	9050 2950 9300 2950
Wire Wire Line
	10450 2950 10450 3050
Wire Wire Line
	8450 6950 8450 7100
Wire Wire Line
	8550 6950 8650 6950
Wire Wire Line
	10750 3700 10750 4000
Wire Wire Line
	10750 4000 10750 4300
Wire Wire Line
	4750 6150 6850 6150
Wire Wire Line
	6650 5350 6950 5350
Wire Wire Line
	5950 5050 6950 5050
Wire Wire Line
	6650 7250 7750 7250
Wire Wire Line
	6450 7250 6550 7250
Wire Wire Line
	6550 7250 6650 7250
Wire Wire Line
	5950 7250 6050 7250
Wire Wire Line
	9550 5600 10350 5600
Wire Wire Line
	9850 3950 11200 3950
Wire Wire Line
	10050 4050 11200 4050
Wire Wire Line
	10050 4500 10100 4500
Wire Wire Line
	10350 4750 10350 4800
Wire Wire Line
	9650 4700 9650 4750
Wire Wire Line
	9850 3700 10050 3700
Wire Wire Line
	10050 3600 11600 3600
Wire Wire Line
	9950 3250 10050 3250
Wire Wire Line
	10600 6550 10600 7100
Wire Wire Line
	11050 6200 11650 6200
Wire Wire Line
	10850 7750 11650 7750
Wire Wire Line
	6000 3700 6000 3850
Wire Wire Line
	4900 2750 4900 3350
Wire Wire Line
	6350 7250 6450 7250
Wire Wire Line
	10550 5050 10550 5600
Wire Wire Line
	12100 4950 12100 5150
Wire Wire Line
	8500 2950 8500 3100
Wire Wire Line
	10450 2400 10450 2550
Wire Wire Line
	9950 2950 10450 2950
Wire Wire Line
	10750 3250 10750 3700
Wire Wire Line
	10050 3250 10750 3250
Wire Wire Line
	6850 3700 6950 3700
Wire Wire Line
	6850 4150 6850 4250
Wire Wire Line
	6850 4050 6850 4150
Wire Wire Line
	9650 5700 11000 5700
Wire Wire Line
	10550 5600 10550 5950
Wire Wire Line
	5850 5650 5850 6650
Wire Wire Line
	6050 7250 6350 7250
Wire Wire Line
	3800 5600 3800 5700
Wire Wire Line
	3900 5600 4000 5600
Wire Wire Line
	4000 5600 4100 5600
Wire Wire Line
	4100 5600 4750 5600
Wire Wire Line
	4750 6250 6950 6250
Wire Wire Line
	10200 5050 10200 5150
$Comp
L Device:R_Pack04 RP703
U 1 1 594EF0FD
P 6450 6850
F 0 "RP703" H 6100 6800 50  0000 C CNN
F 1 "10k" H 6100 6900 50  0000 C CNN
F 2 "Resistor_SMD:R_Array_Concave_4x0603" H 6450 6850 50  0001 C CNN
F 3 "" H 6450 6850 50  0000 C CNN
	1    6450 6850
	-1   0    0    1   
$EndComp
Wire Wire Line
	12500 4800 13400 4800
Connection ~ 13400 4800
Wire Wire Line
	13400 4800 13400 5150
Connection ~ 10200 5050
Wire Wire Line
	10200 5250 10200 5350
$EndSCHEMATC
