EESchema Schematic File Version 4
LIBS:bldc-esc-cache
EELAYER 30 0
EELAYER END
$Descr B 17000 11000
encoding utf-8
Sheet 1 9
Title "BLDC ESC"
Date "2017-06-18"
Rev "A0"
Comp "Sean Watson"
Comment1 ""
Comment2 ""
Comment3 ""
Comment4 ""
$EndDescr
$Sheet
S 6763 1037 1987 1813
U 593A4E6F
F0 "Power" 60
F1 "bldc-esc-power.sch" 60
F2 "PGOOD" O R 8750 2280 28 
F3 "PWRSDA" B R 8750 2500 28 
F4 "PWRSCL" I R 8750 2400 28 
F5 "PWRSMBALERT" O R 8750 2700 28 
F6 "PWRRST" I R 8750 2600 28 
$EndSheet
$Sheet
S 6000 3550 3500 5050
U 593B92C4
F0 "MCU" 29
F1 "mcu.sch" 29
F2 "CANTX" O L 6000 7500 29 
F3 "CANRX" I L 6000 7350 29 
F4 "UARTTX" O L 6000 5850 28 
F5 "UARTRX" I L 6000 5750 28 
F6 "MISO" I R 9500 5950 28 
F7 "MOSI" O R 9500 6050 28 
F8 "SCLK" O R 9500 6150 28 
F9 "NPCS0" O R 9500 6250 28 
F10 "ISENSA" I R 9500 7150 28 
F11 "ISENSB" I R 9500 7250 28 
F12 "ISENSC" I R 9500 7350 28 
F13 "UARTRTS" O L 6000 6150 28 
F14 "UARTCTS" I L 6000 6050 28 
F15 "EREFCK" I L 6000 4850 28 
F16 "ETXEN" O L 6000 3850 28 
F17 "ETX0" O L 6000 3750 28 
F18 "ETX1" O L 6000 3650 28 
F19 "ERXDV" I L 6000 4350 28 
F20 "ERX0" I L 6000 4050 28 
F21 "ERX1" I L 6000 4150 28 
F22 "ERXER" I L 6000 4250 28 
F23 "EMDC" O L 6000 4500 28 
F24 "EMDIO" B L 6000 4600 28 
F25 "SCL" I R 9500 4200 28 
F26 "SDA" B R 9500 4100 28 
F27 "CANEN" O L 6000 7200 28 
F28 "CANMODE" O L 6000 7050 28 
F29 "ERST" O L 6000 5100 28 
F30 "ECLKEN" O L 6000 4950 28 
F31 "EMDINTR" I L 6000 4700 28 
F32 "MTEMP" I R 9500 7850 28 
F33 "HALLA" I R 9500 7950 28 
F34 "HALLB" I R 9500 8050 28 
F35 "HALLC" I R 9500 8150 28 
F36 "AHIGH" O R 9500 6450 28 
F37 "ALOW" O R 9500 6550 28 
F38 "BHIGH" O R 9500 6650 28 
F39 "BLOW" O R 9500 6750 28 
F40 "CHIGH" O R 9500 6850 28 
F41 "CLOW" O R 9500 6950 28 
F42 "MEN" O R 9500 5450 28 
F43 "MFAULT" I R 9500 5650 28 
F44 "TEMPSMBALERT" I R 9500 4450 28 
F45 "PWRRESET" O R 9500 3850 28 
F46 "TEMPCRIT" I R 9500 4550 28 
F47 "FANFAULT" I R 9500 4650 28 
F48 "THERMALERT" I R 9500 4750 28 
F49 "PWRSMBALERT" I R 9500 3750 28 
F50 "RED1" O L 6000 7950 28 
F51 "GREEN1" O L 6000 8050 28 
F52 "BLUE1" O L 6000 8150 28 
F53 "RED2" O L 6000 8250 28 
F54 "GREEN2" O L 6000 8350 28 
F55 "BLUE2" O L 6000 8450 28 
$EndSheet
$Sheet
S 2500 6800 900  1000
U 593D17CE
F0 "CAN" 29
F1 "CAN.sch" 29
F2 "TX" I R 3400 7500 29 
F3 "RX" O R 3400 7350 29 
F4 "EN" I R 3400 7200 29 
F5 "Mode" I R 3400 7050 29 
$EndSheet
$Sheet
S 11850 5150 1800 3300
U 593DA8C3
F0 "Motor Driver" 29
F1 "bldc-esc-motor-driver.sch" 29
F2 "ENABLE" I L 11850 5450 28 
F3 "NSHDN" I L 11850 5550 28 
F4 "NFAULT" O L 11850 5650 28 
F5 "SDO" O L 11850 5950 28 
F6 "SDI" I L 11850 6050 28 
F7 "SCLK" I L 11850 6150 28 
F8 "NSCS" I L 11850 6250 28 
F9 "INHA" I L 11850 6450 28 
F10 "INLA" I L 11850 6550 28 
F11 "INHB" I L 11850 6650 28 
F12 "INLB" I L 11850 6750 28 
F13 "INHC" I L 11850 6850 28 
F14 "INLC" I L 11850 6950 28 
F15 "SOA" O L 11850 7150 28 
F16 "SOB" O L 11850 7250 28 
F17 "SOC" O L 11850 7350 28 
F18 "HALLA" O L 11850 7950 28 
F19 "HALLB" O L 11850 8050 28 
F20 "HALLC" O L 11850 8150 28 
F21 "MTEMP" O L 11850 7850 28 
$EndSheet
$Sheet
S 2500 5450 900  1100
U 593DD583
F0 "UART" 28
F1 "bldc-esc-uart.sch" 28
F2 "R1" O R 3400 5750 28 
F3 "R2" O R 3400 6050 28 
F4 "T1" I R 3400 5850 28 
F5 "T2" I R 3400 6150 28 
$EndSheet
$Sheet
S 2500 3550 900  1650
U 593DD655
F0 "Ethernet" 28
F1 "bldc-esc-ethernet.sch" 28
F2 "TXD1" I R 3400 3650 28 
F3 "TXD0" I R 3400 3750 28 
F4 "TXEN" I R 3400 3850 28 
F5 "RX0" O R 3400 4050 28 
F6 "RX1" O R 3400 4150 28 
F7 "RXER" O R 3400 4250 28 
F8 "MDC" I R 3400 4500 28 
F9 "MDIO" B R 3400 4600 28 
F10 "MDINTR" O R 3400 4700 28 
F11 "REFCLK" O R 3400 4850 28 
F12 "CLKEN" I R 3400 4950 28 
F13 "RST" I R 3400 5100 28 
F14 "RXDV" O R 3400 4350 28 
$EndSheet
$Sheet
S 11850 3700 1800 1200
U 594FE1E9
F0 "Thermals" 28
F1 "bldc-esc-thermal.sch" 28
F2 "TEMPSDA" B L 11850 3950 28 
F3 "TEMPSCL" I L 11850 4050 28 
F4 "TEMPSMBALERT" O L 11850 4150 28 
F5 "TEMPCRIT" O L 11850 4350 28 
F6 "FANFAULT" O L 11850 4450 28 
F7 "THERMALERT" O L 11850 4550 28 
$EndSheet
Wire Wire Line
	3400 7500 6000 7500
Wire Wire Line
	3400 7350 6000 7350
Wire Wire Line
	9500 5950 11850 5950
Wire Wire Line
	9500 6050 11850 6050
Wire Wire Line
	9500 6150 11850 6150
Wire Wire Line
	9500 6250 11850 6250
Wire Wire Line
	9500 7150 11850 7150
Wire Wire Line
	9500 7250 11850 7250
Wire Wire Line
	9500 7350 11850 7350
Wire Wire Line
	3400 5750 6000 5750
Wire Wire Line
	6000 5850 3400 5850
Wire Wire Line
	3400 6050 6000 6050
Wire Wire Line
	6000 6150 3400 6150
Wire Wire Line
	3400 3650 6000 3650
Wire Wire Line
	6000 3750 3400 3750
Wire Wire Line
	3400 3850 6000 3850
Wire Wire Line
	6000 4050 3400 4050
Wire Wire Line
	3400 4150 6000 4150
Wire Wire Line
	6000 4250 3400 4250
Wire Wire Line
	6000 4850 3400 4850
Wire Wire Line
	6000 4500 3400 4500
Wire Wire Line
	3400 4600 6000 4600
Wire Wire Line
	3400 4350 6000 4350
Wire Wire Line
	6000 4700 3400 4700
Wire Wire Line
	6000 5100 3400 5100
Wire Wire Line
	3400 4950 6000 4950
Wire Wire Line
	9500 5450 11850 5450
Wire Wire Line
	11850 5650 9500 5650
Wire Wire Line
	9500 6450 11850 6450
Wire Wire Line
	11850 6550 9500 6550
Wire Wire Line
	9500 6650 11850 6650
Wire Wire Line
	11850 6750 9500 6750
Wire Wire Line
	9500 6850 11850 6850
Wire Wire Line
	11850 6950 9500 6950
Wire Wire Line
	9500 7850 11850 7850
Wire Wire Line
	11850 7950 9500 7950
Wire Wire Line
	9500 8050 11850 8050
Wire Wire Line
	11850 8150 9500 8150
Wire Wire Line
	3400 7050 6000 7050
Wire Wire Line
	3400 7200 6000 7200
Wire Wire Line
	8750 2280 10920 2280
Wire Wire Line
	10920 2280 10920 5550
Wire Wire Line
	10920 5550 11850 5550
Wire Wire Line
	9500 3850 9700 3850
Wire Wire Line
	9700 3850 9700 2600
Wire Wire Line
	9700 2600 8750 2600
Wire Wire Line
	9500 3750 9600 3750
Wire Wire Line
	9600 3750 9600 2700
Wire Wire Line
	9600 2700 8750 2700
Wire Wire Line
	9500 4100 9800 4100
Wire Wire Line
	11150 4100 11150 3950
Wire Wire Line
	11150 3950 11850 3950
Wire Wire Line
	9500 4200 9900 4200
Wire Wire Line
	11250 4200 11250 4050
Wire Wire Line
	11250 4050 11850 4050
Wire Wire Line
	9500 4450 11350 4450
Wire Wire Line
	11350 4450 11350 4150
Wire Wire Line
	11350 4150 11850 4150
Wire Wire Line
	9500 4550 11450 4550
Wire Wire Line
	11450 4550 11450 4350
Wire Wire Line
	11450 4350 11850 4350
Wire Wire Line
	9500 4650 11550 4650
Wire Wire Line
	11550 4650 11550 4450
Wire Wire Line
	11550 4450 11850 4450
Wire Wire Line
	9500 4750 11650 4750
Wire Wire Line
	11650 4750 11650 4550
Wire Wire Line
	11650 4550 11850 4550
Wire Wire Line
	8750 2500 9800 2500
Wire Wire Line
	9800 2500 9800 4100
Connection ~ 9800 4100
Wire Wire Line
	8750 2400 9900 2400
Wire Wire Line
	9900 2400 9900 4200
Connection ~ 9900 4200
$Sheet
S 2500 8050 900  700 
U 5951B54D
F0 "LEDs" 28
F1 "bldc-esc-leds.sch" 28
F2 "RED1" I R 3400 8150 28 
F3 "GREEN1" I R 3400 8250 28 
F4 "BLUE1" I R 3400 8350 28 
F5 "RED2" I R 3400 8450 28 
F6 "GREEN2" I R 3400 8550 28 
F7 "BLUE2" I R 3400 8650 28 
$EndSheet
Wire Wire Line
	3400 8150 3700 8150
Wire Wire Line
	3700 8150 3700 7950
Wire Wire Line
	3700 7950 6000 7950
Wire Wire Line
	3400 8250 3800 8250
Wire Wire Line
	3800 8250 3800 8050
Wire Wire Line
	3800 8050 6000 8050
Wire Wire Line
	3400 8350 3900 8350
Wire Wire Line
	3900 8350 3900 8150
Wire Wire Line
	3900 8150 6000 8150
Wire Wire Line
	3400 8450 4000 8450
Wire Wire Line
	4000 8450 4000 8250
Wire Wire Line
	4000 8250 6000 8250
Wire Wire Line
	3400 8550 4100 8550
Wire Wire Line
	4100 8550 4100 8350
Wire Wire Line
	4100 8350 6000 8350
Wire Wire Line
	3400 8650 4200 8650
Wire Wire Line
	4200 8650 4200 8450
Wire Wire Line
	4200 8450 6000 8450
Wire Wire Line
	9800 4100 11150 4100
Wire Wire Line
	9900 4200 11250 4200
$EndSCHEMATC
