EESchema Schematic File Version 4
LIBS:bldc-esc-cache
EELAYER 30 0
EELAYER END
$Descr B 17000 11000
encoding utf-8
Sheet 2 9
Title "BLDC ESC"
Date "2017-06-18"
Rev "A0"
Comp "Sean Watson"
Comment1 ""
Comment2 ""
Comment3 ""
Comment4 ""
$EndDescr
$Comp
L power:+BATT #PWR0202
U 1 1 594CCC9A
P 4450 2850
F 0 "#PWR0202" H 4450 2700 50  0001 C CNN
F 1 "+BATT" H 4450 2990 50  0000 C CNN
F 2 "" H 4450 2850 50  0000 C CNN
F 3 "" H 4450 2850 50  0000 C CNN
	1    4450 2850
	1    0    0    -1  
$EndComp
$Comp
L power:VCC #PWR0229
U 1 1 594CCCC2
P 12100 3850
F 0 "#PWR0229" H 12100 3700 50  0001 C CNN
F 1 "VCC" H 12100 4000 50  0000 C CNN
F 2 "" H 12100 3850 50  0000 C CNN
F 3 "" H 12100 3850 50  0000 C CNN
	1    12100 3850
	1    0    0    -1  
$EndComp
$Comp
L Device:Fuse_Small F201
U 1 1 594CD133
P 4000 3000
F 0 "F201" H 3960 3060 50  0000 L CNN
F 1 "0881070.UR" H 3880 2940 50  0000 L CNN
F 2 "lib:0881070.UR" H 4000 3000 50  0001 C CNN
F 3 "" H 4000 3000 50  0000 C CNN
	1    4000 3000
	1    0    0    -1  
$EndComp
$Comp
L Device:D_Zener_Small D202
U 1 1 594CD577
P 4450 3400
F 0 "D202" H 4450 3500 50  0000 C CNN
F 1 "SMAJ60A-13-F" V 4550 3050 50  0000 C CNN
F 2 "Diode_SMD:D_SMA" H 4450 3400 50  0001 C CNN
F 3 "" H 4450 3400 50  0000 C CNN
	1    4450 3400
	0    1    1    0   
$EndComp
$Comp
L Device:Ferrite_Bead_Small FB201
U 1 1 594CD5D6
P 6550 3000
F 0 "FB201" H 6550 3150 50  0000 C CNN
F 1 "FP1107R1-R07-R" H 6550 2900 50  0000 C CNN
F 2 "lib:FP1107R1-R07-R" H 6550 3000 50  0001 C CNN
F 3 "" H 6550 3000 50  0000 C CNN
	1    6550 3000
	0    1    1    0   
$EndComp
$Comp
L Device:Ferrite_Bead_Small FB202
U 1 1 594CD628
P 6550 3900
F 0 "FB202" H 6550 4050 50  0000 C CNN
F 1 "FP1107R1-R07-R" H 6550 3800 50  0000 C CNN
F 2 "lib:FP1107R1-R07-R" H 6550 3900 50  0001 C CNN
F 3 "" H 6550 3900 50  0000 C CNN
	1    6550 3900
	0    1    1    0   
$EndComp
$Comp
L Device:Transformer_1P_1S T201
U 1 1 594CD67E
P 5600 3450
F 0 "T201" H 5600 3700 50  0000 C CNN
F 1 "CM5441Z101B-10" H 5600 3150 50  0000 C CNN
F 2 "lib:CM5441Z101B-10" H 5600 3450 50  0001 C CNN
F 3 "" H 5600 3450 50  0000 C CNN
	1    5600 3450
	0    1    1    0   
$EndComp
$Comp
L Device:C_Small C206
U 1 1 594CD918
P 7750 3400
F 0 "C206" H 7760 3470 50  0000 L CNN
F 1 "100n" H 7760 3320 50  0000 L CNN
F 2 "Capacitor_SMD:C_0603_1608Metric" H 7750 3400 50  0001 C CNN
F 3 "" H 7750 3400 50  0000 C CNN
	1    7750 3400
	1    0    0    -1  
$EndComp
$Comp
L Device:CP1_Small C211
U 1 1 594CD975
P 11150 4400
F 0 "C211" H 11160 4470 50  0000 L CNN
F 1 "100u" H 11160 4320 50  0000 L CNN
F 2 "Capacitor_SMD:CP_Elec_10x10.5" H 11150 4400 50  0001 C CNN
F 3 "" H 11150 4400 50  0000 C CNN
	1    11150 4400
	1    0    0    -1  
$EndComp
$Comp
L Device:C_Small C209
U 1 1 594CDA3B
P 10900 4400
F 0 "C209" H 10910 4470 50  0000 L CNN
F 1 "100n" H 10910 4320 50  0000 L CNN
F 2 "Capacitor_SMD:C_0603_1608Metric" H 10900 4400 50  0001 C CNN
F 3 "" H 10900 4400 50  0000 C CNN
	1    10900 4400
	1    0    0    -1  
$EndComp
$Comp
L Device:CP1_Small C205
U 1 1 594CDAAD
P 7350 3400
F 0 "C205" H 7360 3470 50  0000 L CNN
F 1 "100u" H 7360 3320 50  0000 L CNN
F 2 "Capacitor_SMD:CP_Elec_10x10.5" H 7350 3400 50  0001 C CNN
F 3 "" H 7350 3400 50  0000 C CNN
	1    7350 3400
	1    0    0    -1  
$EndComp
$Comp
L Device:D_Schottky_Small D204
U 1 1 594CDB45
P 10650 4400
F 0 "D204" H 10600 4480 50  0000 L CNN
F 1 "B380" H 10550 4300 50  0000 L CNN
F 2 "Diode_SMD:D_SMC" V 10650 4400 50  0001 C CNN
F 3 "" V 10650 4400 50  0000 C CNN
	1    10650 4400
	0    1    1    0   
$EndComp
$Comp
L Connector:TestPoint W205
U 1 1 594F5A1C
P 7150 8900
F 0 "W205" H 7150 9170 50  0000 C CNN
F 1 "GND" H 7150 9100 50  0000 C CNN
F 2 "TestPoint:TestPoint_Pad_D2.0mm" H 7350 8900 50  0001 C CNN
F 3 "" H 7350 8900 50  0000 C CNN
	1    7150 8900
	1    0    0    -1  
$EndComp
$Comp
L Connector:TestPoint W204
U 1 1 594F5B6A
P 6950 8900
F 0 "W204" H 6950 9170 50  0000 C CNN
F 1 "GND" H 6950 9100 50  0000 C CNN
F 2 "TestPoint:TestPoint_Pad_D2.0mm" H 7150 8900 50  0001 C CNN
F 3 "" H 7150 8900 50  0000 C CNN
	1    6950 8900
	1    0    0    -1  
$EndComp
$Comp
L Connector:TestPoint W203
U 1 1 594F5BE0
P 6750 8900
F 0 "W203" H 6750 9170 50  0000 C CNN
F 1 "GND" H 6750 9100 50  0000 C CNN
F 2 "TestPoint:TestPoint_Pad_D2.0mm" H 6950 8900 50  0001 C CNN
F 3 "" H 6950 8900 50  0000 C CNN
	1    6750 8900
	1    0    0    -1  
$EndComp
$Comp
L Connector:TestPoint W202
U 1 1 594F5C24
P 6550 8900
F 0 "W202" H 6550 9170 50  0000 C CNN
F 1 "GND" H 6550 9100 50  0000 C CNN
F 2 "TestPoint:TestPoint_Pad_D2.0mm" H 6750 8900 50  0001 C CNN
F 3 "" H 6750 8900 50  0000 C CNN
	1    6550 8900
	1    0    0    -1  
$EndComp
$Comp
L lm5066:lm5066 U204
U 1 1 59539761
P 9500 6100
F 0 "U204" H 8950 7250 56  0000 C CNN
F 1 "lm5066" H 9050 5000 56  0000 C CNN
F 2 "lib:LM5066-PowerPad" H 10100 6000 28  0001 C CNN
F 3 "" H 10100 6000 28  0000 C CNN
	1    9500 6100
	1    0    0    -1  
$EndComp
$Comp
L power:GNDPWR #PWR0222
U 1 1 59539FD9
P 9650 7500
F 0 "#PWR0222" H 9650 7300 50  0001 C CNN
F 1 "GNDPWR" H 9650 7370 50  0000 C CNN
F 2 "" H 9650 7450 50  0000 C CNN
F 3 "" H 9650 7450 50  0000 C CNN
	1    9650 7500
	1    0    0    -1  
$EndComp
$Comp
L Device:R_Small R212
U 1 1 5953ACC6
P 9450 4050
F 0 "R212" H 9480 4070 50  0000 L CNN
F 1 "1m" H 9480 4010 50  0000 L CNN
F 2 "lib:R_3921" H 9450 4050 50  0001 C CNN
F 3 "" H 9450 4050 50  0000 C CNN
	1    9450 4050
	0    1    1    0   
$EndComp
$Comp
L power:GNDPWR #PWR0214
U 1 1 5953BF9F
P 7750 4000
F 0 "#PWR0214" H 7750 3800 50  0001 C CNN
F 1 "GNDPWR" H 7750 3870 50  0000 C CNN
F 2 "" H 7750 3950 50  0000 C CNN
F 3 "" H 7750 3950 50  0000 C CNN
	1    7750 4000
	1    0    0    -1  
$EndComp
$Comp
L power:Earth #PWR0203
U 1 1 5953C21E
P 4450 3950
F 0 "#PWR0203" H 4450 3700 50  0001 C CNN
F 1 "Earth" H 4450 3800 50  0001 C CNN
F 2 "" H 4450 3950 50  0000 C CNN
F 3 "" H 4450 3950 50  0000 C CNN
	1    4450 3950
	1    0    0    -1  
$EndComp
$Comp
L power:GNDPWR #PWR0224
U 1 1 5953C862
P 10650 4850
F 0 "#PWR0224" H 10650 4650 50  0001 C CNN
F 1 "GNDPWR" H 10650 4720 50  0000 C CNN
F 2 "" H 10650 4800 50  0000 C CNN
F 3 "" H 10650 4800 50  0000 C CNN
	1    10650 4850
	1    0    0    -1  
$EndComp
$Comp
L power:GNDPWR #PWR0225
U 1 1 5953CFB4
P 10750 3800
F 0 "#PWR0225" H 10750 3600 50  0001 C CNN
F 1 "GNDPWR" H 10750 3670 50  0000 C CNN
F 2 "" H 10750 3750 50  0000 C CNN
F 3 "" H 10750 3750 50  0000 C CNN
	1    10750 3800
	1    0    0    -1  
$EndComp
$Comp
L Device:R_Small R216
U 1 1 5953D1F0
P 10800 5700
F 0 "R216" H 10830 5720 50  0000 L CNN
F 1 "10k" H 10830 5660 50  0000 L CNN
F 2 "Resistor_SMD:R_0603_1608Metric" H 10800 5700 50  0001 C CNN
F 3 "" H 10800 5700 50  0000 C CNN
	1    10800 5700
	1    0    0    -1  
$EndComp
$Comp
L Device:C_Small C210
U 1 1 5953D823
P 11050 5700
F 0 "C210" H 11060 5770 50  0000 L CNN
F 1 "1u" H 11060 5620 50  0000 L CNN
F 2 "Capacitor_SMD:C_0603_1608Metric" H 11050 5700 50  0001 C CNN
F 3 "" H 11050 5700 50  0000 C CNN
	1    11050 5700
	1    0    0    -1  
$EndComp
$Comp
L power:GNDPWR #PWR0227
U 1 1 5953D9E4
P 11050 6000
F 0 "#PWR0227" H 11050 5800 50  0001 C CNN
F 1 "GNDPWR" H 11050 5870 50  0000 C CNN
F 2 "" H 11050 5950 50  0000 C CNN
F 3 "" H 11050 5950 50  0000 C CNN
	1    11050 6000
	1    0    0    -1  
$EndComp
$Comp
L Device:R_Small R218
U 1 1 5953DB0F
P 11650 4650
F 0 "R218" V 11750 4550 50  0000 L CNN
F 1 "2.2M 1%" V 11550 4550 50  0000 L CNN
F 2 "Resistor_SMD:R_0603_1608Metric" H 11650 4650 50  0001 C CNN
F 3 "" H 11650 4650 50  0000 C CNN
	1    11650 4650
	-1   0    0    -1  
$EndComp
$Comp
L Device:R_Small R219
U 1 1 5953DB94
P 11650 5050
F 0 "R219" V 11750 5000 50  0000 L CNN
F 1 "91k 1%" V 11550 4850 50  0000 L CNN
F 2 "Resistor_SMD:R_0603_1608Metric" H 11650 5050 50  0001 C CNN
F 3 "" H 11650 5050 50  0000 C CNN
	1    11650 5050
	-1   0    0    1   
$EndComp
$Comp
L Device:R_Small R210
U 1 1 5953E3F9
P 8350 6300
F 0 "R210" H 8380 6320 50  0000 L CNN
F 1 "8.2k" H 8380 6260 50  0000 L CNN
F 2 "Resistor_SMD:R_0603_1608Metric" H 8350 6300 50  0001 C CNN
F 3 "" H 8350 6300 50  0000 C CNN
	1    8350 6300
	-1   0    0    -1  
$EndComp
$Comp
L Device:R_Small R209
U 1 1 5953E465
P 8350 6000
F 0 "R209" H 8380 6020 50  0000 L CNN
F 1 "47k" H 8380 5960 50  0000 L CNN
F 2 "Resistor_SMD:R_0603_1608Metric" H 8350 6000 50  0001 C CNN
F 3 "" H 8350 6000 50  0000 C CNN
	1    8350 6000
	-1   0    0    -1  
$EndComp
$Comp
L power:GNDPWR #PWR0218
U 1 1 5953E4F1
P 8350 6450
F 0 "#PWR0218" H 8350 6250 50  0001 C CNN
F 1 "GNDPWR" H 8350 6320 50  0000 C CNN
F 2 "" H 8350 6400 50  0000 C CNN
F 3 "" H 8350 6400 50  0000 C CNN
	1    8350 6450
	1    0    0    -1  
$EndComp
$Comp
L Device:C_Small C208
U 1 1 5953F4D1
P 10600 6850
F 0 "C208" H 10610 6920 50  0000 L CNN
F 1 "270n" H 10610 6770 50  0000 L CNN
F 2 "Capacitor_SMD:C_0603_1608Metric" H 10600 6850 50  0001 C CNN
F 3 "" H 10600 6850 50  0000 C CNN
	1    10600 6850
	1    0    0    -1  
$EndComp
$Comp
L Device:C_Small C207
U 1 1 5953F6A5
P 10450 6850
F 0 "C207" H 10460 6920 50  0000 L CNN
F 1 "1u" H 10460 6770 50  0000 L CNN
F 2 "Capacitor_SMD:C_0603_1608Metric" H 10450 6850 50  0001 C CNN
F 3 "" H 10450 6850 50  0000 C CNN
	1    10450 6850
	1    0    0    -1  
$EndComp
$Comp
L Device:R_Small R217
U 1 1 5953FA13
P 11150 6850
F 0 "R217" H 11180 6870 50  0000 L CNN
F 1 "21k" H 11180 6810 50  0000 L CNN
F 2 "Resistor_SMD:R_0603_1608Metric" H 11150 6850 50  0001 C CNN
F 3 "" H 11150 6850 50  0000 C CNN
	1    11150 6850
	1    0    0    -1  
$EndComp
$Comp
L Device:R_Small R214
U 1 1 59540C37
P 10400 6100
F 0 "R214" H 10430 6120 50  0000 L CNN
F 1 "0" H 10430 6060 50  0000 L CNN
F 2 "Resistor_SMD:R_0603_1608Metric" H 10400 6100 50  0001 C CNN
F 3 "" H 10400 6100 50  0000 C CNN
	1    10400 6100
	1    0    0    -1  
$EndComp
$Comp
L Device:R_Small R215
U 1 1 59540D22
P 10650 6100
F 0 "R215" H 10680 6120 50  0000 L CNN
F 1 "0" H 10680 6060 50  0000 L CNN
F 2 "Resistor_SMD:R_0603_1608Metric" H 10650 6100 50  0001 C CNN
F 3 "" H 10650 6100 50  0000 C CNN
	1    10650 6100
	1    0    0    -1  
$EndComp
Text Notes 10500 6250 2    28   ~ 0
DNP
Text Notes 10750 6250 2    28   ~ 0
DNP
$Comp
L Connector:TestPoint W206
U 1 1 5954226A
P 7750 2900
F 0 "W206" H 7750 3170 50  0000 C CNN
F 1 "VIN" H 7750 3100 50  0000 C CNN
F 2 "TestPoint:TestPoint_Pad_D2.0mm" H 7950 2900 50  0001 C CNN
F 3 "" H 7950 2900 50  0000 C CNN
	1    7750 2900
	1    0    0    -1  
$EndComp
$Comp
L Connector:TestPoint W207
U 1 1 595429CD
P 11300 3900
F 0 "W207" H 11300 4170 50  0000 C CNN
F 1 "VCC" H 11300 4100 50  0000 C CNN
F 2 "TestPoint:TestPoint_Pad_D2.0mm" H 11500 3900 50  0001 C CNN
F 3 "" H 11500 3900 50  0000 C CNN
	1    11300 3900
	1    0    0    -1  
$EndComp
NoConn ~ 8700 6350
$Comp
L power:GNDPWR #PWR0211
U 1 1 595430B5
P 6550 9000
F 0 "#PWR0211" H 6550 8800 50  0001 C CNN
F 1 "GNDPWR" H 6550 8870 50  0000 C CNN
F 2 "" H 6550 8950 50  0000 C CNN
F 3 "" H 6550 8950 50  0000 C CNN
	1    6550 9000
	1    0    0    -1  
$EndComp
$Comp
L power:VDD #PWR0226
U 1 1 59544E67
P 11050 5450
F 0 "#PWR0226" H 11050 5300 50  0001 C CNN
F 1 "VDD" H 11050 5600 50  0000 C CNN
F 2 "" H 11050 5450 50  0000 C CNN
F 3 "" H 11050 5450 50  0000 C CNN
	1    11050 5450
	1    0    0    -1  
$EndComp
Text HLabel 11650 5900 2    28   Output ~ 0
PGOOD
$Comp
L Device:R_Small R207
U 1 1 5958CBC9
P 6850 6550
F 0 "R207" H 6880 6570 50  0000 L CNN
F 1 "470" H 6880 6510 50  0000 L CNN
F 2 "Resistor_SMD:R_0603_1608Metric" H 6850 6550 50  0001 C CNN
F 3 "" H 6850 6550 50  0000 C CNN
	1    6850 6550
	0    1    1    0   
$EndComp
$Comp
L Device:R_Small R204
U 1 1 5958D06E
P 6500 6150
F 0 "R204" H 6530 6170 50  0000 L CNN
F 1 "470" H 6530 6110 50  0000 L CNN
F 2 "Resistor_SMD:R_0603_1608Metric" H 6500 6150 50  0001 C CNN
F 3 "" H 6500 6150 50  0000 C CNN
	1    6500 6150
	0    1    1    0   
$EndComp
$Comp
L bldc-esc-rescue:MMBT3904--bldc-esc-rescue Q?
U 1 1 5958E66E
P 10400 3750
AR Path="/5958E66E" Ref="Q?"  Part="1" 
AR Path="/593A4E6F/5958E66E" Ref="Q202"  Part="1" 
F 0 "Q202" H 10600 3825 50  0000 L CNN
F 1 "MMBT3904" H 10600 3750 50  0000 L CNN
F 2 "Package_TO_SOT_SMD:SOT-23" H 10600 3675 50  0001 L CIN
F 3 "" H 10400 3750 50  0000 L CNN
	1    10400 3750
	0    -1   -1   0   
$EndComp
$Comp
L Isolator:TLP291 U203
U 1 1 5958F75F
P 7400 6450
F 0 "U203" H 7200 6650 50  0000 L CNN
F 1 "TLP291" H 7400 6650 50  0000 L CNN
F 2 "lib:SOP-4" H 7200 6250 50  0000 L CIN
F 3 "" H 7400 6450 50  0000 L CNN
	1    7400 6450
	1    0    0    -1  
$EndComp
$Comp
L iso1540:iso1540 U201
U 1 1 59471663
P 5550 5400
F 0 "U201" H 5350 5700 28  0000 C CNN
F 1 "iso1540" H 5400 5100 28  0000 C CNN
F 2 "Package_SO:SOIC-8_3.9x4.9mm_P1.27mm" H 4750 4600 28  0001 C CNN
F 3 "" H 4750 4600 28  0000 C CNN
	1    5550 5400
	1    0    0    -1  
$EndComp
$Comp
L power:VDD #PWR0209
U 1 1 594720D9
P 6050 4550
F 0 "#PWR0209" H 6050 4400 50  0001 C CNN
F 1 "VDD" H 6050 4700 50  0000 C CNN
F 2 "" H 6050 4550 50  0000 C CNN
F 3 "" H 6050 4550 50  0000 C CNN
	1    6050 4550
	1    0    0    -1  
$EndComp
$Comp
L power:+3.3V #PWR0204
U 1 1 59472380
P 5000 4550
F 0 "#PWR0204" H 5000 4400 50  0001 C CNN
F 1 "+3.3V" H 5000 4690 50  0000 C CNN
F 2 "" H 5000 4550 50  0000 C CNN
F 3 "" H 5000 4550 50  0000 C CNN
	1    5000 4550
	1    0    0    -1  
$EndComp
$Comp
L power:GNDPWR #PWR0210
U 1 1 594726E1
P 6050 5650
F 0 "#PWR0210" H 6050 5450 50  0001 C CNN
F 1 "GNDPWR" H 6050 5520 50  0000 C CNN
F 2 "" H 6050 5600 50  0000 C CNN
F 3 "" H 6050 5600 50  0000 C CNN
	1    6050 5650
	1    0    0    -1  
$EndComp
$Comp
L power:GNDD #PWR0205
U 1 1 59472823
P 5000 5650
F 0 "#PWR0205" H 5000 5400 50  0001 C CNN
F 1 "GNDD" H 5000 5500 50  0000 C CNN
F 2 "" H 5000 5650 50  0000 C CNN
F 3 "" H 5000 5650 50  0000 C CNN
	1    5000 5650
	1    0    0    -1  
$EndComp
$Comp
L Device:R_Small R203
U 1 1 594730FF
P 6300 5200
F 0 "R203" H 6330 5220 50  0000 L CNN
F 1 "2.2k" H 6330 5160 50  0000 L CNN
F 2 "Resistor_SMD:R_0603_1608Metric" H 6300 5200 50  0001 C CNN
F 3 "" H 6300 5200 50  0000 C CNN
	1    6300 5200
	-1   0    0    1   
$EndComp
$Comp
L Device:R_Small R205
U 1 1 59473245
P 6550 5200
F 0 "R205" H 6580 5220 50  0000 L CNN
F 1 "2.2k" H 6580 5160 50  0000 L CNN
F 2 "Resistor_SMD:R_0603_1608Metric" H 6550 5200 50  0001 C CNN
F 3 "" H 6550 5200 50  0000 C CNN
	1    6550 5200
	-1   0    0    1   
$EndComp
$Comp
L Device:R_Small R206
U 1 1 59474924
P 6850 5200
F 0 "R206" H 6880 5220 50  0000 L CNN
F 1 "2.2k" H 6880 5160 50  0000 L CNN
F 2 "Resistor_SMD:R_0603_1608Metric" H 6850 5200 50  0001 C CNN
F 3 "" H 6850 5200 50  0000 C CNN
	1    6850 5200
	-1   0    0    1   
$EndComp
$Comp
L Device:C_Small C204
U 1 1 59475A72
P 5850 4750
F 0 "C204" H 5860 4820 50  0000 L CNN
F 1 "100n" H 5860 4670 50  0000 L CNN
F 2 "Capacitor_SMD:C_0603_1608Metric" H 5850 4750 50  0001 C CNN
F 3 "" H 5850 4750 50  0000 C CNN
	1    5850 4750
	-1   0    0    -1  
$EndComp
$Comp
L Device:C_Small C203
U 1 1 59475BB7
P 5200 4750
F 0 "C203" H 5210 4820 50  0000 L CNN
F 1 "100n" H 5210 4670 50  0000 L CNN
F 2 "Capacitor_SMD:C_0603_1608Metric" H 5200 4750 50  0001 C CNN
F 3 "" H 5200 4750 50  0000 C CNN
	1    5200 4750
	1    0    0    -1  
$EndComp
$Comp
L power:GNDPWR #PWR0208
U 1 1 59475EA9
P 5850 4900
F 0 "#PWR0208" H 5850 4700 50  0001 C CNN
F 1 "GNDPWR" H 5850 4770 50  0000 C CNN
F 2 "" H 5850 4850 50  0000 C CNN
F 3 "" H 5850 4850 50  0000 C CNN
	1    5850 4900
	1    0    0    -1  
$EndComp
$Comp
L power:GNDD #PWR0206
U 1 1 59475F4A
P 5200 4900
F 0 "#PWR0206" H 5200 4650 50  0001 C CNN
F 1 "GNDD" H 5200 4750 50  0000 C CNN
F 2 "" H 5200 4900 50  0000 C CNN
F 3 "" H 5200 4900 50  0000 C CNN
	1    5200 4900
	1    0    0    -1  
$EndComp
$Comp
L Isolator:TLP291 U202
U 1 1 59476F96
P 6000 6250
F 0 "U202" H 5800 6450 50  0000 L CNN
F 1 "TLP291" H 6000 6450 50  0000 L CNN
F 2 "lib:SOP-4" H 5800 6050 50  0000 L CIN
F 3 "" H 6000 6250 50  0000 L CNN
	1    6000 6250
	-1   0    0    -1  
$EndComp
$Comp
L power:GNDPWR #PWR0216
U 1 1 5947737C
P 7850 6700
F 0 "#PWR0216" H 7850 6500 50  0001 C CNN
F 1 "GNDPWR" H 7850 6570 50  0000 C CNN
F 2 "" H 7850 6650 50  0000 C CNN
F 3 "" H 7850 6650 50  0000 C CNN
	1    7850 6700
	1    0    0    -1  
$EndComp
$Comp
L power:GNDD #PWR0207
U 1 1 59478D99
P 5600 6700
F 0 "#PWR0207" H 5600 6450 50  0001 C CNN
F 1 "GNDD" H 5600 6550 50  0000 C CNN
F 2 "" H 5600 6700 50  0000 C CNN
F 3 "" H 5600 6700 50  0000 C CNN
	1    5600 6700
	1    0    0    -1  
$EndComp
$Comp
L Device:R_Small R201
U 1 1 59479095
P 4400 5950
F 0 "R201" H 4430 5970 50  0000 L CNN
F 1 "10k" H 4430 5910 50  0000 L CNN
F 2 "Resistor_SMD:R_0603_1608Metric" H 4400 5950 50  0001 C CNN
F 3 "" H 4400 5950 50  0000 C CNN
	1    4400 5950
	-1   0    0    1   
$EndComp
$Comp
L power:+3.3V #PWR0201
U 1 1 594791DE
P 4400 5750
F 0 "#PWR0201" H 4400 5600 50  0001 C CNN
F 1 "+3.3V" H 4400 5890 50  0000 C CNN
F 2 "" H 4400 5750 50  0000 C CNN
F 3 "" H 4400 5750 50  0000 C CNN
	1    4400 5750
	1    0    0    -1  
$EndComp
$Comp
L Connector_Generic:Conn_01x02 P201
U 1 1 5947A2AF
P 3050 3500
F 0 "P201" H 3050 3650 50  0000 C CNN
F 1 "CONN_01X02" V 3150 3500 50  0000 C CNN
F 2 "Connector_PinHeader_1.00mm:PinHeader_1x02_P1.00mm_Vertical" H 3050 3500 50  0001 C CNN
F 3 "" H 3050 3500 50  0000 C CNN
	1    3050 3500
	-1   0    0    1   
$EndComp
Text HLabel 4150 5350 0    28   BiDi ~ 0
PWRSDA
Text HLabel 4150 5450 0    28   Input ~ 0
PWRSCL
Text HLabel 4150 6150 0    28   Output ~ 0
PWRSMBALERT
Text HLabel 4150 6550 0    28   Input ~ 0
PWRRST
$Comp
L Device:R_Small R202
U 1 1 5947BD0E
P 4600 5950
F 0 "R202" H 4630 5970 50  0000 L CNN
F 1 "10k" H 4630 5910 50  0000 L CNN
F 2 "Resistor_SMD:R_0603_1608Metric" H 4600 5950 50  0001 C CNN
F 3 "" H 4600 5950 50  0000 C CNN
	1    4600 5950
	-1   0    0    1   
$EndComp
$Comp
L power:VDD #PWR0212
U 1 1 5947CA2D
P 6700 6100
F 0 "#PWR0212" H 6700 5950 50  0001 C CNN
F 1 "VDD" H 6700 6250 50  0000 C CNN
F 2 "" H 6700 6100 50  0000 C CNN
F 3 "" H 6700 6100 50  0000 C CNN
	1    6700 6100
	1    0    0    -1  
$EndComp
$Comp
L power:+3.3V #PWR0213
U 1 1 5947CF59
P 7000 6100
F 0 "#PWR0213" H 7000 5950 50  0001 C CNN
F 1 "+3.3V" H 7000 6240 50  0000 C CNN
F 2 "" H 7000 6100 50  0000 C CNN
F 3 "" H 7000 6100 50  0000 C CNN
	1    7000 6100
	1    0    0    -1  
$EndComp
NoConn ~ 8700 6700
NoConn ~ 8700 6800
NoConn ~ 8700 6900
$Comp
L power:GNDPWR #PWR0230
U 1 1 595B3936
P 12100 5350
F 0 "#PWR0230" H 12100 5150 50  0001 C CNN
F 1 "GNDPWR" H 12100 5220 50  0000 C CNN
F 2 "" H 12100 5300 50  0000 C CNN
F 3 "" H 12100 5300 50  0000 C CNN
	1    12100 5350
	1    0    0    -1  
$EndComp
$Comp
L Device:LED_Small D203
U 1 1 595B4A3B
P 8600 4500
F 0 "D203" H 8550 4625 50  0000 L CNN
F 1 "VBAT" H 8500 4400 50  0000 L CNN
F 2 "LED_SMD:LED_0603_1608Metric" V 8600 4500 50  0001 C CNN
F 3 "" V 8600 4500 50  0000 C CNN
	1    8600 4500
	0    -1   -1   0   
$EndComp
$Comp
L power:GNDPWR #PWR0219
U 1 1 595B4CAE
P 8600 4700
F 0 "#PWR0219" H 8600 4500 50  0001 C CNN
F 1 "GNDPWR" H 8600 4550 50  0000 C CNN
F 2 "" H 8600 4650 50  0000 C CNN
F 3 "" H 8600 4650 50  0000 C CNN
	1    8600 4700
	1    0    0    -1  
$EndComp
$Comp
L Device:R_Small R211
U 1 1 595B524F
P 8600 4250
F 0 "R211" H 8630 4270 50  0000 L CNN
F 1 "7.5k 0.5W" H 8630 4210 50  0000 L CNN
F 2 "Resistor_SMD:R_2010_5025Metric" H 8600 4250 50  0001 C CNN
F 3 "" H 8600 4250 50  0000 C CNN
	1    8600 4250
	1    0    0    -1  
$EndComp
$Comp
L Device:LED_Small D206
U 1 1 595BFF23
P 12100 4900
F 0 "D206" H 12050 5025 50  0000 L CNN
F 1 "VCC" H 12000 4800 50  0000 L CNN
F 2 "LED_SMD:LED_0603_1608Metric" V 12100 4900 50  0001 C CNN
F 3 "" V 12100 4900 50  0000 C CNN
	1    12100 4900
	0    -1   -1   0   
$EndComp
$Comp
L Device:R_Small R221
U 1 1 595BFF2F
P 12100 4550
F 0 "R221" H 12130 4570 50  0000 L CNN
F 1 "7.5k 0.5W" H 12130 4510 50  0000 L CNN
F 2 "Resistor_SMD:R_2010_5025Metric" H 12100 4550 50  0001 C CNN
F 3 "" H 12100 4550 50  0000 C CNN
	1    12100 4550
	1    0    0    -1  
$EndComp
$Comp
L Device:R_Small R213
U 1 1 5953AEDE
P 9850 4550
F 0 "R213" H 9880 4570 50  0000 L CNN
F 1 "0" H 9880 4510 50  0000 L CNN
F 2 "Resistor_SMD:R_0603_1608Metric" H 9850 4550 50  0001 C CNN
F 3 "" H 9850 4550 50  0000 C CNN
	1    9850 4550
	1    0    0    -1  
$EndComp
$Comp
L Device:R_Small R208
U 1 1 59600408
P 8350 5700
F 0 "R208" H 8380 5720 50  0000 L CNN
F 1 "150k" H 8380 5660 50  0000 L CNN
F 2 "Resistor_SMD:R_0603_1608Metric" H 8350 5700 50  0001 C CNN
F 3 "" H 8350 5700 50  0000 C CNN
	1    8350 5700
	-1   0    0    -1  
$EndComp
$Comp
L power:Earth #PWR0215
U 1 1 5960B66E
P 7800 8900
F 0 "#PWR0215" H 7800 8650 50  0001 C CNN
F 1 "Earth" H 7800 8750 50  0001 C CNN
F 2 "" H 7800 8900 50  0000 C CNN
F 3 "" H 7800 8900 50  0000 C CNN
	1    7800 8900
	1    0    0    -1  
$EndComp
$Comp
L power:GNDPWR #PWR0217
U 1 1 5960B856
P 8100 8900
F 0 "#PWR0217" H 8100 8700 50  0001 C CNN
F 1 "GNDPWR" H 8100 8770 50  0000 C CNN
F 2 "" H 8100 8850 50  0000 C CNN
F 3 "" H 8100 8850 50  0000 C CNN
	1    8100 8900
	1    0    0    -1  
$EndComp
$Comp
L power:Earth #PWR0223
U 1 1 5961A858
P 9700 8950
F 0 "#PWR0223" H 9700 8700 50  0001 C CNN
F 1 "Earth" H 9700 8800 50  0001 C CNN
F 2 "" H 9700 8950 50  0000 C CNN
F 3 "" H 9700 8950 50  0000 C CNN
	1    9700 8950
	1    0    0    -1  
$EndComp
$Comp
L power:VCC #PWR0221
U 1 1 5961AD92
P 9300 8650
F 0 "#PWR0221" H 9300 8500 50  0001 C CNN
F 1 "VCC" H 9300 8800 50  0000 C CNN
F 2 "" H 9300 8650 50  0000 C CNN
F 3 "" H 9300 8650 50  0000 C CNN
	1    9300 8650
	1    0    0    -1  
$EndComp
$Comp
L power:+BATT #PWR0220
U 1 1 5961B5EE
P 8900 8650
F 0 "#PWR0220" H 8900 8500 50  0001 C CNN
F 1 "+BATT" H 8900 8790 50  0000 C CNN
F 2 "" H 8900 8650 50  0000 C CNN
F 3 "" H 8900 8650 50  0000 C CNN
	1    8900 8650
	1    0    0    -1  
$EndComp
$Comp
L power:PWR_FLAG #FLG0201
U 1 1 5961BF57
P 8900 8850
F 0 "#FLG0201" H 8900 8945 50  0001 C CNN
F 1 "PWR_FLAG" H 8900 9030 50  0000 C CNN
F 2 "" H 8900 8850 50  0000 C CNN
F 3 "" H 8900 8850 50  0000 C CNN
	1    8900 8850
	-1   0    0    1   
$EndComp
$Comp
L power:PWR_FLAG #FLG0203
U 1 1 5961C008
P 9300 8850
F 0 "#FLG0203" H 9300 8945 50  0001 C CNN
F 1 "PWR_FLAG" H 9300 9030 50  0000 C CNN
F 2 "" H 9300 8850 50  0000 C CNN
F 3 "" H 9300 8850 50  0000 C CNN
	1    9300 8850
	-1   0    0    1   
$EndComp
$Comp
L power:PWR_FLAG #FLG0204
U 1 1 5961C2A5
P 9700 8650
F 0 "#FLG0204" H 9700 8745 50  0001 C CNN
F 1 "PWR_FLAG" H 9700 8830 50  0000 C CNN
F 2 "" H 9700 8650 50  0000 C CNN
F 3 "" H 9700 8650 50  0000 C CNN
	1    9700 8650
	1    0    0    -1  
$EndComp
$Comp
L power:PWR_FLAG #FLG0202
U 1 1 59620026
P 9150 3850
F 0 "#FLG0202" H 9150 3945 50  0001 C CNN
F 1 "PWR_FLAG" H 9150 4030 50  0000 C CNN
F 2 "" H 9150 3850 50  0000 C CNN
F 3 "" H 9150 3850 50  0000 C CNN
	1    9150 3850
	1    0    0    -1  
$EndComp
$Comp
L Device:Q_NMOS_GDS Q201
U 1 1 59686595
P 9850 4150
F 0 "Q201" H 10150 4200 50  0000 R CNN
F 1 "IRFS7530" H 10400 4100 50  0000 R CNN
F 2 "Package_TO_SOT_SMD:TO-263-2" H 10050 4250 50  0001 C CNN
F 3 "" H 9850 4150 50  0000 C CNN
	1    9850 4150
	0    -1   -1   0   
$EndComp
$Comp
L Device:CP1_Small C201
U 1 1 59698774
P 4750 3400
F 0 "C201" H 4760 3470 50  0000 L CNN
F 1 "1m" H 4760 3320 50  0000 L CNN
F 2 "Capacitor_THT:C_Radial_D16.0mm_H25.0mm_P7.50mm" H 4750 3400 50  0001 C CNN
F 3 "" H 4750 3400 50  0000 C CNN
	1    4750 3400
	1    0    0    -1  
$EndComp
$Comp
L Device:CP1_Small C202
U 1 1 59698A72
P 5050 3400
F 0 "C202" H 5060 3470 50  0000 L CNN
F 1 "1m" H 5060 3320 50  0000 L CNN
F 2 "Capacitor_THT:C_Radial_D16.0mm_H25.0mm_P7.50mm" H 5050 3400 50  0001 C CNN
F 3 "" H 5050 3400 50  0000 C CNN
	1    5050 3400
	1    0    0    -1  
$EndComp
Text Notes 11200 7100 0    28   ~ 0
FET power limit = 240W\nMax input voltage = 60V\nMax current = 40A\nRsns = 1mOhm
Text Notes 10600 7050 0    28   ~ 0
Start delay = 220ms\nStart fault limit = 14ms
Text Notes 7300 5800 0    28   ~ 0
Undervoltage upper limit = 12.18V\nUndervoltage lower limit = 9.18V\nOvervoltage upper limit = 59.47V\nOvervoltage lower limit = 55.34V
Text Notes 11850 5400 2    28   ~ 0
Power good upper limit = 57V\nPower good lower limit = 13V
$Comp
L Device:R_Small R220
U 1 1 5977117B
P 12050 5750
F 0 "R220" H 12080 5770 50  0000 L CNN
F 1 "470" H 12080 5710 50  0000 L CNN
F 2 "Resistor_SMD:R_0603_1608Metric" H 12050 5750 50  0001 C CNN
F 3 "" H 12050 5750 50  0000 C CNN
	1    12050 5750
	1    0    0    -1  
$EndComp
$Comp
L Device:LED_Small D205
U 1 1 59771277
P 12050 6050
F 0 "D205" H 12000 6175 50  0000 L CNN
F 1 "PGD" H 11950 5950 50  0000 L CNN
F 2 "LED_SMD:LED_0603_1608Metric" V 12050 6050 50  0001 C CNN
F 3 "" V 12050 6050 50  0000 C CNN
	1    12050 6050
	0    -1   -1   0   
$EndComp
$Comp
L Transistor_FET:BSS138 Q203
U 1 1 5977135D
P 11950 6450
F 0 "Q203" H 12150 6525 50  0000 L CNN
F 1 "BSS138" H 12150 6450 50  0000 L CNN
F 2 "Package_TO_SOT_SMD:SOT-23" H 12150 6375 50  0001 L CIN
F 3 "" H 11950 6450 50  0000 L CNN
	1    11950 6450
	1    0    0    -1  
$EndComp
$Comp
L power:GNDPWR #PWR0228
U 1 1 59771DDE
P 12050 6800
F 0 "#PWR0228" H 12050 6600 50  0001 C CNN
F 1 "GNDPWR" H 12050 6670 50  0000 C CNN
F 2 "" H 12050 6750 50  0000 C CNN
F 3 "" H 12050 6750 50  0000 C CNN
	1    12050 6800
	1    0    0    -1  
$EndComp
Wire Wire Line
	10650 4750 10900 4750
Wire Wire Line
	11650 4750 11650 4850
Connection ~ 11650 4050
Wire Wire Line
	11650 4050 11650 4550
Connection ~ 11650 4850
Wire Wire Line
	9650 7300 9650 7400
Wire Wire Line
	9450 7400 9550 7400
Connection ~ 9650 7400
Wire Wire Line
	9450 7300 9450 7400
Connection ~ 9550 7400
Wire Wire Line
	9850 4800 9850 4650
Wire Wire Line
	9850 4450 9850 4350
Wire Wire Line
	10050 4050 10150 4050
Wire Wire Line
	10000 4800 10000 4700
Wire Wire Line
	10000 4700 10150 4700
Wire Wire Line
	10150 4700 10150 4050
Connection ~ 10150 4050
Wire Wire Line
	9550 4050 9600 4050
Wire Wire Line
	9600 4050 9600 4800
Connection ~ 9600 4050
Wire Wire Line
	9250 4050 9250 4800
Wire Wire Line
	9150 3850 9150 4050
Connection ~ 9250 4050
Connection ~ 9150 4050
Wire Wire Line
	7350 3300 7350 3000
Connection ~ 7350 3000
Wire Wire Line
	7350 3500 7350 3900
Connection ~ 7350 3900
Wire Wire Line
	5800 3900 5800 3850
Wire Wire Line
	5400 3000 5400 3050
Wire Wire Line
	5800 3050 5800 3000
Wire Wire Line
	3250 3850 4450 3850
Wire Wire Line
	10650 4050 10650 4300
Connection ~ 10650 4050
Wire Wire Line
	11150 4050 11150 4300
Wire Wire Line
	10900 4050 10900 4300
Connection ~ 10900 4050
Wire Wire Line
	10650 4500 10650 4750
Wire Wire Line
	10900 4750 10900 4500
Connection ~ 10650 4750
Wire Wire Line
	11150 4750 11150 4500
Connection ~ 10900 4750
Wire Wire Line
	12100 3850 12100 4050
Connection ~ 11150 4050
Wire Wire Line
	10200 3950 10400 3950
Wire Wire Line
	10400 3950 10400 5250
Wire Wire Line
	10400 5250 10300 5250
Wire Wire Line
	10200 3950 10200 3650
Connection ~ 10400 3950
Wire Wire Line
	10600 3650 10750 3650
Wire Wire Line
	10750 3650 10750 3800
Wire Wire Line
	10300 5800 10400 5800
Wire Wire Line
	10700 5800 10700 5550
Wire Wire Line
	10300 5900 10800 5900
Wire Wire Line
	10600 5550 10300 5550
Wire Wire Line
	10600 5050 10600 5550
Wire Wire Line
	8350 3000 8350 4050
Connection ~ 8350 4050
Wire Wire Line
	7850 5850 8350 5850
Wire Wire Line
	8550 5250 8700 5250
Wire Wire Line
	5950 5350 6300 5350
Wire Wire Line
	5950 5450 6550 5450
Wire Wire Line
	10300 6700 10450 6700
Wire Wire Line
	10450 6700 10450 6750
Wire Wire Line
	10300 6600 10600 6600
Wire Wire Line
	10600 6600 10600 6750
Wire Wire Line
	10450 7400 10450 6950
Wire Wire Line
	10600 7400 10600 6950
Connection ~ 10450 7400
Wire Wire Line
	10300 6500 11150 6500
Wire Wire Line
	11150 6500 11150 6750
Wire Wire Line
	11150 7400 11150 6950
Connection ~ 10600 7400
Wire Wire Line
	10400 6000 10400 5800
Connection ~ 10400 5800
Wire Wire Line
	10650 5800 10650 6000
Connection ~ 10650 5800
Wire Wire Line
	10300 6300 10400 6300
Wire Wire Line
	10400 6300 10400 6200
Wire Wire Line
	10300 6400 10650 6400
Wire Wire Line
	10650 6400 10650 6200
Wire Wire Line
	6550 8900 6550 8950
Wire Wire Line
	6550 8950 6750 8950
Wire Wire Line
	6750 8950 6750 8900
Connection ~ 6550 8950
Wire Wire Line
	6950 8950 6950 8900
Connection ~ 6750 8950
Wire Wire Line
	7150 8950 7150 8900
Connection ~ 6950 8950
Wire Wire Line
	7000 6350 7100 6350
Wire Wire Line
	6950 6550 7100 6550
Wire Wire Line
	4150 6550 4600 6550
Wire Wire Line
	7850 6350 7850 5850
Wire Wire Line
	7700 6350 7850 6350
Wire Wire Line
	7700 6550 7850 6550
Wire Wire Line
	7850 6550 7850 6700
Wire Wire Line
	8350 4050 8600 4050
Wire Wire Line
	8550 5350 8550 5250
Connection ~ 8550 5350
Wire Wire Line
	6050 5250 5950 5250
Wire Wire Line
	6050 4550 6050 4600
Wire Wire Line
	5000 4550 5000 4600
Wire Wire Line
	5000 5250 5100 5250
Wire Wire Line
	5950 5550 6050 5550
Wire Wire Line
	6050 5550 6050 5650
Wire Wire Line
	5100 5550 5000 5550
Wire Wire Line
	5000 5550 5000 5650
Wire Wire Line
	4150 5350 5100 5350
Wire Wire Line
	4150 5450 5100 5450
Wire Wire Line
	6050 5050 6300 5050
Connection ~ 6050 5050
Wire Wire Line
	6300 5300 6300 5350
Connection ~ 6300 5350
Wire Wire Line
	6550 5300 6550 5450
Connection ~ 6550 5450
Wire Wire Line
	6550 5050 6550 5100
Wire Wire Line
	6300 5100 6300 5050
Connection ~ 6300 5050
Wire Wire Line
	6850 5050 6850 5100
Connection ~ 6550 5050
Wire Wire Line
	6850 5300 6850 5550
Wire Wire Line
	5200 4900 5200 4850
Wire Wire Line
	5200 4600 5000 4600
Connection ~ 5000 4600
Wire Wire Line
	5850 4650 5850 4600
Wire Wire Line
	5850 4600 6050 4600
Connection ~ 6050 4600
Wire Wire Line
	5850 4900 5850 4850
Wire Wire Line
	6850 6350 6300 6350
Wire Wire Line
	6300 6150 6400 6150
Wire Wire Line
	6600 6150 6700 6150
Wire Wire Line
	5600 6350 5700 6350
Wire Wire Line
	5600 6350 5600 6700
Wire Wire Line
	4150 6150 4400 6150
Wire Wire Line
	4400 5750 4400 5800
Wire Wire Line
	4400 6050 4400 6150
Connection ~ 4400 6150
Wire Wire Line
	3250 2950 3250 3050
Wire Wire Line
	3250 3500 3250 3850
Wire Wire Line
	4600 6050 4600 6550
Connection ~ 4600 6550
Wire Wire Line
	4600 5850 4600 5800
Wire Wire Line
	4600 5800 4400 5800
Wire Wire Line
	6700 6150 6700 6100
Wire Wire Line
	7000 6350 7000 6100
Wire Wire Line
	11300 4050 11300 3900
Connection ~ 11300 4050
Wire Wire Line
	10700 5550 10800 5550
Wire Wire Line
	8600 4150 8600 4050
Connection ~ 8600 4050
Wire Wire Line
	8600 4400 8600 4350
Wire Wire Line
	8600 4700 8600 4600
Wire Wire Line
	12100 4800 12100 4650
Wire Wire Line
	9550 7400 9550 7300
Wire Wire Line
	6850 5550 8700 5550
Connection ~ 6850 5550
Wire Wire Line
	5200 4650 5200 4600
Connection ~ 4400 5800
Connection ~ 12100 4050
Wire Wire Line
	11050 5450 11050 5550
Connection ~ 11050 5550
Wire Wire Line
	11050 6000 11050 5800
Wire Wire Line
	8100 8900 8100 8750
Wire Wire Line
	8100 8750 7800 8750
Wire Wire Line
	7800 8750 7800 8900
Wire Wire Line
	8900 8850 8900 8650
Wire Wire Line
	9300 8850 9300 8650
Wire Wire Line
	9700 8950 9700 8650
Wire Wire Line
	8350 5800 8350 5850
Connection ~ 8350 5850
Wire Wire Line
	8700 5950 8550 5950
Wire Wire Line
	8550 5950 8550 6150
Wire Wire Line
	8550 6150 8350 6150
Wire Wire Line
	8350 6100 8350 6150
Connection ~ 8350 6150
Wire Wire Line
	8350 6450 8350 6400
Wire Wire Line
	10800 5600 10800 5550
Connection ~ 10800 5550
Wire Wire Line
	10800 5800 10800 5900
Connection ~ 10800 5900
Wire Wire Line
	11650 5250 11650 5150
Wire Wire Line
	10600 5050 11000 5050
Wire Wire Line
	11000 5050 11000 4850
Wire Wire Line
	11000 4850 11650 4850
Connection ~ 11550 5900
Wire Wire Line
	11650 5250 12100 5250
Wire Wire Line
	12100 5000 12100 5250
Connection ~ 12100 5250
Wire Wire Line
	12050 6250 12050 6150
Wire Wire Line
	12050 5950 12050 5850
Wire Wire Line
	11550 5900 11550 6450
Wire Wire Line
	11550 6450 11750 6450
Wire Wire Line
	12050 5550 12050 5650
Wire Wire Line
	12050 6800 12050 6650
$Comp
L Device:D_Schottky_AAK D201
U 1 1 5960D645
P 3550 2950
F 0 "D201" H 3550 3050 50  0000 C CNN
F 1 "V60D100C" H 3550 2850 50  0000 C CNN
F 2 "Package_TO_SOT_SMD:TO-263-3_TabPin4" H 3550 2950 50  0001 C CNN
F 3 "" H 3550 2950 50  0000 C CNN
	1    3550 2950
	-1   0    0    1   
$EndComp
Wire Wire Line
	3250 2950 3350 2950
Wire Wire Line
	3350 3050 3250 3050
Connection ~ 3250 3050
Wire Wire Line
	3900 3000 3750 3000
Wire Wire Line
	4100 3000 4450 3000
Wire Wire Line
	4450 2850 4450 3000
Wire Wire Line
	4450 3500 4450 3850
Connection ~ 4450 3850
Connection ~ 4450 3000
Wire Wire Line
	4750 2950 4750 3000
Connection ~ 4750 3000
Wire Wire Line
	5050 3300 5050 3000
Connection ~ 5050 3000
Wire Wire Line
	4750 3500 4750 3850
Connection ~ 4750 3850
Wire Wire Line
	5050 3500 5050 3850
Connection ~ 5050 3850
Wire Wire Line
	7750 3500 7750 3900
Wire Wire Line
	7750 2900 7750 3000
Connection ~ 7750 3000
Connection ~ 7750 3900
$Comp
L Connector:TestPoint W201
U 1 1 5977EA1D
P 4750 2950
F 0 "W201" H 4750 3220 50  0000 C CNN
F 1 "VBATT" H 4750 3150 50  0000 C CNN
F 2 "TestPoint:TestPoint_Pad_D2.0mm" H 4950 2950 50  0001 C CNN
F 3 "" H 4950 2950 50  0000 C CNN
	1    4750 2950
	1    0    0    -1  
$EndComp
Text Notes 2700 3800 0    28   ~ 0
Max input voltage 60V\nMax input current 40A
Wire Wire Line
	11650 4050 12100 4050
Wire Wire Line
	11650 4850 11650 4950
Wire Wire Line
	9650 7400 9650 7500
Wire Wire Line
	9650 7400 10450 7400
Wire Wire Line
	9550 7400 9650 7400
Wire Wire Line
	10150 4050 10650 4050
Wire Wire Line
	9600 4050 9650 4050
Wire Wire Line
	9250 4050 9350 4050
Wire Wire Line
	9150 4050 9150 4800
Wire Wire Line
	9150 4050 9250 4050
Wire Wire Line
	7350 3000 7750 3000
Wire Wire Line
	7350 3900 7750 3900
Wire Wire Line
	10650 4050 10900 4050
Wire Wire Line
	10900 4050 11150 4050
Wire Wire Line
	10650 4750 10650 4850
Wire Wire Line
	10900 4750 11150 4750
Wire Wire Line
	11150 4050 11300 4050
Wire Wire Line
	8350 4050 8350 5600
Wire Wire Line
	10450 7400 10600 7400
Wire Wire Line
	10600 7400 11150 7400
Wire Wire Line
	10400 5800 10650 5800
Wire Wire Line
	10650 5800 10700 5800
Wire Wire Line
	6550 8950 6550 9000
Wire Wire Line
	6750 8950 6950 8950
Wire Wire Line
	6950 8950 7150 8950
Wire Wire Line
	8550 5350 8700 5350
Wire Wire Line
	6050 5050 6050 5250
Wire Wire Line
	6300 5350 8550 5350
Wire Wire Line
	6550 5450 8700 5450
Wire Wire Line
	6300 5050 6550 5050
Wire Wire Line
	6550 5050 6850 5050
Wire Wire Line
	5000 4600 5000 5250
Wire Wire Line
	6050 4600 6050 5050
Wire Wire Line
	4400 6150 5700 6150
Wire Wire Line
	4600 6550 6750 6550
Wire Wire Line
	11300 4050 11650 4050
Wire Wire Line
	8600 4050 9150 4050
Wire Wire Line
	6850 5550 6850 6350
Wire Wire Line
	4400 5800 4400 5850
Wire Wire Line
	12100 4050 12100 4450
Wire Wire Line
	11050 5550 12050 5550
Wire Wire Line
	11050 5550 11050 5600
Wire Wire Line
	8350 5850 8700 5850
Wire Wire Line
	8350 5850 8350 5900
Wire Wire Line
	8350 6150 8350 6200
Wire Wire Line
	10800 5550 11050 5550
Wire Wire Line
	10800 5900 11550 5900
Wire Wire Line
	11550 5900 11650 5900
Wire Wire Line
	12100 5250 12100 5350
Wire Wire Line
	3250 3050 3250 3400
Wire Wire Line
	4450 3850 4750 3850
Wire Wire Line
	4450 3850 4450 3950
Wire Wire Line
	4450 3000 4750 3000
Wire Wire Line
	4450 3000 4450 3300
Wire Wire Line
	4750 3000 4750 3300
Wire Wire Line
	4750 3000 5050 3000
Wire Wire Line
	5050 3000 5400 3000
Wire Wire Line
	4750 3850 5050 3850
Wire Wire Line
	5050 3850 5400 3850
Wire Wire Line
	7750 3000 7750 3300
Wire Wire Line
	7750 3000 8350 3000
Wire Wire Line
	7750 3900 7750 4000
Wire Wire Line
	5800 3000 6450 3000
Wire Wire Line
	6650 3000 7350 3000
Wire Wire Line
	6650 3900 7350 3900
Wire Wire Line
	5800 3900 6450 3900
Wire Wire Line
	3750 3000 3750 2950
Wire Wire Line
	3750 2950 3700 2950
$EndSCHEMATC
