EESchema Schematic File Version 4
LIBS:bldc-esc-cache
EELAYER 30 0
EELAYER END
$Descr B 17000 11000
encoding utf-8
Sheet 6 9
Title "BLDC ESC"
Date "2017-06-18"
Rev "A0"
Comp "Sean Watson"
Comment1 ""
Comment2 ""
Comment3 ""
Comment4 ""
$EndDescr
$Comp
L MAX3232CPWR:MAX3232CPWR U601
U 1 1 593E9441
P 8450 4900
F 0 "U601" H 7950 5850 50  0000 L BNN
F 1 "MAX3232CPWR" H 7950 3700 50  0000 L BNN
F 2 "MAX3232CPWR:SOP65P640X120-16N" H 8450 4900 50  0001 L BNN
F 3 "MAX3232CPWR" H 8450 4900 50  0001 L BNN
F 4 "Good" H 8450 4900 50  0001 L BNN "Availability"
F 5 "SOIC-16 Texas Instruments" H 8450 4900 50  0001 L BNN "Package"
F 6 "3V to 5.5V Multichannel RS-232 Line Driver/Receiver With %2B/-15kV ESD Protection" H 8450 4900 50  0001 L BNN "Description"
F 7 "1.07 USD" H 8450 4900 50  0001 L BNN "Price"
F 8 "Texas Instruments" H 8450 4900 50  0001 L BNN "MF"
	1    8450 4900
	1    0    0    -1  
$EndComp
Wire Wire Line
	9150 5300 10350 5300
Wire Wire Line
	9150 5550 9750 5550
Wire Wire Line
	9750 5550 9750 5400
Wire Wire Line
	9750 5400 10350 5400
Wire Wire Line
	9150 5400 9650 5400
Wire Wire Line
	9650 5400 9650 5500
Wire Wire Line
	9650 5500 10350 5500
Wire Wire Line
	9150 5650 9850 5650
Wire Wire Line
	9850 5650 9850 5600
Wire Wire Line
	9850 5600 10350 5600
Wire Wire Line
	6600 5300 7750 5300
Wire Wire Line
	7750 5400 6600 5400
Wire Wire Line
	6600 5550 6950 5550
Wire Wire Line
	6600 5650 7150 5650
$Comp
L power:GNDD #PWR0604
U 1 1 593E99EE
P 7650 6050
F 0 "#PWR0604" H 7650 5800 50  0001 C CNN
F 1 "GNDD" H 7650 5900 50  0000 C CNN
F 2 "" H 7650 6050 50  0000 C CNN
F 3 "" H 7650 6050 50  0000 C CNN
	1    7650 6050
	1    0    0    -1  
$EndComp
$Comp
L power:+3.3V #PWR0602
U 1 1 593E9A0A
P 7200 3950
F 0 "#PWR0602" H 7200 3800 50  0001 C CNN
F 1 "+3.3V" H 7200 4090 50  0000 C CNN
F 2 "" H 7200 3950 50  0000 C CNN
F 3 "" H 7200 3950 50  0000 C CNN
	1    7200 3950
	1    0    0    -1  
$EndComp
Wire Wire Line
	7750 4450 7650 4450
Wire Wire Line
	7450 4450 7350 4450
Wire Wire Line
	7350 4450 7350 4600
Wire Wire Line
	7350 4600 7750 4600
Wire Wire Line
	7750 4850 7650 4850
Wire Wire Line
	7450 4850 7350 4850
Wire Wire Line
	7350 4850 7350 5000
Wire Wire Line
	7350 5000 7750 5000
Wire Wire Line
	9150 4200 9300 4200
Wire Wire Line
	9150 4500 9300 4500
$Comp
L power:GNDD #PWR0605
U 1 1 593E9E0D
P 9650 4650
F 0 "#PWR0605" H 9650 4400 50  0001 C CNN
F 1 "GNDD" H 9650 4500 50  0000 C CNN
F 2 "" H 9650 4650 50  0000 C CNN
F 3 "" H 9650 4650 50  0000 C CNN
	1    9650 4650
	1    0    0    -1  
$EndComp
Wire Wire Line
	9500 4500 9650 4500
Wire Wire Line
	9650 4200 9650 4500
Wire Wire Line
	9500 4200 9650 4200
Connection ~ 9650 4500
Wire Wire Line
	7200 3950 7200 4200
$Comp
L power:GNDD #PWR0603
U 1 1 593E9F3C
P 7200 4550
F 0 "#PWR0603" H 7200 4300 50  0001 C CNN
F 1 "GNDD" H 7200 4400 50  0000 C CNN
F 2 "" H 7200 4550 50  0000 C CNN
F 3 "" H 7200 4550 50  0000 C CNN
	1    7200 4550
	1    0    0    -1  
$EndComp
Wire Wire Line
	7200 4450 7200 4550
Wire Wire Line
	7750 5900 7650 5900
Wire Wire Line
	7650 5900 7650 6050
Text HLabel 6600 5300 0    28   Output ~ 0
R1
Text HLabel 6600 5400 0    28   Output ~ 0
R2
Text HLabel 6600 5550 0    28   Input ~ 0
T1
Text HLabel 6600 5650 0    28   Input ~ 0
T2
$Comp
L Device:C_Small C601
U 1 1 594E753A
P 7200 4350
F 0 "C601" H 7210 4420 50  0000 L CNN
F 1 "100n" H 7210 4270 50  0000 L CNN
F 2 "Capacitor_SMD:C_0603_1608Metric" H 7200 4350 50  0001 C CNN
F 3 "" H 7200 4350 50  0000 C CNN
	1    7200 4350
	-1   0    0    -1  
$EndComp
$Comp
L Connector_Generic:Conn_01x05 P601
U 1 1 594E9FDD
P 10550 5500
F 0 "P601" H 10550 5800 50  0000 C CNN
F 1 "CONN_01X05" V 10650 5500 50  0000 C CNN
F 2 "Connector_PinHeader_1.00mm:PinHeader_1x05_P1.00mm_Vertical" H 10550 5500 50  0001 C CNN
F 3 "" H 10550 5500 50  0000 C CNN
	1    10550 5500
	1    0    0    -1  
$EndComp
$Comp
L power:GNDD #PWR0606
U 1 1 594EA03E
P 10300 5800
F 0 "#PWR0606" H 10300 5550 50  0001 C CNN
F 1 "GNDD" H 10300 5650 50  0000 C CNN
F 2 "" H 10300 5800 50  0000 C CNN
F 3 "" H 10300 5800 50  0000 C CNN
	1    10300 5800
	1    0    0    -1  
$EndComp
Wire Wire Line
	10350 5700 10300 5700
Wire Wire Line
	10300 5700 10300 5800
$Comp
L Device:R_Small R601
U 1 1 5953CE91
P 6950 5100
F 0 "R601" H 6980 5120 50  0000 L CNN
F 1 "10k" H 6980 5060 50  0000 L CNN
F 2 "Resistor_SMD:R_0603_1608Metric" H 6950 5100 50  0001 C CNN
F 3 "" H 6950 5100 50  0000 C CNN
	1    6950 5100
	1    0    0    -1  
$EndComp
$Comp
L Device:R_Small R602
U 1 1 5953CF1D
P 7150 5100
F 0 "R602" H 7180 5120 50  0000 L CNN
F 1 "10k" H 7180 5060 50  0000 L CNN
F 2 "Resistor_SMD:R_0603_1608Metric" H 7150 5100 50  0001 C CNN
F 3 "" H 7150 5100 50  0000 C CNN
	1    7150 5100
	1    0    0    -1  
$EndComp
Wire Wire Line
	6950 5200 6950 5550
Connection ~ 6950 5550
$Comp
L power:+3.3V #PWR0601
U 1 1 5953CFBF
P 6950 4900
F 0 "#PWR0601" H 6950 4750 50  0001 C CNN
F 1 "+3.3V" H 6950 5040 50  0000 C CNN
F 2 "" H 6950 4900 50  0000 C CNN
F 3 "" H 6950 4900 50  0000 C CNN
	1    6950 4900
	1    0    0    -1  
$EndComp
Wire Wire Line
	6950 4900 6950 4950
Wire Wire Line
	6950 4950 7150 4950
Wire Wire Line
	7150 4950 7150 5000
Connection ~ 6950 4950
$Comp
L Device:C_Small C602
U 1 1 5957650A
P 7550 4450
F 0 "C602" H 7560 4520 50  0000 L CNN
F 1 "100n" H 7560 4370 50  0000 L CNN
F 2 "Capacitor_SMD:C_0603_1608Metric" H 7550 4450 50  0001 C CNN
F 3 "" H 7550 4450 50  0000 C CNN
	1    7550 4450
	0    1    -1   0   
$EndComp
$Comp
L Device:C_Small C604
U 1 1 59576558
P 9400 4200
F 0 "C604" H 9410 4270 50  0000 L CNN
F 1 "100n" H 9410 4120 50  0000 L CNN
F 2 "Capacitor_SMD:C_0603_1608Metric" H 9400 4200 50  0001 C CNN
F 3 "" H 9400 4200 50  0000 C CNN
	1    9400 4200
	0    1    -1   0   
$EndComp
$Comp
L Device:C_Small C605
U 1 1 595765E9
P 9400 4500
F 0 "C605" H 9410 4570 50  0000 L CNN
F 1 "100n" H 9410 4420 50  0000 L CNN
F 2 "Capacitor_SMD:C_0603_1608Metric" H 9400 4500 50  0001 C CNN
F 3 "" H 9400 4500 50  0000 C CNN
	1    9400 4500
	0    1    -1   0   
$EndComp
$Comp
L Device:C_Small C603
U 1 1 5957663F
P 7550 4850
F 0 "C603" H 7560 4920 50  0000 L CNN
F 1 "100n" H 7560 4770 50  0000 L CNN
F 2 "Capacitor_SMD:C_0603_1608Metric" H 7550 4850 50  0001 C CNN
F 3 "" H 7550 4850 50  0000 C CNN
	1    7550 4850
	0    1    -1   0   
$EndComp
Wire Wire Line
	7150 5200 7150 5650
Connection ~ 7150 5650
Wire Wire Line
	7750 4200 7200 4200
Connection ~ 7200 4200
Wire Wire Line
	9650 4500 9650 4650
Wire Wire Line
	6950 5550 7750 5550
Wire Wire Line
	6950 4950 6950 5000
Wire Wire Line
	7150 5650 7750 5650
Wire Wire Line
	7200 4200 7200 4250
$EndSCHEMATC
