EESchema Schematic File Version 4
LIBS:bldc-esc-cache
EELAYER 30 0
EELAYER END
$Descr A4 11693 8268
encoding utf-8
Sheet 9 9
Title ""
Date ""
Rev ""
Comp ""
Comment1 ""
Comment2 ""
Comment3 ""
Comment4 ""
$EndDescr
Text HLabel 1350 3650 0    28   Input ~ 0
RED1
Text HLabel 1350 3950 0    28   Input ~ 0
GREEN1
Text HLabel 1350 4250 0    28   Input ~ 0
BLUE1
Text HLabel 5800 3650 0    28   Input ~ 0
RED2
Text HLabel 5800 3950 0    28   Input ~ 0
GREEN2
Text HLabel 5800 4250 0    28   Input ~ 0
BLUE2
$Comp
L Device:R_Small R904
U 1 1 5951DC87
P 7400 3100
F 0 "R904" H 7430 3120 50  0000 L CNN
F 1 "75" H 7430 3060 50  0000 L CNN
F 2 "Resistor_SMD:R_0603_1608Metric" H 7400 3100 50  0001 C CNN
F 3 "" H 7400 3100 50  0000 C CNN
	1    7400 3100
	-1   0    0    -1  
$EndComp
$Comp
L Device:R_Small R905
U 1 1 5951DC8D
P 7900 3400
F 0 "R905" H 7930 3420 50  0000 L CNN
F 1 "22" H 7930 3360 50  0000 L CNN
F 2 "Resistor_SMD:R_0603_1608Metric" H 7900 3400 50  0001 C CNN
F 3 "" H 7900 3400 50  0000 C CNN
	1    7900 3400
	-1   0    0    -1  
$EndComp
$Comp
L Device:R_Small R906
U 1 1 5951DC93
P 8400 3700
F 0 "R906" H 8430 3720 50  0000 L CNN
F 1 "22" H 8430 3660 50  0000 L CNN
F 2 "Resistor_SMD:R_0603_1608Metric" H 8400 3700 50  0001 C CNN
F 3 "" H 8400 3700 50  0000 C CNN
	1    8400 3700
	-1   0    0    -1  
$EndComp
$Comp
L Device:LED_RGBA D902
U 1 1 5951DC99
P 8800 2950
F 0 "D902" H 8800 3300 50  0000 C CNN
F 1 "CLV1L-FKB" H 8800 2600 50  0000 C CNN
F 2 "lib:LED_Cree-PLCC4" H 8755 2900 50  0001 C CNN
F 3 "" H 8755 2900 50  0000 C CNN
	1    8800 2950
	1    0    0    -1  
$EndComp
$Comp
L power:+3.3V #PWR0904
U 1 1 5951DC9F
P 9200 2500
F 0 "#PWR0904" H 9200 2350 50  0001 C CNN
F 1 "+3.3V" H 9200 2640 50  0000 C CNN
F 2 "" H 9200 2500 50  0000 C CNN
F 3 "" H 9200 2500 50  0000 C CNN
	1    9200 2500
	-1   0    0    -1  
$EndComp
Wire Wire Line
	9000 2950 9200 2950
Wire Wire Line
	9200 2950 9200 2500
$Comp
L Transistor_FET:BSS138 Q904
U 1 1 5951DCA7
P 7300 3600
F 0 "Q904" H 7500 3675 50  0000 L CNN
F 1 "BSS138" H 7500 3600 50  0000 L CNN
F 2 "Package_TO_SOT_SMD:SOT-23" H 7500 3525 50  0001 L CIN
F 3 "" H 7300 3600 50  0000 L CNN
	1    7300 3600
	1    0    0    -1  
$EndComp
$Comp
L Transistor_FET:BSS138 Q905
U 1 1 5951DCAD
P 7800 3900
F 0 "Q905" H 8000 3975 50  0000 L CNN
F 1 "BSS138" H 8000 3900 50  0000 L CNN
F 2 "Package_TO_SOT_SMD:SOT-23" H 8000 3825 50  0001 L CIN
F 3 "" H 7800 3900 50  0000 L CNN
	1    7800 3900
	1    0    0    -1  
$EndComp
$Comp
L Transistor_FET:BSS138 Q906
U 1 1 5951DCB3
P 8300 4200
F 0 "Q906" H 8500 4275 50  0000 L CNN
F 1 "BSS138" H 8500 4200 50  0000 L CNN
F 2 "Package_TO_SOT_SMD:SOT-23" H 8500 4125 50  0001 L CIN
F 3 "" H 8300 4200 50  0000 L CNN
	1    8300 4200
	1    0    0    -1  
$EndComp
Wire Wire Line
	8600 2750 7400 2750
Wire Wire Line
	7400 2750 7400 3000
Wire Wire Line
	7400 3200 7400 3400
Wire Wire Line
	8600 2950 7900 2950
Wire Wire Line
	7900 2950 7900 3300
Wire Wire Line
	8600 3150 8400 3150
Wire Wire Line
	8400 3150 8400 3600
Wire Wire Line
	7900 3500 7900 3700
Wire Wire Line
	8400 3800 8400 4000
Wire Wire Line
	5800 3650 6800 3650
Wire Wire Line
	5800 4250 7000 4250
Wire Wire Line
	7900 4900 7900 4100
Wire Wire Line
	7400 4900 7400 3800
Wire Wire Line
	6800 4900 6900 4900
Wire Wire Line
	8400 4400 8400 4900
Connection ~ 7900 4900
Connection ~ 7400 4900
Connection ~ 7000 4900
Connection ~ 6900 4900
Wire Wire Line
	5800 3950 6900 3950
$Comp
L Device:R_Pack04 RP902
U 1 1 5951DCE5
P 6800 4600
F 0 "RP902" H 6450 4550 50  0000 C CNN
F 1 "10k" H 6450 4650 50  0000 C CNN
F 2 "Resistor_SMD:R_Array_Concave_4x0603" H 6800 4600 50  0001 C CNN
F 3 "" H 6800 4600 50  0000 C CNN
	1    6800 4600
	-1   0    0    1   
$EndComp
Wire Wire Line
	7000 4900 7000 4800
Wire Wire Line
	6900 4900 6900 4800
Wire Wire Line
	6800 4900 6800 4800
Wire Wire Line
	7000 4400 7000 4250
Connection ~ 7000 4250
Wire Wire Line
	6900 4400 6900 3950
Connection ~ 6900 3950
Wire Wire Line
	6800 4400 6800 3650
Connection ~ 6800 3650
$Comp
L Device:R_Small R901
U 1 1 59551FEB
P 2950 3100
F 0 "R901" H 2980 3120 50  0000 L CNN
F 1 "75" H 2980 3060 50  0000 L CNN
F 2 "Resistor_SMD:R_0603_1608Metric" H 2950 3100 50  0001 C CNN
F 3 "" H 2950 3100 50  0000 C CNN
	1    2950 3100
	-1   0    0    -1  
$EndComp
$Comp
L Device:R_Small R902
U 1 1 59551FF1
P 3450 3400
F 0 "R902" H 3480 3420 50  0000 L CNN
F 1 "22" H 3480 3360 50  0000 L CNN
F 2 "Resistor_SMD:R_0603_1608Metric" H 3450 3400 50  0001 C CNN
F 3 "" H 3450 3400 50  0000 C CNN
	1    3450 3400
	-1   0    0    -1  
$EndComp
$Comp
L Device:R_Small R903
U 1 1 59551FF7
P 3950 3700
F 0 "R903" H 3980 3720 50  0000 L CNN
F 1 "22" H 3980 3660 50  0000 L CNN
F 2 "Resistor_SMD:R_0603_1608Metric" H 3950 3700 50  0001 C CNN
F 3 "" H 3950 3700 50  0000 C CNN
	1    3950 3700
	-1   0    0    -1  
$EndComp
$Comp
L Device:LED_RGBA D901
U 1 1 59551FFD
P 4350 2950
F 0 "D901" H 4350 3300 50  0000 C CNN
F 1 "CLV1L-FKB" H 4350 2600 50  0000 C CNN
F 2 "lib:LED_Cree-PLCC4" H 4305 2900 50  0001 C CNN
F 3 "" H 4305 2900 50  0000 C CNN
	1    4350 2950
	1    0    0    -1  
$EndComp
$Comp
L power:+3.3V #PWR0902
U 1 1 59552003
P 4750 2500
F 0 "#PWR0902" H 4750 2350 50  0001 C CNN
F 1 "+3.3V" H 4750 2640 50  0000 C CNN
F 2 "" H 4750 2500 50  0000 C CNN
F 3 "" H 4750 2500 50  0000 C CNN
	1    4750 2500
	-1   0    0    -1  
$EndComp
Wire Wire Line
	4550 2950 4750 2950
Wire Wire Line
	4750 2950 4750 2500
$Comp
L Transistor_FET:BSS138 Q901
U 1 1 5955200B
P 2850 3600
F 0 "Q901" H 3050 3675 50  0000 L CNN
F 1 "BSS138" H 3050 3600 50  0000 L CNN
F 2 "Package_TO_SOT_SMD:SOT-23" H 3050 3525 50  0001 L CIN
F 3 "" H 2850 3600 50  0000 L CNN
	1    2850 3600
	1    0    0    -1  
$EndComp
$Comp
L Transistor_FET:BSS138 Q902
U 1 1 59552011
P 3350 3900
F 0 "Q902" H 3550 3975 50  0000 L CNN
F 1 "BSS138" H 3550 3900 50  0000 L CNN
F 2 "Package_TO_SOT_SMD:SOT-23" H 3550 3825 50  0001 L CIN
F 3 "" H 3350 3900 50  0000 L CNN
	1    3350 3900
	1    0    0    -1  
$EndComp
$Comp
L Transistor_FET:BSS138 Q903
U 1 1 59552017
P 3850 4200
F 0 "Q903" H 4050 4275 50  0000 L CNN
F 1 "BSS138" H 4050 4200 50  0000 L CNN
F 2 "Package_TO_SOT_SMD:SOT-23" H 4050 4125 50  0001 L CIN
F 3 "" H 3850 4200 50  0000 L CNN
	1    3850 4200
	1    0    0    -1  
$EndComp
Wire Wire Line
	4150 2750 2950 2750
Wire Wire Line
	2950 2750 2950 3000
Wire Wire Line
	2950 3200 2950 3400
Wire Wire Line
	4150 2950 3450 2950
Wire Wire Line
	3450 2950 3450 3300
Wire Wire Line
	4150 3150 3950 3150
Wire Wire Line
	3950 3150 3950 3600
Wire Wire Line
	3450 3500 3450 3700
Wire Wire Line
	3950 3800 3950 4000
Wire Wire Line
	1350 3650 2250 3650
Wire Wire Line
	1350 4250 2450 4250
Wire Wire Line
	3450 4900 3450 4100
Wire Wire Line
	2950 4900 2950 3800
Wire Wire Line
	2250 4900 2350 4900
Wire Wire Line
	3950 4400 3950 4900
Connection ~ 3450 4900
Connection ~ 2950 4900
Connection ~ 2450 4900
Connection ~ 2350 4900
Wire Wire Line
	1350 3950 2350 3950
$Comp
L Device:R_Pack04 RP901
U 1 1 59552045
P 2250 4600
F 0 "RP901" H 1900 4550 50  0000 C CNN
F 1 "10k" H 1900 4650 50  0000 C CNN
F 2 "Resistor_SMD:R_Array_Concave_4x0603" H 2250 4600 50  0001 C CNN
F 3 "" H 2250 4600 50  0000 C CNN
	1    2250 4600
	-1   0    0    1   
$EndComp
Wire Wire Line
	2450 4900 2450 4800
Wire Wire Line
	2350 4900 2350 4800
Wire Wire Line
	2250 4900 2250 4800
Wire Wire Line
	2450 4400 2450 4250
Connection ~ 2450 4250
Wire Wire Line
	2350 4400 2350 3950
Connection ~ 2350 3950
Wire Wire Line
	2250 4400 2250 3650
Connection ~ 2250 3650
NoConn ~ 2150 4400
NoConn ~ 2150 4800
NoConn ~ 6700 4400
NoConn ~ 6700 4800
$Comp
L power:GNDD #PWR0901
U 1 1 5987DAE8
P 3950 5100
F 0 "#PWR0901" H 3950 4850 50  0001 C CNN
F 1 "GNDD" H 3950 4950 50  0000 C CNN
F 2 "" H 3950 5100 50  0000 C CNN
F 3 "" H 3950 5100 50  0000 C CNN
	1    3950 5100
	1    0    0    -1  
$EndComp
Connection ~ 3950 4900
$Comp
L power:GNDD #PWR0903
U 1 1 5987DCAB
P 8400 5000
F 0 "#PWR0903" H 8400 4750 50  0001 C CNN
F 1 "GNDD" H 8400 4850 50  0000 C CNN
F 2 "" H 8400 5000 50  0000 C CNN
F 3 "" H 8400 5000 50  0000 C CNN
	1    8400 5000
	1    0    0    -1  
$EndComp
Connection ~ 8400 4900
Wire Wire Line
	7900 4900 8400 4900
Wire Wire Line
	7400 4900 7900 4900
Wire Wire Line
	7000 4900 7400 4900
Wire Wire Line
	6900 4900 7000 4900
Wire Wire Line
	7000 4250 8100 4250
Wire Wire Line
	6900 3950 7600 3950
Wire Wire Line
	6800 3650 7100 3650
Wire Wire Line
	3450 4900 3950 4900
Wire Wire Line
	2950 4900 3450 4900
Wire Wire Line
	2450 4900 2950 4900
Wire Wire Line
	2350 4900 2450 4900
Wire Wire Line
	2450 4250 3650 4250
Wire Wire Line
	2350 3950 3150 3950
Wire Wire Line
	2250 3650 2650 3650
Wire Wire Line
	3950 4900 3950 5100
Wire Wire Line
	8400 4900 8400 5000
Wire Wire Line
	2650 3650 2650 3600
Wire Wire Line
	3150 3950 3150 3900
Wire Wire Line
	3650 4250 3650 4200
Wire Wire Line
	7100 3650 7100 3600
Wire Wire Line
	7600 3950 7600 3900
Wire Wire Line
	8100 4250 8100 4200
$EndSCHEMATC
