EESchema Schematic File Version 4
LIBS:bldc-esc-cache
EELAYER 30 0
EELAYER END
$Descr A4 11693 8268
encoding utf-8
Sheet 8 9
Title "BLDC ESC"
Date "2017-06-18"
Rev "A0"
Comp "Sean Watson"
Comment1 ""
Comment2 ""
Comment3 ""
Comment4 ""
$EndDescr
$Comp
L power:+3.3V #PWR0801
U 1 1 594FFC1A
P 5050 2300
F 0 "#PWR0801" H 5050 2150 50  0001 C CNN
F 1 "+3.3V" H 5050 2440 50  0000 C CNN
F 2 "" H 5050 2300 50  0000 C CNN
F 3 "" H 5050 2300 50  0000 C CNN
	1    5050 2300
	1    0    0    -1  
$EndComp
$Comp
L Device:C_Small C801
U 1 1 594FFC20
P 5350 2650
F 0 "C801" H 5360 2720 50  0000 L CNN
F 1 "100n" H 5360 2570 50  0000 L CNN
F 2 "Capacitor_SMD:C_0603_1608Metric" H 5350 2650 50  0001 C CNN
F 3 "" H 5350 2650 50  0000 C CNN
	1    5350 2650
	-1   0    0    -1  
$EndComp
$Comp
L Device:CP1_Small C802
U 1 1 594FFC27
P 5550 2650
F 0 "C802" H 5560 2720 50  0000 L CNN
F 1 "10u" H 5560 2570 50  0000 L CNN
F 2 "Capacitor_SMD:C_1206_3216Metric" H 5550 2650 50  0001 C CNN
F 3 "" H 5550 2650 50  0000 C CNN
	1    5550 2650
	1    0    0    -1  
$EndComp
$Comp
L power:GNDD #PWR0803
U 1 1 594FFC2E
P 5450 2800
F 0 "#PWR0803" H 5450 2550 50  0001 C CNN
F 1 "GNDD" H 5450 2650 50  0000 C CNN
F 2 "" H 5450 2800 50  0000 C CNN
F 3 "" H 5450 2800 50  0000 C CNN
	1    5450 2800
	1    0    0    -1  
$EndComp
Text Notes 9250 4150 0    28   ~ 0
Place temperature sensor near power MOSFETs
Text HLabel 2200 3450 0    28   BiDi ~ 0
TEMPSDA
Text HLabel 2200 3550 0    28   Input ~ 0
TEMPSCL
$Comp
L Device:R_Small R801
U 1 1 59500BB5
P 4000 2650
F 0 "R801" H 4030 2670 50  0000 L CNN
F 1 "2.2k" H 4030 2610 50  0000 L CNN
F 2 "Resistor_SMD:R_0603_1608Metric" H 4000 2650 50  0001 C CNN
F 3 "" H 4000 2650 50  0000 C CNN
	1    4000 2650
	1    0    0    -1  
$EndComp
$Comp
L power:GNDD #PWR0802
U 1 1 5950119C
P 5050 5250
F 0 "#PWR0802" H 5050 5000 50  0001 C CNN
F 1 "GNDD" H 5050 5100 50  0000 C CNN
F 2 "" H 5050 5250 50  0000 C CNN
F 3 "" H 5050 5250 50  0000 C CNN
	1    5050 5250
	1    0    0    -1  
$EndComp
Wire Wire Line
	5050 2300 5050 2450
Wire Wire Line
	5350 2750 5350 2800
Wire Wire Line
	5350 2800 5450 2800
Wire Wire Line
	5550 2800 5550 2750
Connection ~ 5450 2800
Wire Wire Line
	5550 2450 5550 2550
Wire Wire Line
	3550 2450 3650 2450
Wire Wire Line
	5350 2450 5350 2550
Connection ~ 5050 2450
Connection ~ 5350 2450
Connection ~ 5550 2450
Wire Wire Line
	2200 3450 4050 3450
Wire Wire Line
	2200 3550 4050 3550
Wire Wire Line
	2200 3650 4000 3650
Wire Wire Line
	2200 3950 3550 3950
Wire Wire Line
	2200 4050 3750 4050
Wire Wire Line
	2200 4150 3650 4150
Wire Wire Line
	4000 2450 4000 2550
Wire Wire Line
	4000 2750 4000 3650
Connection ~ 4000 3650
Wire Wire Line
	3750 2450 3750 2650
Connection ~ 4000 2450
Wire Wire Line
	3650 2450 3650 2650
Connection ~ 3750 2450
Wire Wire Line
	3550 2450 3550 2650
Connection ~ 3650 2450
Wire Wire Line
	5050 5150 5050 5200
Wire Wire Line
	3850 4450 4050 4450
Wire Wire Line
	3850 5200 5050 5200
Connection ~ 5050 5200
Wire Wire Line
	3850 4550 4050 4550
Wire Wire Line
	6050 4500 6250 4500
Wire Wire Line
	6050 4400 6250 4400
Wire Wire Line
	6050 4200 6450 4200
Wire Wire Line
	6450 4100 6450 4200
Wire Wire Line
	7900 4300 7800 4300
Wire Wire Line
	7800 4300 7800 4350
$Comp
L power:GNDD #PWR0804
U 1 1 59501E85
P 7800 5100
F 0 "#PWR0804" H 7800 4850 50  0001 C CNN
F 1 "GNDD" H 7800 4950 50  0000 C CNN
F 2 "" H 7800 5100 50  0000 C CNN
F 3 "" H 7800 5100 50  0000 C CNN
	1    7800 5100
	1    0    0    -1  
$EndComp
Wire Wire Line
	7800 5100 7800 4900
Wire Wire Line
	7800 4200 7900 4200
$Comp
L Device:D_Small D801
U 1 1 59501F93
P 7650 4200
F 0 "D801" H 7600 4280 50  0000 L CNN
F 1 "1N4148" H 7500 4120 50  0000 L CNN
F 2 "Diode_SMD:D_SOD-123" V 7650 4200 50  0001 C CNN
F 3 "" V 7650 4200 50  0000 C CNN
	1    7650 4200
	0    1    1    0   
$EndComp
Wire Wire Line
	7650 4000 7650 4100
Wire Wire Line
	7650 4300 7650 4350
Wire Wire Line
	7650 4350 7800 4350
Connection ~ 7800 4350
$Comp
L Device:R_Small R804
U 1 1 5950211C
P 6450 4000
F 0 "R804" H 6480 4020 50  0000 L CNN
F 1 "10k" H 6480 3960 50  0000 L CNN
F 2 "Resistor_SMD:R_0603_1608Metric" H 6450 4000 50  0001 C CNN
F 3 "" H 6450 4000 50  0000 C CNN
	1    6450 4000
	-1   0    0    1   
$EndComp
Wire Wire Line
	6450 3900 6450 3750
Wire Wire Line
	6250 3750 6450 3750
Connection ~ 6450 4200
$Comp
L Device:R_Small R802
U 1 1 59502334
P 6250 4000
F 0 "R802" H 6280 4020 50  0000 L CNN
F 1 "10k" H 6280 3960 50  0000 L CNN
F 2 "Resistor_SMD:R_0603_1608Metric" H 6250 4000 50  0001 C CNN
F 3 "" H 6250 4000 50  0000 C CNN
	1    6250 4000
	-1   0    0    1   
$EndComp
Wire Wire Line
	6250 2450 6250 3750
Connection ~ 6450 3750
Wire Wire Line
	6250 4100 6250 4400
Connection ~ 6250 4400
Wire Wire Line
	7800 3750 7800 4200
Connection ~ 6250 3750
Wire Wire Line
	6600 4200 6600 4700
Wire Wire Line
	6600 4700 7500 4700
Wire Wire Line
	6050 3550 9650 3550
Wire Wire Line
	9650 3550 9650 3350
Wire Wire Line
	6050 3650 9550 3650
$Comp
L power:GNDD #PWR0805
U 1 1 5950366A
P 9850 3900
F 0 "#PWR0805" H 9850 3650 50  0001 C CNN
F 1 "GNDD" H 9850 3750 50  0000 C CNN
F 2 "" H 9850 3900 50  0000 C CNN
F 3 "" H 9850 3900 50  0000 C CNN
	1    9850 3900
	1    0    0    -1  
$EndComp
Wire Wire Line
	9850 3900 9850 3850
Wire Wire Line
	9650 3350 9850 3350
Wire Wire Line
	9850 3350 9850 3450
$Comp
L Connector_Generic:Conn_01x03 P801
U 1 1 595017E9
P 8100 4300
F 0 "P801" H 8100 4500 50  0000 C CNN
F 1 "CONN_01X03" V 8200 4300 50  0000 C CNN
F 2 "Connector_PinHeader_1.00mm:PinHeader_1x03_P1.00mm_Vertical" H 8100 4300 50  0001 C CNN
F 3 "" H 8100 4300 50  0000 C CNN
	1    8100 4300
	1    0    0    -1  
$EndComp
$Comp
L AMC6821SDBQ:AMC6821SDBQ U801
U 1 1 594FFF5D
P 5050 3950
F 0 "U801" H 4250 4800 50  0000 L BNN
F 1 "AMC6821SDBQ" H 4300 2850 50  0000 L BNN
F 2 "AMC6821SDBQ:SOP63P600X175-16N" H 5050 3950 50  0001 L BNN
F 3 "2.10 USD" H 5050 3950 50  0001 L BNN
F 4 "AMC6821SDBQ" H 5050 3950 50  0001 L BNN "MP"
F 5 "SSOP-16 Texas Instruments" H 5050 3950 50  0001 L BNN "Package"
F 6 "Good" H 5050 3950 50  0001 L BNN "Availability"
F 7 "Texas Instruments" H 5050 3950 50  0001 L BNN "MF"
F 8 "Temperature Monitoring and Fan Control 16-SSOP -40 to 125" H 5050 3950 50  0001 L BNN "Description"
	1    5050 3950
	1    0    0    -1  
$EndComp
$Comp
L Device:R_Small R803
U 1 1 59505194
P 6250 4800
F 0 "R803" H 6280 4820 50  0000 L CNN
F 1 "0" H 6280 4760 50  0000 L CNN
F 2 "Resistor_SMD:R_0603_1608Metric" H 6250 4800 50  0001 C CNN
F 3 "" H 6250 4800 50  0000 C CNN
	1    6250 4800
	1    0    0    1   
$EndComp
Wire Wire Line
	6250 4500 6250 4700
Wire Wire Line
	6250 5200 6250 4900
Text HLabel 2200 3650 0    28   Output ~ 0
TEMPSMBALERT
Text HLabel 2200 3950 0    28   Output ~ 0
TEMPCRIT
Text HLabel 2200 4050 0    28   Output ~ 0
FANFAULT
Text HLabel 2200 4150 0    28   Output ~ 0
THERMALERT
$Comp
L Transistor_BJT:MMBT3904 Q802
U 1 1 59547B23
P 9750 3650
F 0 "Q802" H 9950 3725 50  0000 L CNN
F 1 "MMBT3904" H 9950 3650 50  0000 L CNN
F 2 "Package_TO_SOT_SMD:SOT-23" H 9950 3575 50  0001 L CIN
F 3 "" H 9750 3650 50  0000 L CNN
	1    9750 3650
	1    0    0    -1  
$EndComp
Wire Wire Line
	3850 4450 3850 4550
$Comp
L Transistor_FET:BSS138 Q801
U 1 1 594EC7F1
P 7700 4700
F 0 "Q801" H 7900 4775 50  0000 L CNN
F 1 "BSS138" H 7900 4700 50  0000 L CNN
F 2 "Package_TO_SOT_SMD:SOT-23" H 7900 4625 50  0001 L CIN
F 3 "" H 7700 4700 50  0000 L CNN
	1    7700 4700
	1    0    0    -1  
$EndComp
Connection ~ 3850 4550
$Comp
L Device:R_Small R805
U 1 1 59556C83
P 7650 3900
F 0 "R805" H 7680 3920 50  0000 L CNN
F 1 "1k" H 7680 3860 50  0000 L CNN
F 2 "Resistor_SMD:R_0603_1608Metric" H 7650 3900 50  0001 C CNN
F 3 "" H 7650 3900 50  0000 C CNN
	1    7650 3900
	-1   0    0    1   
$EndComp
Wire Wire Line
	7650 3800 7650 3750
Connection ~ 7650 3750
NoConn ~ 3450 2650
NoConn ~ 3450 3050
Text Notes 5950 2400 2    28   ~ 0
Place bypass and bulk caps near VDD
Text Notes 3750 4600 2    28   ~ 0
A0 = GND\nA1 = GND\nAddress = 001 1000
Text Notes 6950 5000 2    28   ~ 0
Floating = 10Hz - 94Hz PWM\nGND = 1kHz - 40kHz PWM
Wire Wire Line
	3550 3050 3550 3950
Connection ~ 3550 3950
Wire Wire Line
	3650 3050 3650 4150
Connection ~ 3650 4150
Wire Wire Line
	3750 3050 3750 4050
Connection ~ 3750 4050
Wire Wire Line
	5450 2800 5550 2800
Wire Wire Line
	5050 2450 5050 2950
Wire Wire Line
	5050 2450 5350 2450
Wire Wire Line
	5350 2450 5550 2450
Wire Wire Line
	5550 2450 6250 2450
Wire Wire Line
	4000 3650 4050 3650
Wire Wire Line
	4000 2450 5050 2450
Wire Wire Line
	3750 2450 4000 2450
Wire Wire Line
	3650 2450 3750 2450
Wire Wire Line
	5050 5200 5050 5250
Wire Wire Line
	5050 5200 6250 5200
Wire Wire Line
	7800 4350 7800 4500
Wire Wire Line
	6450 4200 6600 4200
Wire Wire Line
	6450 3750 7650 3750
Wire Wire Line
	6250 4400 7900 4400
Wire Wire Line
	6250 3750 6250 3900
Wire Wire Line
	3850 4550 3850 5200
Wire Wire Line
	7650 3750 7800 3750
Wire Wire Line
	3550 3950 4050 3950
Wire Wire Line
	3650 4150 4050 4150
Wire Wire Line
	3750 4050 4050 4050
$Comp
L Device:R_Pack04 RP801
U 1 1 59506214
P 3550 2850
F 0 "RP801" H 3800 2750 50  0000 C CNN
F 1 "10k" H 3800 2850 50  0000 C CNN
F 2 "Resistor_SMD:R_Array_Concave_4x0603" H 3550 2850 50  0001 C CNN
F 3 "" H 3550 2850 50  0000 C CNN
	1    3550 2850
	-1   0    0    1   
$EndComp
$EndSCHEMATC
