EESchema Schematic File Version 4
LIBS:bldc-esc-cache
EELAYER 30 0
EELAYER END
$Descr B 17000 11000
encoding utf-8
Sheet 4 9
Title "BLDC ESC"
Date "2017-06-18"
Rev "A0"
Comp "Sean Watson"
Comment1 ""
Comment2 ""
Comment3 ""
Comment4 ""
$EndDescr
$Comp
L SN65HVD234D:SN65HVD234D U401
U 1 1 593D17D9
P 8400 5000
F 0 "U401" H 7900 5450 50  0000 L BNN
F 1 "SN65HVD234D" H 7900 4300 50  0000 L BNN
F 2 "Package_SO:SOIC-8_3.9x4.9mm_P1.27mm" H 8400 5000 50  0001 L BNN
F 3 "2.15 USD" H 8400 5000 50  0001 L BNN
F 4 "Texas Instruments" H 8400 5000 50  0001 L BNN "MF"
F 5 "3.3V CAN Transceiver with Sleep Mode 8-SOIC -40 to 125" H 8400 5000 50  0001 L BNN "Description"
F 6 "Good" H 8400 5000 50  0001 L BNN "Availability"
F 7 "SN65HVD234D" H 8400 5000 50  0001 L BNN "MP"
F 8 "SOIC-8 Texas Instruments" H 8400 5000 50  0001 L BNN "Package"
	1    8400 5000
	1    0    0    -1  
$EndComp
$Comp
L power:+3.3V #PWR0401
U 1 1 593D1A06
P 6850 4500
F 0 "#PWR0401" H 6850 4350 50  0001 C CNN
F 1 "+3.3V" H 6850 4640 50  0000 C CNN
F 2 "" H 6850 4500 50  0000 C CNN
F 3 "" H 6850 4500 50  0000 C CNN
	1    6850 4500
	1    0    0    -1  
$EndComp
$Comp
L power:GNDD #PWR0402
U 1 1 593D1A20
P 7450 5950
F 0 "#PWR0402" H 7450 5700 50  0001 C CNN
F 1 "GNDD" H 7450 5800 50  0000 C CNN
F 2 "" H 7450 5950 50  0000 C CNN
F 3 "" H 7450 5950 50  0000 C CNN
	1    7450 5950
	1    0    0    -1  
$EndComp
$Comp
L Device:CP1_Small C401
U 1 1 593D1D55
P 7200 4850
F 0 "C401" H 7210 4920 50  0000 L CNN
F 1 "10u" H 7210 4770 50  0000 L CNN
F 2 "Capacitor_SMD:C_1206_3216Metric" H 7200 4850 50  0001 C CNN
F 3 "" H 7200 4850 50  0000 C CNN
	1    7200 4850
	1    0    0    -1  
$EndComp
$Comp
L Device:C_Small C402
U 1 1 593D1DAF
P 7450 4850
F 0 "C402" H 7460 4920 50  0000 L CNN
F 1 "100n" H 7460 4770 50  0000 L CNN
F 2 "Capacitor_SMD:C_0603_1608Metric" H 7450 4850 50  0001 C CNN
F 3 "" H 7450 4850 50  0000 C CNN
	1    7450 4850
	1    0    0    -1  
$EndComp
Wire Wire Line
	7450 4950 7450 5050
Wire Wire Line
	6850 4500 6850 4700
Wire Wire Line
	6850 4700 7200 4700
Connection ~ 6850 4700
Wire Wire Line
	7450 4750 7450 4700
Connection ~ 7450 4700
Wire Wire Line
	7200 5050 7450 5050
Wire Wire Line
	7200 5050 7200 4950
Connection ~ 7450 5050
$Comp
L Device:R_Small R404
U 1 1 593D1F7B
P 9500 5100
F 0 "R404" H 9530 5120 50  0000 L CNN
F 1 "60 1%" H 9530 5060 50  0000 L CNN
F 2 "Resistor_SMD:R_0603_1608Metric" H 9500 5100 50  0001 C CNN
F 3 "" H 9500 5100 50  0000 C CNN
	1    9500 5100
	-1   0    0    -1  
$EndComp
Wire Wire Line
	9100 4800 9100 4500
Wire Wire Line
	9100 4900 9100 5300
Wire Wire Line
	9100 5300 9500 5300
Wire Wire Line
	9500 5300 9500 5200
Wire Wire Line
	9500 4800 9500 4900
Wire Wire Line
	10150 4800 10650 4800
Wire Wire Line
	10150 4500 10150 4800
Connection ~ 9500 5300
Text HLabel 6650 5200 0    29   Input ~ 0
TX
Text HLabel 6650 5300 0    29   Output ~ 0
RX
Text HLabel 6650 5400 0    29   Input ~ 0
EN
Text HLabel 6650 5500 0    29   Input ~ 0
Mode
Wire Wire Line
	6650 5500 7600 5500
Wire Wire Line
	6650 5400 6850 5400
Wire Wire Line
	6650 5300 7700 5300
Wire Wire Line
	6650 5200 7700 5200
$Comp
L Device:R_Small R402
U 1 1 593D2829
P 7600 5700
F 0 "R402" H 7630 5720 50  0000 L CNN
F 1 "10k" H 7630 5660 50  0000 L CNN
F 2 "Resistor_SMD:R_0603_1608Metric" H 7600 5700 50  0001 C CNN
F 3 "" H 7600 5700 50  0000 C CNN
	1    7600 5700
	1    0    0    -1  
$EndComp
Wire Wire Line
	7600 5600 7600 5500
Connection ~ 7600 5500
Wire Wire Line
	7600 5800 7600 5850
Wire Wire Line
	7600 5850 7450 5850
Connection ~ 7450 5850
$Comp
L Device:R_Small R401
U 1 1 593D2CF5
P 6850 4850
F 0 "R401" H 6880 4870 50  0000 L CNN
F 1 "10k" H 6880 4810 50  0000 L CNN
F 2 "Resistor_SMD:R_0603_1608Metric" H 6850 4850 50  0001 C CNN
F 3 "" H 6850 4850 50  0000 C CNN
	1    6850 4850
	1    0    0    -1  
$EndComp
Wire Wire Line
	6850 4950 6850 5400
Connection ~ 6850 5400
Wire Wire Line
	7200 4700 7200 4750
Connection ~ 7200 4700
$Comp
L Connector_Generic:Conn_01x03 P401
U 1 1 5954A9EC
P 10850 4900
F 0 "P401" H 10850 5100 50  0000 C CNN
F 1 "CONN_01X03" V 10950 4900 50  0000 C CNN
F 2 "Connector_PinHeader_1.00mm:PinHeader_1x03_P1.00mm_Vertical" H 10850 4900 50  0001 C CNN
F 3 "" H 10850 4900 50  0000 C CNN
	1    10850 4900
	1    0    0    -1  
$EndComp
$Comp
L power:GNDD #PWR0404
U 1 1 5954AB5B
P 10300 5250
F 0 "#PWR0404" H 10300 5000 50  0001 C CNN
F 1 "GNDD" H 10300 5100 50  0000 C CNN
F 2 "" H 10300 5250 50  0000 C CNN
F 3 "" H 10300 5250 50  0000 C CNN
	1    10300 5250
	1    0    0    -1  
$EndComp
$Comp
L Device:R_Small R403
U 1 1 596A2B77
P 9500 4700
F 0 "R403" H 9530 4720 50  0000 L CNN
F 1 "60 1%" H 9530 4660 50  0000 L CNN
F 2 "Resistor_SMD:R_0603_1608Metric" H 9500 4700 50  0001 C CNN
F 3 "" H 9500 4700 50  0000 C CNN
	1    9500 4700
	-1   0    0    -1  
$EndComp
Wire Wire Line
	9100 4500 9500 4500
Wire Wire Line
	9500 4600 9500 4500
Connection ~ 9500 4500
$Comp
L Device:C_Small C403
U 1 1 596A2C41
P 9700 4900
F 0 "C403" H 9710 4970 50  0000 L CNN
F 1 "100n" H 9710 4820 50  0000 L CNN
F 2 "Capacitor_SMD:C_0603_1608Metric" H 9700 4900 50  0001 C CNN
F 3 "" H 9700 4900 50  0000 C CNN
	1    9700 4900
	0    -1   -1   0   
$EndComp
Wire Wire Line
	9600 4900 9500 4900
Connection ~ 9500 4900
$Comp
L power:GNDD #PWR0403
U 1 1 596A2E06
P 9950 5000
F 0 "#PWR0403" H 9950 4750 50  0001 C CNN
F 1 "GNDD" H 9950 4850 50  0000 C CNN
F 2 "" H 9950 5000 50  0000 C CNN
F 3 "" H 9950 5000 50  0000 C CNN
	1    9950 5000
	1    0    0    -1  
$EndComp
Wire Wire Line
	9800 4900 9950 4900
Wire Wire Line
	9950 4900 9950 5000
Text Notes 8200 6000 2    28   ~ 0
GND = high speed mode\n10k = 15V/us slew rate\n100k = 2V/us slew rate\n3.3V = low power mode
Text Notes 7800 4600 2    28   ~ 0
Place bypass and bulk caps close to VCC
Text Notes 8800 4400 2    28   ~ 0
VCC and GND connections should have\nat least 2 vias to power planes
Wire Wire Line
	6850 4700 6850 4750
Wire Wire Line
	7450 4700 7700 4700
Wire Wire Line
	7450 5050 7450 5850
Wire Wire Line
	7450 5050 7700 5050
Wire Wire Line
	9500 5300 10150 5300
Wire Wire Line
	7600 5500 7700 5500
Wire Wire Line
	7450 5850 7450 5950
Wire Wire Line
	6850 5400 7700 5400
Wire Wire Line
	7200 4700 7450 4700
Wire Wire Line
	9500 4500 10150 4500
Wire Wire Line
	9500 4900 9500 5000
Wire Wire Line
	10300 4900 10650 4900
Wire Wire Line
	10300 4900 10300 5250
Wire Wire Line
	10150 5000 10650 5000
Wire Wire Line
	10150 5000 10150 5300
$EndSCHEMATC
