EESchema Schematic File Version 4
LIBS:bldc-esc-cache
EELAYER 30 0
EELAYER END
$Descr B 17000 11000
encoding utf-8
Sheet 3 9
Title "BLDC ESC"
Date "2017-06-18"
Rev "A0"
Comp "Sean Watson"
Comment1 ""
Comment2 ""
Comment3 ""
Comment4 ""
$EndDescr
$Comp
L atsam3x8ea:ATSAM3X8EA U301
U 1 1 593BABAD
P 7850 6050
F 0 "U301" H 6050 9600 60  0000 C CNN
F 1 "ATSAM3X8EA" H 6300 2850 60  0000 C CNN
F 2 "Package_QFP:LQFP-144_20x20mm_P0.5mm" H 7600 6100 60  0001 C CNN
F 3 "" H 7600 6100 60  0000 C CNN
	1    7850 6050
	1    0    0    -1  
$EndComp
$Comp
L Device:Crystal_Small Y301
U 1 1 593BABBA
P 8500 9600
F 0 "Y301" H 8500 9700 50  0000 C CNN
F 1 "12MHz" H 8500 9500 50  0000 C CNN
F 2 "Oscillator:Oscillator_SMD_TXC_7C-4Pin_5.0x3.2mm" H 8500 9600 50  0001 C CNN
F 3 "" H 8500 9600 50  0000 C CNN
	1    8500 9600
	-1   0    0    1   
$EndComp
$Comp
L Device:Crystal_Small Y302
U 1 1 593BABC1
P 9300 9600
F 0 "Y302" H 9300 9700 50  0000 C CNN
F 1 "32kHz" H 9300 9500 50  0000 C CNN
F 2 "Crystal:Crystal_SMD_Abracon_ABS25-4Pin_8.0x3.8mm" H 9300 9600 50  0001 C CNN
F 3 "" H 9300 9600 50  0000 C CNN
	1    9300 9600
	-1   0    0    1   
$EndComp
$Comp
L Device:C_Small C314
U 1 1 593BABC8
P 8200 9850
F 0 "C314" H 8210 9920 50  0000 L CNN
F 1 "27p" H 8210 9770 50  0000 L CNN
F 2 "Capacitor_SMD:C_0603_1608Metric" H 8200 9850 50  0001 C CNN
F 3 "" H 8200 9850 50  0000 C CNN
	1    8200 9850
	1    0    0    -1  
$EndComp
$Comp
L Device:C_Small C316
U 1 1 593BABCF
P 8800 9850
F 0 "C316" H 8810 9920 50  0000 L CNN
F 1 "27p" H 8810 9770 50  0000 L CNN
F 2 "Capacitor_SMD:C_0603_1608Metric" H 8800 9850 50  0001 C CNN
F 3 "" H 8800 9850 50  0000 C CNN
	1    8800 9850
	1    0    0    -1  
$EndComp
$Comp
L Device:C_Small C318
U 1 1 593BABD6
P 9000 9850
F 0 "C318" H 9010 9920 50  0000 L CNN
F 1 "15p" H 9010 9770 50  0000 L CNN
F 2 "Capacitor_SMD:C_0603_1608Metric" H 9000 9850 50  0001 C CNN
F 3 "" H 9000 9850 50  0000 C CNN
	1    9000 9850
	1    0    0    -1  
$EndComp
$Comp
L Device:C_Small C320
U 1 1 593BABDD
P 9600 9850
F 0 "C320" H 9610 9920 50  0000 L CNN
F 1 "15p" H 9610 9770 50  0000 L CNN
F 2 "Capacitor_SMD:C_0603_1608Metric" H 9600 9850 50  0001 C CNN
F 3 "" H 9600 9850 50  0000 C CNN
	1    9600 9850
	1    0    0    -1  
$EndComp
$Comp
L Device:C_Small C324
U 1 1 593BABF6
P 10550 1000
F 0 "C324" H 10560 1070 50  0000 L CNN
F 1 "100n" H 10560 920 50  0000 L CNN
F 2 "Capacitor_SMD:C_0603_1608Metric" H 10550 1000 50  0001 C CNN
F 3 "" H 10550 1000 50  0000 C CNN
	1    10550 1000
	-1   0    0    1   
$EndComp
$Comp
L Device:C_Small C322
U 1 1 593BABFD
P 10300 1000
F 0 "C322" H 10310 1070 50  0000 L CNN
F 1 "100n" H 10310 920 50  0000 L CNN
F 2 "Capacitor_SMD:C_0603_1608Metric" H 10300 1000 50  0001 C CNN
F 3 "" H 10300 1000 50  0000 C CNN
	1    10300 1000
	-1   0    0    1   
$EndComp
$Comp
L Device:C_Small C325
U 1 1 593BAC04
P 10800 1000
F 0 "C325" H 10810 1070 50  0000 L CNN
F 1 "100n" H 10810 920 50  0000 L CNN
F 2 "Capacitor_SMD:C_0603_1608Metric" H 10800 1000 50  0001 C CNN
F 3 "" H 10800 1000 50  0000 C CNN
	1    10800 1000
	-1   0    0    1   
$EndComp
$Comp
L Device:C_Small C326
U 1 1 593BAC0B
P 11050 1000
F 0 "C326" H 11060 1070 50  0000 L CNN
F 1 "100n" H 11060 920 50  0000 L CNN
F 2 "Capacitor_SMD:C_0603_1608Metric" H 11050 1000 50  0001 C CNN
F 3 "" H 11050 1000 50  0000 C CNN
	1    11050 1000
	-1   0    0    1   
$EndComp
$Comp
L Device:C_Small C328
U 1 1 593BAC12
P 11300 1000
F 0 "C328" H 11310 1070 50  0000 L CNN
F 1 "100n" H 11310 920 50  0000 L CNN
F 2 "Capacitor_SMD:C_0603_1608Metric" H 11300 1000 50  0001 C CNN
F 3 "" H 11300 1000 50  0000 C CNN
	1    11300 1000
	-1   0    0    1   
$EndComp
$Comp
L Device:CP1_Small C307
U 1 1 593BAC19
P 5550 1600
F 0 "C307" H 5560 1670 50  0000 L CNN
F 1 "10u" H 5560 1520 50  0000 L CNN
F 2 "Capacitor_SMD:C_1206_3216Metric" H 5550 1600 50  0001 C CNN
F 3 "" H 5550 1600 50  0000 C CNN
	1    5550 1600
	1    0    0    -1  
$EndComp
$Comp
L Device:C_Small C321
U 1 1 593BAC20
P 9850 1300
F 0 "C321" H 9860 1370 50  0000 L CNN
F 1 "100n" H 9860 1220 50  0000 L CNN
F 2 "Capacitor_SMD:C_0603_1608Metric" H 9850 1300 50  0001 C CNN
F 3 "" H 9850 1300 50  0000 C CNN
	1    9850 1300
	-1   0    0    1   
$EndComp
$Comp
L Device:C_Small C310
U 1 1 593BAC2D
P 6700 1500
F 0 "C310" H 6710 1570 50  0000 L CNN
F 1 "100n" H 6710 1420 50  0000 L CNN
F 2 "Capacitor_SMD:C_0603_1608Metric" H 6700 1500 50  0001 C CNN
F 3 "" H 6700 1500 50  0000 C CNN
	1    6700 1500
	-1   0    0    1   
$EndComp
$Comp
L Device:C_Small C302
U 1 1 593BAC34
P 4300 1600
F 0 "C302" H 4310 1670 50  0000 L CNN
F 1 "100n" H 4310 1520 50  0000 L CNN
F 2 "Capacitor_SMD:C_0603_1608Metric" H 4300 1600 50  0001 C CNN
F 3 "" H 4300 1600 50  0000 C CNN
	1    4300 1600
	-1   0    0    1   
$EndComp
$Comp
L Device:C_Small C304
U 1 1 593BAC3B
P 4800 1600
F 0 "C304" H 4810 1670 50  0000 L CNN
F 1 "100n" H 4810 1520 50  0000 L CNN
F 2 "Capacitor_SMD:C_0603_1608Metric" H 4800 1600 50  0001 C CNN
F 3 "" H 4800 1600 50  0000 C CNN
	1    4800 1600
	-1   0    0    1   
$EndComp
$Comp
L Device:C_Small C306
U 1 1 593BAC42
P 5300 1600
F 0 "C306" H 5310 1670 50  0000 L CNN
F 1 "100n" H 5310 1520 50  0000 L CNN
F 2 "Capacitor_SMD:C_0603_1608Metric" H 5300 1600 50  0001 C CNN
F 3 "" H 5300 1600 50  0000 C CNN
	1    5300 1600
	-1   0    0    1   
$EndComp
$Comp
L Device:C_Small C313
U 1 1 593BAC49
P 7950 1300
F 0 "C313" H 7960 1370 50  0000 L CNN
F 1 "100n" H 7960 1220 50  0000 L CNN
F 2 "Capacitor_SMD:C_0603_1608Metric" H 7950 1300 50  0001 C CNN
F 3 "" H 7950 1300 50  0000 C CNN
	1    7950 1300
	-1   0    0    1   
$EndComp
$Comp
L Device:C_Small C303
U 1 1 593BAC50
P 4550 1600
F 0 "C303" H 4560 1670 50  0000 L CNN
F 1 "100n" H 4560 1520 50  0000 L CNN
F 2 "Capacitor_SMD:C_0603_1608Metric" H 4550 1600 50  0001 C CNN
F 3 "" H 4550 1600 50  0000 C CNN
	1    4550 1600
	-1   0    0    1   
$EndComp
$Comp
L Device:C_Small C305
U 1 1 593BAC57
P 5050 1600
F 0 "C305" H 5060 1670 50  0000 L CNN
F 1 "100n" H 5060 1520 50  0000 L CNN
F 2 "Capacitor_SMD:C_0603_1608Metric" H 5050 1600 50  0001 C CNN
F 3 "" H 5050 1600 50  0000 C CNN
	1    5050 1600
	-1   0    0    1   
$EndComp
$Comp
L Device:C_Small C301
U 1 1 593BAC5E
P 4050 1600
F 0 "C301" H 4060 1670 50  0000 L CNN
F 1 "100n" H 4060 1520 50  0000 L CNN
F 2 "Capacitor_SMD:C_0603_1608Metric" H 4050 1600 50  0001 C CNN
F 3 "" H 4050 1600 50  0000 C CNN
	1    4050 1600
	-1   0    0    1   
$EndComp
$Comp
L Device:CP1_Small C329
U 1 1 593BAC6C
P 11550 1000
F 0 "C329" H 11560 1070 50  0000 L CNN
F 1 "10u" H 11560 920 50  0000 L CNN
F 2 "Capacitor_SMD:C_1206_3216Metric" H 11550 1000 50  0001 C CNN
F 3 "" H 11550 1000 50  0000 C CNN
	1    11550 1000
	1    0    0    -1  
$EndComp
$Comp
L Device:CP1_Small C312
U 1 1 593BACFD
P 7600 1450
F 0 "C312" H 7610 1520 50  0000 L CNN
F 1 "10u" H 7610 1370 50  0000 L CNN
F 2 "Capacitor_SMD:C_1206_3216Metric" H 7600 1450 50  0001 C CNN
F 3 "" H 7600 1450 50  0000 C CNN
	1    7600 1450
	1    0    0    -1  
$EndComp
$Comp
L Device:C_Small C311
U 1 1 593BAD04
P 7100 1300
F 0 "C311" H 7110 1370 50  0000 L CNN
F 1 "100n" H 7110 1220 50  0000 L CNN
F 2 "Capacitor_SMD:C_0603_1608Metric" H 7100 1300 50  0001 C CNN
F 3 "" H 7100 1300 50  0000 C CNN
	1    7100 1300
	1    0    0    -1  
$EndComp
$Comp
L power:GNDD #PWR0303
U 1 1 593BAD0B
P 4050 1900
F 0 "#PWR0303" H 4050 1650 50  0001 C CNN
F 1 "GNDD" H 4050 1750 50  0000 C CNN
F 2 "" H 4050 1900 50  0000 C CNN
F 3 "" H 4050 1900 50  0000 C CNN
	1    4050 1900
	1    0    0    -1  
$EndComp
$Comp
L Device:R_Small R309
U 1 1 593BAD11
P 7600 1150
F 0 "R309" H 7630 1170 50  0000 L CNN
F 1 "1" H 7630 1110 50  0000 L CNN
F 2 "Resistor_SMD:R_0603_1608Metric" H 7600 1150 50  0001 C CNN
F 3 "" H 7600 1150 50  0000 C CNN
	1    7600 1150
	1    0    0    -1  
$EndComp
$Comp
L Device:CP1_Small C319
U 1 1 593BAD2E
P 9500 1400
F 0 "C319" H 9510 1470 50  0000 L CNN
F 1 "10u" H 9510 1320 50  0000 L CNN
F 2 "Capacitor_SMD:C_1206_3216Metric" H 9500 1400 50  0001 C CNN
F 3 "" H 9500 1400 50  0000 C CNN
	1    9500 1400
	1    0    0    -1  
$EndComp
$Comp
L Device:C_Small C317
U 1 1 593BAD35
P 8950 1250
F 0 "C317" H 8960 1320 50  0000 L CNN
F 1 "100n" H 8960 1170 50  0000 L CNN
F 2 "Capacitor_SMD:C_0603_1608Metric" H 8950 1250 50  0001 C CNN
F 3 "" H 8950 1250 50  0000 C CNN
	1    8950 1250
	1    0    0    -1  
$EndComp
$Comp
L power:GNDD #PWR0309
U 1 1 593BAD3C
P 8950 1600
F 0 "#PWR0309" H 8950 1350 50  0001 C CNN
F 1 "GNDD" H 8950 1450 50  0000 C CNN
F 2 "" H 8950 1600 50  0000 C CNN
F 3 "" H 8950 1600 50  0000 C CNN
	1    8950 1600
	1    0    0    -1  
$EndComp
$Comp
L Device:R_Small R310
U 1 1 593BAD42
P 9500 1150
F 0 "R310" H 9530 1170 50  0000 L CNN
F 1 "1" H 9530 1110 50  0000 L CNN
F 2 "Resistor_SMD:R_0603_1608Metric" H 9500 1150 50  0001 C CNN
F 3 "" H 9500 1150 50  0000 C CNN
	1    9500 1150
	1    0    0    -1  
$EndComp
$Comp
L Device:CP1_Small C309
U 1 1 593BAD59
P 6350 1650
F 0 "C309" H 6360 1720 50  0000 L CNN
F 1 "10u" H 6360 1570 50  0000 L CNN
F 2 "Capacitor_SMD:C_1206_3216Metric" H 6350 1650 50  0001 C CNN
F 3 "" H 6350 1650 50  0000 C CNN
	1    6350 1650
	1    0    0    -1  
$EndComp
$Comp
L Device:C_Small C308
U 1 1 593BAD60
P 5850 1500
F 0 "C308" H 5860 1570 50  0000 L CNN
F 1 "100n" H 5860 1420 50  0000 L CNN
F 2 "Capacitor_SMD:C_0603_1608Metric" H 5850 1500 50  0001 C CNN
F 3 "" H 5850 1500 50  0000 C CNN
	1    5850 1500
	1    0    0    -1  
$EndComp
$Comp
L Device:R_Small R308
U 1 1 593BAD67
P 6350 1350
F 0 "R308" H 6380 1370 50  0000 L CNN
F 1 "1" H 6380 1310 50  0000 L CNN
F 2 "Resistor_SMD:R_0603_1608Metric" H 6350 1350 50  0001 C CNN
F 3 "" H 6350 1350 50  0000 C CNN
	1    6350 1350
	1    0    0    -1  
$EndComp
$Comp
L power:+3.3V #PWR0302
U 1 1 593BAD75
P 3800 750
F 0 "#PWR0302" H 3800 600 50  0001 C CNN
F 1 "+3.3V" H 3800 890 50  0000 C CNN
F 2 "" H 3800 750 50  0000 C CNN
F 3 "" H 3800 750 50  0000 C CNN
	1    3800 750 
	1    0    0    -1  
$EndComp
$Comp
L power:GNDA #PWR0306
U 1 1 593BCEBA
P 7100 1600
F 0 "#PWR0306" H 7100 1350 50  0001 C CNN
F 1 "GNDA" H 7100 1450 50  0000 C CNN
F 2 "" H 7100 1600 50  0000 C CNN
F 3 "" H 7100 1600 50  0000 C CNN
	1    7100 1600
	1    0    0    -1  
$EndComp
$Comp
L power:GNDD #PWR0313
U 1 1 593C1FDF
P 11300 1350
F 0 "#PWR0313" H 11300 1100 50  0001 C CNN
F 1 "GNDD" H 11300 1200 50  0000 C CNN
F 2 "" H 11300 1350 50  0000 C CNN
F 3 "" H 11300 1350 50  0000 C CNN
	1    11300 1350
	1    0    0    -1  
$EndComp
$Comp
L power:GNDD #PWR0308
U 1 1 593C6409
P 8400 1350
F 0 "#PWR0308" H 8400 1100 50  0001 C CNN
F 1 "GNDD" H 8400 1200 50  0000 C CNN
F 2 "" H 8400 1350 50  0000 C CNN
F 3 "" H 8400 1350 50  0000 C CNN
	1    8400 1350
	1    0    0    -1  
$EndComp
Text Notes 4250 1350 0    29   ~ 0
Place near VDDIO pins
Text Notes 10500 700  0    29   ~ 0
Place near VDDCORE pins
$Comp
L power:+3.3V #PWR0307
U 1 1 593C85B6
P 8400 750
F 0 "#PWR0307" H 8400 600 50  0001 C CNN
F 1 "+3.3V" H 8400 890 50  0000 C CNN
F 2 "" H 8400 750 50  0000 C CNN
F 3 "" H 8400 750 50  0000 C CNN
	1    8400 750 
	-1   0    0    -1  
$EndComp
Text Notes 8550 700  0    29   ~ 0
Place near VDDIN pin
$Comp
L Device:CP1_Small C315
U 1 1 593BAC65
P 8400 1000
F 0 "C315" H 8410 1070 50  0000 L CNN
F 1 "10u" H 8410 920 50  0000 L CNN
F 2 "Capacitor_SMD:C_1206_3216Metric" H 8400 1000 50  0001 C CNN
F 3 "" H 8400 1000 50  0000 C CNN
	1    8400 1000
	1    0    0    -1  
$EndComp
$Comp
L power:GNDA #PWR0318
U 1 1 593C943F
P 15550 8850
F 0 "#PWR0318" H 15550 8600 50  0001 C CNN
F 1 "GNDA" H 15550 8700 50  0000 C CNN
F 2 "" H 15550 8850 50  0000 C CNN
F 3 "" H 15550 8850 50  0000 C CNN
	1    15550 8850
	-1   0    0    -1  
$EndComp
$Comp
L power:GNDD #PWR0319
U 1 1 593C961E
P 15950 8850
F 0 "#PWR0319" H 15950 8600 50  0001 C CNN
F 1 "GNDD" H 15950 8700 50  0000 C CNN
F 2 "" H 15950 8850 50  0000 C CNN
F 3 "" H 15950 8850 50  0000 C CNN
	1    15950 8850
	1    0    0    -1  
$EndComp
Text HLabel 3650 2750 0    29   Output ~ 0
CANTX
Text HLabel 3650 2850 0    29   Input ~ 0
CANRX
Text HLabel 3650 4050 0    28   Output ~ 0
UARTTX
Text HLabel 3650 3950 0    28   Input ~ 0
UARTRX
Text HLabel 3650 5250 0    28   Input ~ 0
MISO
Text HLabel 3650 5350 0    28   Output ~ 0
MOSI
Text HLabel 3650 5450 0    28   Output ~ 0
SCLK
Text HLabel 3650 5550 0    28   Output ~ 0
NPCS0
Text HLabel 3650 2950 0    28   Input ~ 0
ISENSA
Text HLabel 3650 3050 0    28   Input ~ 0
ISENSB
Text HLabel 3650 3150 0    28   Input ~ 0
ISENSC
Text HLabel 3650 4150 0    28   Output ~ 0
UARTRTS
Text HLabel 3650 4250 0    28   Input ~ 0
UARTCTS
Text Notes 15450 8550 0    29   ~ 0
Connect analog and digital\ngrounds in one spot only
Text HLabel 3650 5950 0    28   Input ~ 0
EREFCK
Text HLabel 3650 6050 0    28   Output ~ 0
ETXEN
Text HLabel 3650 6150 0    28   Output ~ 0
ETX0
Text HLabel 3650 6250 0    28   Output ~ 0
ETX1
Text HLabel 3650 6350 0    28   Input ~ 0
ERXDV
Text HLabel 3650 6450 0    28   Input ~ 0
ERX0
Text HLabel 3650 6550 0    28   Input ~ 0
ERX1
Text HLabel 3650 6650 0    28   Input ~ 0
ERXER
Text HLabel 3650 6750 0    28   Output ~ 0
EMDC
Text HLabel 3650 6850 0    28   BiDi ~ 0
EMDIO
NoConn ~ 9750 8650
$Comp
L stm811:stm811 U302
U 1 1 593FC1FF
P 11100 9150
F 0 "U302" H 10900 9400 29  0000 C CNN
F 1 "stm811" H 10950 8900 29  0000 C CNN
F 2 "Package_TO_SOT_SMD:SOT-143" H 11250 8950 29  0001 C CNN
F 3 "" H 11250 8950 29  0000 C CNN
	1    11100 9150
	-1   0    0    -1  
$EndComp
$Comp
L power:GNDD #PWR0314
U 1 1 593FD320
P 12000 10050
F 0 "#PWR0314" H 12000 9800 50  0001 C CNN
F 1 "GNDD" H 12000 9900 50  0000 C CNN
F 2 "" H 12000 10050 50  0000 C CNN
F 3 "" H 12000 10050 50  0000 C CNN
	1    12000 10050
	1    0    0    -1  
$EndComp
$Comp
L Device:C_Small C330
U 1 1 593FEB17
P 11550 9650
F 0 "C330" H 11560 9720 50  0000 L CNN
F 1 "100n" H 11560 9570 50  0000 L CNN
F 2 "Capacitor_SMD:C_0603_1608Metric" H 11550 9650 50  0001 C CNN
F 3 "" H 11550 9650 50  0000 C CNN
	1    11550 9650
	-1   0    0    1   
$EndComp
NoConn ~ 9750 7250
NoConn ~ 9750 7350
NoConn ~ 9750 7450
NoConn ~ 9750 7550
NoConn ~ 9750 7650
NoConn ~ 9750 8100
$Comp
L Device:C_Small C327
U 1 1 5940E02E
P 11100 8750
F 0 "C327" H 11110 8820 50  0000 L CNN
F 1 "100n" H 11110 8670 50  0000 L CNN
F 2 "Capacitor_SMD:C_0603_1608Metric" H 11100 8750 50  0001 C CNN
F 3 "" H 11100 8750 50  0000 C CNN
	1    11100 8750
	0    -1   -1   0   
$EndComp
$Comp
L Device:R_Small R312
U 1 1 5940E9A9
P 11150 7700
F 0 "R312" H 11180 7720 50  0000 L CNN
F 1 "100k" H 11180 7660 50  0000 L CNN
F 2 "Resistor_SMD:R_0603_1608Metric" H 11150 7700 50  0001 C CNN
F 3 "" H 11150 7700 50  0000 C CNN
	1    11150 7700
	-1   0    0    -1  
$EndComp
$Comp
L power:+3.3V #PWR0312
U 1 1 5940EFA0
P 11150 7400
F 0 "#PWR0312" H 11150 7250 50  0001 C CNN
F 1 "+3.3V" H 11150 7540 50  0000 C CNN
F 2 "" H 11150 7400 50  0000 C CNN
F 3 "" H 11150 7400 50  0000 C CNN
	1    11150 7400
	1    0    0    -1  
$EndComp
$Comp
L Device:R_Small R311
U 1 1 5940F6E6
P 10200 7700
F 0 "R311" H 10230 7720 50  0000 L CNN
F 1 "6.8k 1%" H 10230 7660 50  0000 L CNN
F 2 "Resistor_SMD:R_0603_1608Metric" H 10200 7700 50  0001 C CNN
F 3 "" H 10200 7700 50  0000 C CNN
	1    10200 7700
	-1   0    0    -1  
$EndComp
$Comp
L Device:C_Small C323
U 1 1 5940F79B
P 10400 7700
F 0 "C323" H 10410 7770 50  0000 L CNN
F 1 "10p" H 10410 7620 50  0000 L CNN
F 2 "Capacitor_SMD:C_0603_1608Metric" H 10400 7700 50  0001 C CNN
F 3 "" H 10400 7700 50  0000 C CNN
	1    10400 7700
	1    0    0    -1  
$EndComp
$Comp
L power:GNDD #PWR0310
U 1 1 5940FF4B
P 10200 7950
F 0 "#PWR0310" H 10200 7700 50  0001 C CNN
F 1 "GNDD" H 10200 7800 50  0000 C CNN
F 2 "" H 10200 7950 50  0000 C CNN
F 3 "" H 10200 7950 50  0000 C CNN
	1    10200 7950
	1    0    0    -1  
$EndComp
$Comp
L Device:C_Small C331
U 1 1 59415A16
P 11900 8100
F 0 "C331" H 11910 8170 50  0000 L CNN
F 1 "100n" H 11910 8020 50  0000 L CNN
F 2 "Capacitor_SMD:C_0603_1608Metric" H 11900 8100 50  0001 C CNN
F 3 "" H 11900 8100 50  0000 C CNN
	1    11900 8100
	1    0    0    -1  
$EndComp
$Comp
L Device:C_Small C332
U 1 1 594161CA
P 12500 8100
F 0 "C332" H 12510 8170 50  0000 L CNN
F 1 "100n" H 12510 8020 50  0000 L CNN
F 2 "Capacitor_SMD:C_0603_1608Metric" H 12500 8100 50  0001 C CNN
F 3 "" H 12500 8100 50  0000 C CNN
	1    12500 8100
	1    0    0    -1  
$EndComp
$Comp
L Device:R_Small R318
U 1 1 594197FE
P 13750 7800
F 0 "R318" H 13780 7820 50  0000 L CNN
F 1 "4.7k" H 13780 7760 50  0000 L CNN
F 2 "Resistor_SMD:R_0603_1608Metric" H 13750 7800 50  0001 C CNN
F 3 "" H 13750 7800 50  0000 C CNN
	1    13750 7800
	-1   0    0    -1  
$EndComp
$Comp
L Device:D_Zener_Small D301
U 1 1 5941A85A
P 13750 8150
F 0 "D301" H 13750 8250 50  0000 C CNN
F 1 "MMSZ5225B-E3-08" V 13800 7700 50  0000 C CNN
F 2 "Diode_SMD:D_SOD-123" H 13750 8150 50  0001 C CNN
F 3 "" H 13750 8150 50  0000 C CNN
	1    13750 8150
	0    -1   1    0   
$EndComp
$Comp
L power:GNDA #PWR0317
U 1 1 5941AC44
P 13750 8350
F 0 "#PWR0317" H 13750 8100 50  0001 C CNN
F 1 "GNDA" H 13750 8200 50  0000 C CNN
F 2 "" H 13750 8350 50  0000 C CNN
F 3 "" H 13750 8350 50  0000 C CNN
	1    13750 8350
	-1   0    0    -1  
$EndComp
$Comp
L Device:C_Small C333
U 1 1 5941AF4B
P 13450 8150
F 0 "C333" H 13460 8220 50  0000 L CNN
F 1 "2.2u" H 13460 8070 50  0000 L CNN
F 2 "Capacitor_SMD:C_0603_1608Metric" H 13450 8150 50  0001 C CNN
F 3 "" H 13450 8150 50  0000 C CNN
	1    13450 8150
	1    0    0    -1  
$EndComp
$Comp
L power:+3.3V #PWR0304
U 1 1 59426EB9
P 4750 8100
F 0 "#PWR0304" H 4750 7950 50  0001 C CNN
F 1 "+3.3V" H 4750 8240 50  0000 C CNN
F 2 "" H 4750 8100 50  0000 C CNN
F 3 "" H 4750 8100 50  0000 C CNN
	1    4750 8100
	1    0    0    -1  
$EndComp
Text Label 4900 9250 1    28   ~ 0
NRSTB
Text Label 9850 8750 0    28   ~ 0
NRSTB
$Comp
L Connector_Generic:Conn_01x04 P301
U 1 1 59429ABA
P 3900 8950
F 0 "P301" H 3900 9200 50  0000 C CNN
F 1 "CONN_01X04" V 4000 8950 50  0000 C CNN
F 2 "Connector_PinHeader_1.00mm:PinHeader_1x04_P1.00mm_Vertical" H 3900 8950 50  0001 C CNN
F 3 "" H 3900 8950 50  0000 C CNN
	1    3900 8950
	-1   0    0    1   
$EndComp
Text Label 4300 8550 1    28   ~ 0
NRSTB
$Comp
L power:+3.3V #PWR0311
U 1 1 5942E98F
P 10700 2500
F 0 "#PWR0311" H 10700 2350 50  0001 C CNN
F 1 "+3.3V" H 10700 2640 50  0000 C CNN
F 2 "" H 10700 2500 50  0000 C CNN
F 3 "" H 10700 2500 50  0000 C CNN
	1    10700 2500
	-1   0    0    -1  
$EndComp
Text HLabel 3650 4550 0    28   Output ~ 0
SCL
Text HLabel 3650 4450 0    28   BiDi ~ 0
SDA
Text HLabel 11900 6900 2    28   Output ~ 0
CANEN
Text HLabel 11900 6800 2    28   Output ~ 0
CANMODE
Text HLabel 3650 6950 0    28   Output ~ 0
ERST
Text HLabel 3650 7050 0    28   Output ~ 0
ECLKEN
Text HLabel 3650 3250 0    28   Input ~ 0
EMDINTR
Text HLabel 3650 3350 0    28   Input ~ 0
MTEMP
Text HLabel 3650 4650 0    28   Input ~ 0
HALLA
Text HLabel 3650 4750 0    28   Input ~ 0
HALLB
Text HLabel 3650 4850 0    28   Input ~ 0
HALLC
Text HLabel 3650 7150 0    28   Output ~ 0
AHIGH
Text HLabel 3650 7250 0    28   Output ~ 0
ALOW
Text HLabel 3650 7350 0    28   Output ~ 0
BHIGH
Text HLabel 3650 7450 0    28   Output ~ 0
BLOW
Text HLabel 3650 7550 0    28   Output ~ 0
CHIGH
Text HLabel 3650 7650 0    28   Output ~ 0
CLOW
Text HLabel 3650 7750 0    28   Output ~ 0
MEN
Text HLabel 11900 3850 2    28   Input ~ 0
MFAULT
Text HLabel 11900 4050 2    28   Input ~ 0
TEMPSMBALERT
$Comp
L Device:Speaker SP301
U 1 1 5949E0FD
P 13450 4100
F 0 "SP301" H 13350 4350 50  0000 C CNN
F 1 "PS17" H 13350 3850 50  0000 C CNN
F 2 "Buzzer_Beeper:Buzzer_12x9.5RM7.6" H 13450 4100 50  0001 C CNN
F 3 "" H 13450 4100 50  0000 C CNN
	1    13450 4100
	1    0    0    -1  
$EndComp
$Comp
L power:+3.3V #PWR0315
U 1 1 5949F5EC
P 13150 3700
F 0 "#PWR0315" H 13150 3550 50  0001 C CNN
F 1 "+3.3V" H 13150 3840 50  0000 C CNN
F 2 "" H 13150 3700 50  0000 C CNN
F 3 "" H 13150 3700 50  0000 C CNN
	1    13150 3700
	-1   0    0    -1  
$EndComp
$Comp
L Device:R_Small R314
U 1 1 5949FFF7
P 12750 4650
F 0 "R314" H 12780 4670 50  0000 L CNN
F 1 "470" H 12780 4610 50  0000 L CNN
F 2 "Resistor_SMD:R_0603_1608Metric" H 12750 4650 50  0001 C CNN
F 3 "" H 12750 4650 50  0000 C CNN
	1    12750 4650
	0    1    1    0   
$EndComp
$Comp
L Device:R_Small R313
U 1 1 594A0577
P 12450 4850
F 0 "R313" H 12480 4870 50  0000 L CNN
F 1 "10k" H 12480 4810 50  0000 L CNN
F 2 "Resistor_SMD:R_0603_1608Metric" H 12450 4850 50  0001 C CNN
F 3 "" H 12450 4850 50  0000 C CNN
	1    12450 4850
	1    0    0    1   
$EndComp
$Comp
L Device:R_Small R315
U 1 1 594A0FA3
P 12900 4150
F 0 "R315" H 12930 4170 50  0000 L CNN
F 1 "1k" H 12930 4110 50  0000 L CNN
F 2 "Resistor_SMD:R_0603_1608Metric" H 12900 4150 50  0001 C CNN
F 3 "" H 12900 4150 50  0000 C CNN
	1    12900 4150
	-1   0    0    1   
$EndComp
$Comp
L power:GNDD #PWR0316
U 1 1 594A1C92
P 13150 5150
F 0 "#PWR0316" H 13150 4900 50  0001 C CNN
F 1 "GNDD" H 13150 5000 50  0000 C CNN
F 2 "" H 13150 5150 50  0000 C CNN
F 3 "" H 13150 5150 50  0000 C CNN
	1    13150 5150
	1    0    0    -1  
$EndComp
$Comp
L Connector:TestPoint W310
U 1 1 594AC9FB
P 2900 3200
F 0 "W310" H 2900 3470 50  0000 C CNN
F 1 "ISENSA" H 2900 3400 50  0000 C CNN
F 2 "TestPoint:TestPoint_Pad_D2.0mm" H 3100 3200 50  0001 C CNN
F 3 "" H 3100 3200 50  0000 C CNN
	1    2900 3200
	0    -1   -1   0   
$EndComp
$Comp
L Connector:TestPoint W305
U 1 1 594ACB18
P 2800 3000
F 0 "W305" H 2800 3270 50  0000 C CNN
F 1 "ISENSB" H 2800 3200 50  0000 C CNN
F 2 "TestPoint:TestPoint_Pad_D2.0mm" H 3000 3000 50  0001 C CNN
F 3 "" H 3000 3000 50  0000 C CNN
	1    2800 3000
	0    -1   -1   0   
$EndComp
$Comp
L Connector:TestPoint W304
U 1 1 594ACC19
P 2700 2800
F 0 "W304" H 2700 3070 50  0000 C CNN
F 1 "ISENSC" H 2700 3000 50  0000 C CNN
F 2 "TestPoint:TestPoint_Pad_D2.0mm" H 2900 2800 50  0001 C CNN
F 3 "" H 2900 2800 50  0000 C CNN
	1    2700 2800
	0    -1   -1   0   
$EndComp
$Comp
L Connector:TestPoint W306
U 1 1 594ADF23
P 2800 4550
F 0 "W306" H 2800 4820 50  0000 C CNN
F 1 "HALLA" H 2800 4750 50  0000 C CNN
F 2 "TestPoint:TestPoint_Pad_D2.0mm" H 3000 4550 50  0001 C CNN
F 3 "" H 3000 4550 50  0000 C CNN
	1    2800 4550
	0    -1   -1   0   
$EndComp
$Comp
L Connector:TestPoint W312
U 1 1 594AE5E3
P 2950 4700
F 0 "W312" H 2950 4970 50  0000 C CNN
F 1 "HALLB" H 2950 4900 50  0000 C CNN
F 2 "TestPoint:TestPoint_Pad_D2.0mm" H 3150 4700 50  0001 C CNN
F 3 "" H 3150 4700 50  0000 C CNN
	1    2950 4700
	0    -1   -1   0   
$EndComp
$Comp
L Connector:TestPoint W317
U 1 1 594AE6E7
P 3100 4850
F 0 "W317" H 3100 5120 50  0000 C CNN
F 1 "HALLC" H 3100 5050 50  0000 C CNN
F 2 "TestPoint:TestPoint_Pad_D2.0mm" H 3300 4850 50  0001 C CNN
F 3 "" H 3300 4850 50  0000 C CNN
	1    3100 4850
	0    -1   -1   0   
$EndComp
$Comp
L Connector:TestPoint W303
U 1 1 594B4E18
P 2650 7350
F 0 "W303" H 2650 7620 50  0000 C CNN
F 1 "BLOW" H 2650 7550 50  0000 C CNN
F 2 "TestPoint:TestPoint_Pad_D2.0mm" H 2850 7350 50  0001 C CNN
F 3 "" H 2850 7350 50  0000 C CNN
	1    2650 7350
	0    -1   -1   0   
$EndComp
$Comp
L Connector:TestPoint W309
U 1 1 594B4E1E
P 2850 7500
F 0 "W309" H 2850 7770 50  0000 C CNN
F 1 "CHIGH" H 2850 7700 50  0000 C CNN
F 2 "TestPoint:TestPoint_Pad_D2.0mm" H 3050 7500 50  0001 C CNN
F 3 "" H 3050 7500 50  0000 C CNN
	1    2850 7500
	0    -1   -1   0   
$EndComp
$Comp
L Connector:TestPoint W316
U 1 1 594B4E24
P 3050 7650
F 0 "W316" H 3050 7920 50  0000 C CNN
F 1 "CLOW" H 3050 7850 50  0000 C CNN
F 2 "TestPoint:TestPoint_Pad_D2.0mm" H 3250 7650 50  0001 C CNN
F 3 "" H 3250 7650 50  0000 C CNN
	1    3050 7650
	0    -1   -1   0   
$EndComp
$Comp
L Connector:TestPoint W302
U 1 1 594B4F6D
P 2650 6950
F 0 "W302" H 2650 7220 50  0000 C CNN
F 1 "AHIGH" H 2650 7150 50  0000 C CNN
F 2 "TestPoint:TestPoint_Pad_D2.0mm" H 2850 6950 50  0001 C CNN
F 3 "" H 2850 6950 50  0000 C CNN
	1    2650 6950
	0    -1   -1   0   
$EndComp
$Comp
L Connector:TestPoint W308
U 1 1 594B4F73
P 2850 7100
F 0 "W308" H 2850 7370 50  0000 C CNN
F 1 "ALOW" H 2850 7300 50  0000 C CNN
F 2 "TestPoint:TestPoint_Pad_D2.0mm" H 3050 7100 50  0001 C CNN
F 3 "" H 3050 7100 50  0000 C CNN
	1    2850 7100
	0    -1   -1   0   
$EndComp
$Comp
L Connector:TestPoint W315
U 1 1 594B4F79
P 3050 7250
F 0 "W315" H 3050 7520 50  0000 C CNN
F 1 "BHIGH" H 3050 7450 50  0000 C CNN
F 2 "TestPoint:TestPoint_Pad_D2.0mm" H 3250 7250 50  0001 C CNN
F 3 "" H 3250 7250 50  0000 C CNN
	1    3050 7250
	0    -1   -1   0   
$EndComp
$Comp
L Connector_Generic:Conn_01x04 P303
U 1 1 594BC50B
P 10600 6100
F 0 "P303" H 10600 6350 50  0000 C CNN
F 1 "CONN_01X04" V 10700 6100 50  0000 C CNN
F 2 "Connector_PinHeader_1.00mm:PinHeader_1x04_P1.00mm_Vertical" H 10600 6100 50  0001 C CNN
F 3 "" H 10600 6100 50  0000 C CNN
	1    10600 6100
	1    0    0    -1  
$EndComp
$Comp
L Connector:TestPoint W311
U 1 1 594C57AB
P 2900 4250
F 0 "W311" H 2900 4520 50  0000 C CNN
F 1 "SDA" H 2900 4450 50  0000 C CNN
F 2 "TestPoint:TestPoint_Pad_D2.0mm" H 3100 4250 50  0001 C CNN
F 3 "" H 3100 4250 50  0000 C CNN
	1    2900 4250
	0    -1   -1   0   
$EndComp
$Comp
L Connector:TestPoint W314
U 1 1 594C57B1
P 3050 4400
F 0 "W314" H 3050 4670 50  0000 C CNN
F 1 "SCL" H 3050 4600 50  0000 C CNN
F 2 "TestPoint:TestPoint_Pad_D2.0mm" H 3250 4400 50  0001 C CNN
F 3 "" H 3250 4400 50  0000 C CNN
	1    3050 4400
	0    -1   -1   0   
$EndComp
$Comp
L Device:L_Small L301
U 1 1 594D4A58
P 6100 1200
F 0 "L301" H 6000 1250 50  0000 L CNN
F 1 "10u" H 5950 1150 50  0000 L CNN
F 2 "Inductor_SMD:L_1210_3225Metric" H 6100 1200 50  0001 C CNN
F 3 "" H 6100 1200 50  0000 C CNN
	1    6100 1200
	0    -1   -1   0   
$EndComp
$Comp
L Device:L_Small L302
U 1 1 594D5CEA
P 7350 1000
F 0 "L302" H 7250 1050 50  0000 L CNN
F 1 "10u" H 7200 950 50  0000 L CNN
F 2 "Inductor_SMD:L_1210_3225Metric" H 7350 1000 50  0001 C CNN
F 3 "" H 7350 1000 50  0000 C CNN
	1    7350 1000
	0    -1   -1   0   
$EndComp
$Comp
L Device:L_Small L303
U 1 1 594D5E4D
P 9200 1000
F 0 "L303" H 9100 1050 50  0000 L CNN
F 1 "10u" H 9050 950 50  0000 L CNN
F 2 "Inductor_SMD:L_1210_3225Metric" H 9200 1000 50  0001 C CNN
F 3 "" H 9200 1000 50  0000 C CNN
	1    9200 1000
	0    -1   -1   0   
$EndComp
$Comp
L Device:L_Small L304
U 1 1 594DB503
P 12200 7900
F 0 "L304" H 12100 7950 50  0000 L CNN
F 1 "10u" H 12050 7850 50  0000 L CNN
F 2 "Inductor_SMD:L_1210_3225Metric" H 12200 7900 50  0001 C CNN
F 3 "" H 12200 7900 50  0000 C CNN
	1    12200 7900
	0    -1   -1   0   
$EndComp
$Comp
L Switch:SW_Push_45deg SW302
U 1 1 594DD6B9
P 11900 9600
F 0 "SW302" H 12050 9710 50  0000 C CNN
F 1 "PTS810" H 12000 9800 50  0000 C CNN
F 2 "Button_Switch_SMD:SW_Push_1P1T_NO_6x6mm_H9.5mm" H 11900 9600 50  0001 C CNN
F 3 "" H 11900 9600 50  0000 C CNN
	1    11900 9600
	1    0    0    -1  
$EndComp
$Comp
L Switch:SW_Push_45deg SW301
U 1 1 594E492B
P 10300 2650
F 0 "SW301" H 10450 2760 50  0000 C CNN
F 1 "PTS810" H 10250 2850 50  0000 C CNN
F 2 "Button_Switch_SMD:SW_Push_1P1T_NO_6x6mm_H9.5mm" H 10300 2650 50  0001 C CNN
F 3 "" H 10300 2650 50  0000 C CNN
	1    10300 2650
	1    0    0    -1  
$EndComp
Wire Wire Line
	7200 10050 7200 9350
Wire Wire Line
	4400 10050 4900 10050
Wire Wire Line
	7900 10050 7900 9350
Wire Wire Line
	7800 9350 7800 10050
Connection ~ 7800 10050
Wire Wire Line
	7700 9350 7700 10050
Connection ~ 7700 10050
Wire Wire Line
	7600 9350 7600 10050
Connection ~ 7600 10050
Wire Wire Line
	7500 9350 7500 10050
Connection ~ 7500 10050
Wire Wire Line
	7400 9350 7400 10050
Connection ~ 7400 10050
Wire Wire Line
	7300 9350 7300 10050
Connection ~ 7300 10050
Connection ~ 7900 10050
Wire Wire Line
	8450 9350 8450 9450
Wire Wire Line
	8450 9450 8200 9450
Wire Wire Line
	8200 9450 8200 9600
Wire Wire Line
	8400 9600 8200 9600
Connection ~ 8200 9600
Wire Wire Line
	8550 9350 8550 9450
Wire Wire Line
	8550 9450 8800 9450
Wire Wire Line
	8800 9450 8800 9600
Wire Wire Line
	8600 9600 8800 9600
Connection ~ 8800 9600
Wire Wire Line
	9050 9350 9050 9450
Wire Wire Line
	9050 9450 9000 9450
Wire Wire Line
	9000 9450 9000 9600
Wire Wire Line
	9150 9350 9150 9450
Wire Wire Line
	9150 9450 9600 9450
Wire Wire Line
	9600 9450 9600 9600
Wire Wire Line
	9200 9600 9000 9600
Connection ~ 9000 9600
Wire Wire Line
	9400 9600 9600 9600
Connection ~ 9600 9600
Wire Wire Line
	8200 10050 8200 9950
Wire Wire Line
	8800 10050 8800 9950
Wire Wire Line
	9000 10050 9000 9950
Wire Wire Line
	9600 10050 9600 9950
Connection ~ 8350 2150
Connection ~ 8450 2150
Connection ~ 8550 2150
Connection ~ 8650 2150
Connection ~ 8750 2150
Connection ~ 7700 2150
Connection ~ 7600 2150
Connection ~ 7300 2150
Wire Wire Line
	10000 2150 8850 2150
Wire Wire Line
	7600 1550 7600 1600
Wire Wire Line
	7600 1250 7600 1350
Wire Wire Line
	7600 1000 7600 1050
Connection ~ 7600 1000
Connection ~ 7100 1000
Wire Wire Line
	7100 1600 7100 1400
Wire Wire Line
	9500 1500 9500 1600
Wire Wire Line
	9500 1250 9500 1300
Wire Wire Line
	9300 1000 9500 1000
Wire Wire Line
	9500 1000 9500 1050
Connection ~ 9500 1000
Connection ~ 8950 1000
Wire Wire Line
	8950 1600 8950 1350
Wire Wire Line
	5850 1200 5850 1400
Wire Wire Line
	6350 1800 6350 1750
Wire Wire Line
	6350 1450 6350 1550
Wire Wire Line
	6200 1200 6350 1200
Wire Wire Line
	6350 1200 6350 1250
Connection ~ 6350 1200
Connection ~ 5850 1200
Wire Wire Line
	5850 1800 5850 1600
Wire Wire Line
	7100 1600 7600 1600
Wire Wire Line
	8950 1600 9500 1600
Wire Wire Line
	7300 2350 7300 2150
Wire Wire Line
	7600 2150 7600 2350
Wire Wire Line
	7700 2150 7700 2350
Wire Wire Line
	6700 800  6700 1200
Connection ~ 6700 1200
Wire Wire Line
	6700 1800 6700 1600
Connection ~ 6350 1800
Connection ~ 7950 1000
Wire Wire Line
	7950 1600 7950 1400
Connection ~ 7600 1600
Wire Wire Line
	7800 2150 7800 2350
Wire Wire Line
	8850 2150 8850 2350
Wire Wire Line
	11300 1100 11300 1200
Wire Wire Line
	8350 2350 8350 2150
Wire Wire Line
	8450 2150 8450 2350
Wire Wire Line
	8550 2150 8550 2350
Wire Wire Line
	8650 2150 8650 2350
Wire Wire Line
	8750 800  8750 1000
Wire Wire Line
	8250 2150 8350 2150
Wire Wire Line
	7950 800  7950 1000
Wire Wire Line
	9850 1200 9850 1000
Connection ~ 9850 1000
Wire Wire Line
	9850 1600 9850 1400
Connection ~ 9500 1600
Wire Wire Line
	10000 750  10000 1000
Wire Wire Line
	8750 1000 8950 1000
Wire Wire Line
	8250 2150 8250 2350
Wire Wire Line
	4050 1700 4050 1800
Wire Wire Line
	4300 1700 4300 1800
Connection ~ 4300 1800
Wire Wire Line
	4550 1800 4550 1700
Connection ~ 4550 1800
Wire Wire Line
	4800 1800 4800 1700
Connection ~ 4800 1800
Wire Wire Line
	5050 1800 5050 1700
Connection ~ 5050 1800
Connection ~ 5300 1800
Wire Wire Line
	10300 1200 10550 1200
Wire Wire Line
	10300 1200 10300 1100
Wire Wire Line
	10550 1100 10550 1200
Connection ~ 10550 1200
Wire Wire Line
	10800 1100 10800 1200
Connection ~ 10800 1200
Wire Wire Line
	11050 1100 11050 1200
Connection ~ 11050 1200
Connection ~ 11300 1200
Wire Wire Line
	8400 1100 8400 1350
Wire Wire Line
	4300 1400 4300 1500
Wire Wire Line
	4550 1400 4550 1500
Connection ~ 4300 1400
Wire Wire Line
	4800 1400 4800 1500
Connection ~ 4550 1400
Wire Wire Line
	5050 1400 5050 1500
Connection ~ 4800 1400
Wire Wire Line
	5300 1400 5300 1500
Connection ~ 5050 1400
Wire Wire Line
	8750 800  10300 800 
Wire Wire Line
	11300 800  11300 900 
Wire Wire Line
	11050 900  11050 800 
Connection ~ 11050 800 
Wire Wire Line
	10800 900  10800 800 
Connection ~ 10800 800 
Wire Wire Line
	10550 900  10550 800 
Connection ~ 10550 800 
Connection ~ 10300 800 
Wire Wire Line
	11550 800  11550 900 
Connection ~ 11300 800 
Wire Wire Line
	11550 1200 11550 1100
Wire Wire Line
	8400 750  8400 900 
Connection ~ 5300 1400
Wire Wire Line
	15550 8850 15550 8650
Wire Wire Line
	15550 8650 15950 8650
Wire Wire Line
	15950 8650 15950 8850
Wire Wire Line
	3800 1000 7100 1000
Wire Wire Line
	7450 1000 7600 1000
Wire Wire Line
	8100 1000 8100 2350
Wire Wire Line
	7100 1200 7100 1000
Connection ~ 8750 1000
Wire Wire Line
	8950 1150 8950 1000
Wire Wire Line
	4050 1400 4050 1500
Wire Wire Line
	5550 1400 5550 1500
Connection ~ 5550 1800
Connection ~ 5850 1800
Wire Wire Line
	5300 1800 5300 1700
Wire Wire Line
	3800 750  3800 1000
Wire Wire Line
	3800 1200 5850 1200
Connection ~ 3800 1000
Connection ~ 4050 1800
Wire Wire Line
	3800 1400 4050 1400
Connection ~ 3800 1200
Wire Wire Line
	4050 1800 4300 1800
Wire Wire Line
	5550 1800 5550 1700
Connection ~ 3800 1400
Connection ~ 4050 1400
Wire Wire Line
	10300 900  10300 800 
Connection ~ 8200 10050
Connection ~ 9000 10050
Connection ~ 8800 10050
Connection ~ 9600 10050
Wire Wire Line
	6900 1200 6900 1900
Wire Wire Line
	6900 1900 8000 1900
Wire Wire Line
	8000 1900 8000 2350
Wire Wire Line
	3800 2150 7300 2150
Wire Wire Line
	7500 2150 7500 2350
Wire Wire Line
	7400 2150 7400 2350
Connection ~ 7500 2150
Connection ~ 7400 2150
Wire Wire Line
	3650 2850 5800 2850
Wire Wire Line
	3650 2750 5800 2750
Wire Wire Line
	3650 5250 3800 5250
Wire Wire Line
	3650 5350 3800 5350
Wire Wire Line
	3650 5450 3800 5450
Wire Wire Line
	3650 5550 3800 5550
Wire Wire Line
	3650 2950 3800 2950
Wire Wire Line
	3650 3050 3800 3050
Wire Wire Line
	3650 3150 3800 3150
Wire Wire Line
	3650 4150 5800 4150
Wire Wire Line
	3650 4250 5800 4250
Wire Wire Line
	4850 3550 5800 3550
Wire Wire Line
	5350 3650 5800 3650
Wire Wire Line
	5150 3950 5800 3950
Wire Wire Line
	3650 3950 4850 3950
Wire Wire Line
	3650 4050 5350 4050
Wire Wire Line
	5650 4050 5800 4050
Wire Wire Line
	3650 5950 5800 5950
Wire Wire Line
	5800 6050 3650 6050
Wire Wire Line
	3650 6150 5800 6150
Wire Wire Line
	5800 6250 3650 6250
Wire Wire Line
	3650 6350 5800 6350
Wire Wire Line
	5800 6450 3650 6450
Wire Wire Line
	3650 6550 5800 6550
Wire Wire Line
	5800 6650 3650 6650
Wire Wire Line
	3650 6750 5800 6750
Wire Wire Line
	5800 6850 3650 6850
Wire Wire Line
	9850 9050 10550 9050
Wire Wire Line
	11750 9050 11550 9050
Wire Wire Line
	10550 9250 10650 9250
Wire Wire Line
	11550 9250 11800 9250
Wire Wire Line
	11800 9250 11800 9500
Wire Wire Line
	12000 10050 12000 9700
Wire Wire Line
	11550 9550 11550 9250
Wire Wire Line
	11550 9750 11550 10050
Connection ~ 11550 10050
Wire Wire Line
	11000 8750 10550 8750
Wire Wire Line
	10550 8750 10550 9050
Connection ~ 10550 9050
Wire Wire Line
	11200 8750 11750 8750
Wire Wire Line
	9750 8200 11150 8200
Wire Wire Line
	11150 7400 11150 7500
Wire Wire Line
	9750 8300 10600 8300
Wire Wire Line
	10200 7450 10200 7600
Wire Wire Line
	10400 7450 10400 7600
Wire Wire Line
	9750 7900 9850 7900
Wire Wire Line
	10400 7900 10400 7800
Wire Wire Line
	10200 7800 10200 7900
Connection ~ 10200 7900
Wire Wire Line
	9850 9050 9850 8750
Wire Wire Line
	9850 8750 9750 8750
Wire Wire Line
	9750 8400 11650 8400
Wire Wire Line
	4700 8750 5100 8750
Wire Wire Line
	4500 9050 4950 9050
Wire Wire Line
	9750 8000 9850 8000
Wire Wire Line
	9850 8000 9850 7900
Connection ~ 9850 7900
Wire Wire Line
	10600 8300 10600 7450
Wire Wire Line
	10600 7450 10400 7450
Connection ~ 10400 7450
Wire Wire Line
	11150 8200 11150 7800
Wire Wire Line
	13250 7950 13450 7950
Wire Wire Line
	11650 8400 11650 7900
Wire Wire Line
	11650 7900 11900 7900
Wire Wire Line
	11900 8000 11900 7900
Connection ~ 11900 7900
Wire Wire Line
	11900 8200 11900 8300
Wire Wire Line
	11900 8300 12500 8300
Wire Wire Line
	12300 7900 12500 7900
Wire Wire Line
	12500 7900 12500 8000
Connection ~ 12500 7900
Connection ~ 12500 8300
Wire Wire Line
	13750 7900 13750 7950
Wire Wire Line
	13750 7500 13750 7700
Connection ~ 13750 7950
Wire Wire Line
	13750 8250 13750 8300
Wire Wire Line
	13450 8050 13450 7950
Connection ~ 13450 7950
Wire Wire Line
	13450 8300 13450 8250
Connection ~ 13750 8300
Wire Wire Line
	12950 7500 12950 7650
Wire Wire Line
	11150 7500 11750 7500
Connection ~ 11150 7500
Wire Wire Line
	12950 8200 13250 8200
Wire Wire Line
	13250 8200 13250 7950
Connection ~ 12950 7500
Wire Wire Line
	11750 7500 11750 8750
Connection ~ 11750 8750
Connection ~ 13450 8300
Wire Wire Line
	12500 8300 12500 8200
Connection ~ 11750 7500
Wire Wire Line
	10550 9250 10550 10050
Connection ~ 10550 10050
Connection ~ 7200 10050
Wire Wire Line
	4400 10050 4400 9050
Wire Wire Line
	4400 9050 4100 9050
Wire Wire Line
	4100 8950 4700 8950
Wire Wire Line
	4700 8950 4700 8750
Wire Wire Line
	4500 9050 4500 8850
Wire Wire Line
	4500 8850 4100 8850
Wire Wire Line
	4100 8750 4300 8750
Wire Wire Line
	9750 2750 10200 2750
Wire Wire Line
	10400 2750 10700 2750
Wire Wire Line
	10700 2750 10700 2500
Wire Wire Line
	3650 4450 3800 4450
Wire Wire Line
	3650 4550 3800 4550
Wire Wire Line
	9750 6900 11900 6900
Wire Wire Line
	9750 6800 11900 6800
Wire Wire Line
	3650 3250 5800 3250
Wire Wire Line
	3650 6950 5800 6950
Wire Wire Line
	3650 7050 5800 7050
Wire Wire Line
	5800 3350 3650 3350
Wire Wire Line
	5800 4950 5500 4950
Wire Wire Line
	5500 4950 5500 4650
Wire Wire Line
	5500 4650 3800 4650
Wire Wire Line
	5350 5050 5800 5050
Wire Wire Line
	5350 4750 5350 5050
Wire Wire Line
	3650 4750 3800 4750
Wire Wire Line
	5800 5150 5200 5150
Wire Wire Line
	5200 5150 5200 4850
Wire Wire Line
	5200 4850 3800 4850
Wire Wire Line
	3650 7150 3900 7150
Wire Wire Line
	3650 7250 3900 7250
Wire Wire Line
	5800 7650 5500 7650
Wire Wire Line
	5500 7650 5500 7350
Wire Wire Line
	5500 7350 3900 7350
Wire Wire Line
	5800 7750 5400 7750
Wire Wire Line
	5400 7750 5400 7450
Wire Wire Line
	5400 7450 3900 7450
Wire Wire Line
	5300 7850 5800 7850
Wire Wire Line
	5300 7550 5300 7850
Wire Wire Line
	3650 7550 3900 7550
Wire Wire Line
	5800 7950 5200 7950
Wire Wire Line
	5200 7950 5200 7650
Wire Wire Line
	5200 7650 3900 7650
Wire Wire Line
	5800 8050 5100 8050
Wire Wire Line
	5100 8050 5100 7750
Wire Wire Line
	5100 7750 3650 7750
Wire Wire Line
	9750 4050 11900 4050
Wire Wire Line
	12900 4250 12900 4350
Wire Wire Line
	12900 4350 13150 4350
Connection ~ 13150 4350
Wire Wire Line
	13150 3700 13150 3950
Wire Wire Line
	12900 4050 12900 3950
Wire Wire Line
	12900 3950 13150 3950
Connection ~ 13150 3950
Wire Wire Line
	12450 5050 13150 5050
Wire Wire Line
	13150 4850 13150 5050
Connection ~ 13150 5050
Wire Wire Line
	9750 3250 11900 3250
Wire Wire Line
	9750 3350 11900 3350
Wire Wire Line
	9750 3450 11900 3450
Wire Wire Line
	9750 4750 11900 4750
Wire Wire Line
	9750 4850 11900 4850
Wire Wire Line
	9750 4950 11900 4950
Wire Wire Line
	9750 4650 12450 4650
Wire Wire Line
	3800 4750 3800 4700
Wire Wire Line
	3800 4700 2950 4700
Connection ~ 3800 4750
Wire Wire Line
	3800 4850 3800 4800
Wire Wire Line
	3800 4800 3100 4800
Wire Wire Line
	3100 4800 3100 4850
Connection ~ 3800 4850
Wire Wire Line
	3800 4650 3800 4600
Wire Wire Line
	3800 4600 3050 4600
Wire Wire Line
	3050 4600 3050 4550
Wire Wire Line
	3050 4550 2800 4550
Connection ~ 3800 4650
Wire Wire Line
	2850 7500 3900 7500
Wire Wire Line
	2750 7400 3900 7400
Wire Wire Line
	2750 7400 2750 7350
Wire Wire Line
	2750 7350 2650 7350
Wire Wire Line
	3250 7100 2850 7100
Wire Wire Line
	3350 7000 2750 7000
Wire Wire Line
	2750 7000 2750 6950
Wire Wire Line
	2750 6950 2650 6950
Wire Wire Line
	3050 7650 3150 7650
Wire Wire Line
	3150 7650 3150 7600
Wire Wire Line
	3150 7600 3900 7600
Wire Wire Line
	3900 7600 3900 7650
Connection ~ 3900 7650
Wire Wire Line
	3900 7500 3900 7550
Connection ~ 3900 7550
Wire Wire Line
	3900 7400 3900 7450
Connection ~ 3900 7450
Wire Wire Line
	3900 7350 3900 7300
Wire Wire Line
	3900 7300 3150 7300
Wire Wire Line
	3150 7300 3150 7250
Wire Wire Line
	3150 7250 3050 7250
Connection ~ 3900 7350
Wire Wire Line
	3250 7100 3250 7200
Wire Wire Line
	3250 7200 3900 7200
Wire Wire Line
	3900 7200 3900 7250
Connection ~ 3900 7250
Wire Wire Line
	3350 7000 3350 7100
Wire Wire Line
	3350 7100 3900 7100
Wire Wire Line
	3900 7100 3900 7150
Connection ~ 3900 7150
Wire Wire Line
	9750 6000 10400 6000
Wire Wire Line
	9750 6100 10400 6100
Wire Wire Line
	9750 6200 10400 6200
Wire Wire Line
	9750 6300 10400 6300
Wire Wire Line
	3050 4400 3150 4400
Wire Wire Line
	3150 4400 3150 4500
Wire Wire Line
	3150 4500 3300 4500
Wire Wire Line
	3800 4500 3800 4550
Connection ~ 3800 4550
Wire Wire Line
	2900 4250 3050 4250
Wire Wire Line
	3200 4250 3200 4400
Wire Wire Line
	3200 4400 3800 4400
Wire Wire Line
	3800 4400 3800 4450
Connection ~ 3800 4450
Wire Wire Line
	10200 2750 10200 2550
Wire Wire Line
	12950 8200 12950 8150
Text HLabel 11900 2950 2    28   Output ~ 0
PWRRESET
Wire Wire Line
	9750 3850 11900 3850
Text HLabel 11900 4150 2    28   Input ~ 0
TEMPCRIT
Text HLabel 11900 4350 2    28   Input ~ 0
FANFAULT
Text HLabel 11900 4250 2    28   Input ~ 0
THERMALERT
Wire Wire Line
	9750 2950 11900 2950
Wire Wire Line
	9750 4150 11900 4150
Wire Wire Line
	9750 4250 11900 4250
Wire Wire Line
	9750 4350 11900 4350
Text HLabel 11900 3050 2    28   Input ~ 0
PWRSMBALERT
Wire Wire Line
	9750 3050 11900 3050
$Comp
L power:+3.3V #PWR0301
U 1 1 594D5CCC
P 3050 3550
F 0 "#PWR0301" H 3050 3400 50  0001 C CNN
F 1 "+3.3V" H 3050 3690 50  0000 C CNN
F 2 "" H 3050 3550 50  0000 C CNN
F 3 "" H 3050 3550 50  0000 C CNN
	1    3050 3550
	1    0    0    -1  
$EndComp
$Comp
L Device:R_Small R301
U 1 1 594D605B
P 3050 3800
F 0 "R301" H 3080 3820 50  0000 L CNN
F 1 "2.2k" H 3080 3760 50  0000 L CNN
F 2 "Resistor_SMD:R_0603_1608Metric" H 3050 3800 50  0001 C CNN
F 3 "" H 3050 3800 50  0000 C CNN
	1    3050 3800
	1    0    0    -1  
$EndComp
$Comp
L Device:R_Small R302
U 1 1 594D68BE
P 3300 3800
F 0 "R302" H 3330 3820 50  0000 L CNN
F 1 "2.2k" H 3330 3760 50  0000 L CNN
F 2 "Resistor_SMD:R_0603_1608Metric" H 3300 3800 50  0001 C CNN
F 3 "" H 3300 3800 50  0000 C CNN
	1    3300 3800
	1    0    0    -1  
$EndComp
Wire Wire Line
	3050 3550 3050 3650
Wire Wire Line
	3050 3650 3300 3650
Wire Wire Line
	3300 3650 3300 3700
Connection ~ 3050 3650
Wire Wire Line
	3050 3900 3050 4250
Connection ~ 3050 4250
Wire Wire Line
	3300 3900 3300 4500
Connection ~ 3300 4500
$Comp
L Device:R_Small R317
U 1 1 594DB0F3
P 12950 8050
F 0 "R317" H 12980 8070 50  0000 L CNN
F 1 "0" H 12980 8010 50  0000 L CNN
F 2 "Resistor_SMD:R_0603_1608Metric" H 12950 8050 50  0001 C CNN
F 3 "" H 12950 8050 50  0000 C CNN
	1    12950 8050
	-1   0    0    -1  
$EndComp
$Comp
L Device:R_Small R316
U 1 1 594DB347
P 12950 7750
F 0 "R316" H 12980 7770 50  0000 L CNN
F 1 "0" H 12980 7710 50  0000 L CNN
F 2 "Resistor_SMD:R_0603_1608Metric" H 12950 7750 50  0001 C CNN
F 3 "" H 12950 7750 50  0000 C CNN
	1    12950 7750
	-1   0    0    -1  
$EndComp
Wire Wire Line
	12950 7850 12950 7900
Connection ~ 12950 7900
Text Notes 13000 8050 0    28   ~ 0
DNP
Text HLabel 11900 3250 2    28   Output ~ 0
RED1
Text HLabel 11900 3350 2    28   Output ~ 0
GREEN1
Text HLabel 11900 3450 2    28   Output ~ 0
BLUE1
Text HLabel 11900 4750 2    28   Output ~ 0
RED2
Text HLabel 11900 4850 2    28   Output ~ 0
GREEN2
Text HLabel 11900 4950 2    28   Output ~ 0
BLUE2
$Comp
L bldc-esc-rescue:MMBT3904--bldc-esc-rescue Q?
U 1 1 59528345
P 13050 4650
AR Path="/59528345" Ref="Q?"  Part="1" 
AR Path="/593B92C4/59528345" Ref="Q301"  Part="1" 
F 0 "Q301" H 13250 4725 50  0000 L CNN
F 1 "MMBT3904" H 13250 4650 50  0000 L CNN
F 2 "Package_TO_SOT_SMD:SOT-23" H 13250 4575 50  0001 L CIN
F 3 "" H 13050 4650 50  0000 L CNN
	1    13050 4650
	1    0    0    -1  
$EndComp
$Comp
L Connector:TestPoint W318
U 1 1 5952B1C8
P 3100 5200
F 0 "W318" H 3100 5470 50  0000 C CNN
F 1 "MISO" H 3100 5400 50  0000 C CNN
F 2 "TestPoint:TestPoint_Pad_D2.0mm" H 3300 5200 50  0001 C CNN
F 3 "" H 3300 5200 50  0000 C CNN
	1    3100 5200
	0    -1   -1   0   
$EndComp
$Comp
L Connector:TestPoint W313
U 1 1 5952B3BA
P 2950 5300
F 0 "W313" H 2950 5570 50  0000 C CNN
F 1 "MOSI" H 2950 5500 50  0000 C CNN
F 2 "TestPoint:TestPoint_Pad_D2.0mm" H 3150 5300 50  0001 C CNN
F 3 "" H 3150 5300 50  0000 C CNN
	1    2950 5300
	0    -1   -1   0   
$EndComp
$Comp
L Connector:TestPoint W307
U 1 1 5952B63A
P 2800 5400
F 0 "W307" H 2800 5670 50  0000 C CNN
F 1 "SCLK" H 2800 5600 50  0000 C CNN
F 2 "TestPoint:TestPoint_Pad_D2.0mm" H 3000 5400 50  0001 C CNN
F 3 "" H 3000 5400 50  0000 C CNN
	1    2800 5400
	0    -1   -1   0   
$EndComp
$Comp
L Connector:TestPoint W301
U 1 1 5952B8BB
P 2650 5500
F 0 "W301" H 2650 5770 50  0000 C CNN
F 1 "NPCSO" H 2650 5700 50  0000 C CNN
F 2 "TestPoint:TestPoint_Pad_D2.0mm" H 2850 5500 50  0001 C CNN
F 3 "" H 2850 5500 50  0000 C CNN
	1    2650 5500
	0    -1   -1   0   
$EndComp
Wire Wire Line
	3100 5200 3800 5200
Wire Wire Line
	3800 5200 3800 5250
Connection ~ 3800 5250
Wire Wire Line
	2950 5300 3800 5300
Wire Wire Line
	3800 5300 3800 5350
Connection ~ 3800 5350
Wire Wire Line
	2800 5400 3800 5400
Wire Wire Line
	3800 5400 3800 5450
Connection ~ 3800 5450
Wire Wire Line
	2650 5500 3800 5500
Wire Wire Line
	3800 5500 3800 5550
Connection ~ 3800 5550
Wire Wire Line
	4850 3550 4850 3700
Wire Wire Line
	5350 3650 5350 3700
Wire Wire Line
	2900 3200 3400 3200
Wire Wire Line
	3400 3200 3400 3100
Wire Wire Line
	3400 3100 3800 3100
Wire Wire Line
	3800 3100 3800 3150
Connection ~ 3800 3150
Wire Wire Line
	2800 3000 3800 3000
Wire Wire Line
	3800 3000 3800 3050
Connection ~ 3800 3050
Wire Wire Line
	2700 2800 3400 2800
Wire Wire Line
	3400 2800 3400 2900
Wire Wire Line
	3400 2900 3800 2900
Wire Wire Line
	3800 2900 3800 2950
Connection ~ 3800 2950
Text Notes 13800 7800 0    28   ~ 0
DNP
Text Notes 13900 8100 0    28   ~ 0
DNP
Text Notes 13300 8250 0    28   ~ 0
DNP
Wire Wire Line
	12450 5050 12450 4950
Wire Wire Line
	12450 4750 12450 4650
Connection ~ 12450 4650
$Comp
L Device:R_Small R304
U 1 1 5956FB2C
P 4850 3800
F 0 "R304" H 4880 3820 50  0000 L CNN
F 1 "0" H 4880 3760 50  0000 L CNN
F 2 "Resistor_SMD:R_0603_1608Metric" H 4850 3800 50  0001 C CNN
F 3 "" H 4850 3800 50  0000 C CNN
	1    4850 3800
	-1   0    0    1   
$EndComp
$Comp
L Device:R_Small R305
U 1 1 59570021
P 5050 3950
F 0 "R305" H 5080 3970 50  0000 L CNN
F 1 "0" H 5080 3910 50  0000 L CNN
F 2 "Resistor_SMD:R_0603_1608Metric" H 5050 3950 50  0001 C CNN
F 3 "" H 5050 3950 50  0000 C CNN
	1    5050 3950
	0    -1   -1   0   
$EndComp
Wire Wire Line
	4850 3950 4850 3900
Connection ~ 4850 3950
Text Notes 5000 3800 2    28   ~ 0
DNP
$Comp
L Device:R_Small R307
U 1 1 59571920
P 5550 4050
F 0 "R307" H 5580 4070 50  0000 L CNN
F 1 "0" H 5580 4010 50  0000 L CNN
F 2 "Resistor_SMD:R_0603_1608Metric" H 5550 4050 50  0001 C CNN
F 3 "" H 5550 4050 50  0000 C CNN
	1    5550 4050
	0    -1   -1   0   
$EndComp
$Comp
L Device:R_Small R306
U 1 1 59571B64
P 5350 3800
F 0 "R306" H 5380 3820 50  0000 L CNN
F 1 "0" H 5380 3760 50  0000 L CNN
F 2 "Resistor_SMD:R_0603_1608Metric" H 5350 3800 50  0001 C CNN
F 3 "" H 5350 3800 50  0000 C CNN
	1    5350 3800
	-1   0    0    1   
$EndComp
Text Notes 5500 3800 2    28   ~ 0
DNP
Wire Wire Line
	5350 3900 5350 4050
Connection ~ 5350 4050
$Comp
L Device:R_Pack04 RP301
U 1 1 5957C6FD
P 5100 8500
F 0 "RP301" H 5100 8950 50  0000 C CNN
F 1 "10k" H 5100 8450 50  0000 C CNN
F 2 "Resistor_SMD:R_Array_Concave_4x0603" H 5100 8500 50  0001 C CNN
F 3 "" H 5100 8500 50  0000 C CNN
	1    5100 8500
	-1   0    0    1   
$EndComp
Wire Wire Line
	4500 8200 4750 8200
Wire Wire Line
	5000 8200 5000 8300
Wire Wire Line
	5100 8200 5100 8300
Connection ~ 5000 8200
Wire Wire Line
	5200 8200 5200 8300
Connection ~ 5100 8200
Wire Wire Line
	5300 8200 5300 8300
Connection ~ 5200 8200
$Comp
L Connector_Generic:Conn_02x05_Odd_Even P302
U 1 1 5957EE7D
P 5100 9650
F 0 "P302" H 5100 9950 50  0000 C CNN
F 1 "CONN_02X05" H 5100 9350 50  0000 C CNN
F 2 "Connector_PinHeader_1.00mm:PinHeader_2x05_P1.00mm_Vertical" H 5100 8450 50  0001 C CNN
F 3 "" H 5100 8450 50  0000 C CNN
	1    5100 9650
	0    1    -1   0   
$EndComp
Wire Wire Line
	5200 8750 5200 9350
Connection ~ 5200 8750
Wire Wire Line
	5300 9050 5300 9350
Connection ~ 5300 9050
Wire Wire Line
	5100 8950 5100 9350
Wire Wire Line
	5000 8850 5000 9350
Wire Wire Line
	4900 9350 4900 9250
Wire Wire Line
	5100 9850 5100 10050
Connection ~ 5100 10050
Wire Wire Line
	5200 9850 5200 10050
Connection ~ 5200 10050
Wire Wire Line
	4900 9850 4900 10050
Connection ~ 4900 10050
NoConn ~ 5000 9850
Wire Wire Line
	4750 8200 4750 8100
Wire Wire Line
	5650 9850 5300 9850
Wire Wire Line
	5650 9500 5650 9850
$Comp
L power:+3.3V #PWR0305
U 1 1 5958317A
P 5650 9500
F 0 "#PWR0305" H 5650 9350 50  0001 C CNN
F 1 "+3.3V" H 5650 9640 50  0000 C CNN
F 2 "" H 5650 9500 50  0000 C CNN
F 3 "" H 5650 9500 50  0000 C CNN
	1    5650 9500
	1    0    0    -1  
$EndComp
$Comp
L Device:R_Small R303
U 1 1 595847F0
P 4500 8500
F 0 "R303" H 4530 8520 50  0000 L CNN
F 1 "10k" H 4530 8460 50  0000 L CNN
F 2 "Resistor_SMD:R_0603_1608Metric" H 4500 8500 50  0001 C CNN
F 3 "" H 4500 8500 50  0000 C CNN
	1    4500 8500
	-1   0    0    1   
$EndComp
Wire Wire Line
	4500 8400 4500 8200
Wire Wire Line
	4500 8750 4500 8600
Wire Wire Line
	5100 8950 5150 8950
Wire Wire Line
	5800 8850 5300 8850
Connection ~ 4750 8200
Wire Wire Line
	4300 8550 4300 8750
Connection ~ 4300 8750
NoConn ~ 5800 3450
NoConn ~ 5800 3750
NoConn ~ 5800 3850
NoConn ~ 5800 4350
NoConn ~ 5800 4650
NoConn ~ 5800 4750
NoConn ~ 5800 4850
NoConn ~ 5800 5650
NoConn ~ 5800 7350
NoConn ~ 5800 7450
NoConn ~ 5800 7550
NoConn ~ 5800 8150
NoConn ~ 5800 8250
NoConn ~ 5800 8350
NoConn ~ 5800 8450
NoConn ~ 5800 8550
NoConn ~ 5800 8650
NoConn ~ 9750 2850
NoConn ~ 9750 3150
NoConn ~ 9750 3550
NoConn ~ 9750 3650
NoConn ~ 9750 3750
NoConn ~ 9750 3950
NoConn ~ 9750 4450
NoConn ~ 9750 4550
NoConn ~ 9750 5050
NoConn ~ 9750 5150
NoConn ~ 9750 5250
NoConn ~ 9750 5350
NoConn ~ 9750 5450
NoConn ~ 9750 5550
NoConn ~ 9750 5650
NoConn ~ 9750 5750
NoConn ~ 9750 6400
NoConn ~ 9750 6500
NoConn ~ 9750 6600
NoConn ~ 9750 6700
NoConn ~ 9750 7000
$Comp
L power:PWR_FLAG #FLG0301
U 1 1 5961F8A9
P 6700 800
F 0 "#FLG0301" H 6700 895 50  0001 C CNN
F 1 "PWR_FLAG" H 6700 980 50  0000 C CNN
F 2 "" H 6700 800 50  0000 C CNN
F 3 "" H 6700 800 50  0000 C CNN
	1    6700 800 
	1    0    0    -1  
$EndComp
$Comp
L power:PWR_FLAG #FLG0302
U 1 1 5961F9BD
P 7950 800
F 0 "#FLG0302" H 7950 895 50  0001 C CNN
F 1 "PWR_FLAG" H 7950 980 50  0000 C CNN
F 2 "" H 7950 800 50  0000 C CNN
F 3 "" H 7950 800 50  0000 C CNN
	1    7950 800 
	1    0    0    -1  
$EndComp
$Comp
L power:PWR_FLAG #FLG0303
U 1 1 59620557
P 10000 750
F 0 "#FLG0303" H 10000 845 50  0001 C CNN
F 1 "PWR_FLAG" H 10000 930 50  0000 C CNN
F 2 "" H 10000 750 50  0000 C CNN
F 3 "" H 10000 750 50  0000 C CNN
	1    10000 750 
	1    0    0    -1  
$EndComp
Connection ~ 10000 1000
Text Notes 12100 9200 2    28   ~ 0
MR has internal 20k pull up
Wire Wire Line
	5300 8850 5300 8700
Connection ~ 5300 8850
Wire Wire Line
	4950 9050 4950 8800
Wire Wire Line
	4950 8800 5000 8800
Wire Wire Line
	5000 8800 5000 8700
Connection ~ 4950 9050
Wire Wire Line
	5150 8950 5150 8700
Wire Wire Line
	5150 8700 5200 8700
Connection ~ 5150 8950
Wire Wire Line
	5100 8750 5100 8700
Connection ~ 5100 8750
Wire Wire Line
	7800 10050 7900 10050
Wire Wire Line
	7700 10050 7800 10050
Wire Wire Line
	7600 10050 7700 10050
Wire Wire Line
	7500 10050 7600 10050
Wire Wire Line
	7400 10050 7500 10050
Wire Wire Line
	7300 10050 7400 10050
Wire Wire Line
	7900 10050 8200 10050
Wire Wire Line
	8200 9600 8200 9750
Wire Wire Line
	8800 9600 8800 9750
Wire Wire Line
	9000 9600 9000 9750
Wire Wire Line
	9600 9600 9600 9750
Wire Wire Line
	8350 2150 8450 2150
Wire Wire Line
	8450 2150 8550 2150
Wire Wire Line
	8550 2150 8650 2150
Wire Wire Line
	8650 2150 8750 2150
Wire Wire Line
	8750 2150 8750 2350
Wire Wire Line
	7700 2150 7800 2150
Wire Wire Line
	7600 2150 7700 2150
Wire Wire Line
	7300 2150 7400 2150
Wire Wire Line
	7600 1000 7950 1000
Wire Wire Line
	7100 1000 7250 1000
Wire Wire Line
	9500 1000 9850 1000
Wire Wire Line
	8950 1000 9100 1000
Wire Wire Line
	6350 1200 6700 1200
Wire Wire Line
	5850 1200 6000 1200
Wire Wire Line
	6700 1200 6700 1400
Wire Wire Line
	6700 1200 6900 1200
Wire Wire Line
	6350 1800 6700 1800
Wire Wire Line
	7950 1000 7950 1200
Wire Wire Line
	7950 1000 8100 1000
Wire Wire Line
	7600 1600 7950 1600
Wire Wire Line
	9850 1000 10000 1000
Wire Wire Line
	9500 1600 9850 1600
Wire Wire Line
	4300 1800 4550 1800
Wire Wire Line
	4550 1800 4800 1800
Wire Wire Line
	4800 1800 5050 1800
Wire Wire Line
	5050 1800 5300 1800
Wire Wire Line
	5300 1800 5550 1800
Wire Wire Line
	10550 1200 10800 1200
Wire Wire Line
	10800 1200 11050 1200
Wire Wire Line
	11050 1200 11300 1200
Wire Wire Line
	11300 1200 11300 1350
Wire Wire Line
	11300 1200 11550 1200
Wire Wire Line
	4300 1400 4550 1400
Wire Wire Line
	4550 1400 4800 1400
Wire Wire Line
	4800 1400 5050 1400
Wire Wire Line
	5050 1400 5300 1400
Wire Wire Line
	11050 800  11300 800 
Wire Wire Line
	10800 800  11050 800 
Wire Wire Line
	10550 800  10800 800 
Wire Wire Line
	10300 800  10550 800 
Wire Wire Line
	11300 800  11550 800 
Wire Wire Line
	5300 1400 5550 1400
Wire Wire Line
	8750 1000 8750 2150
Wire Wire Line
	5550 1800 5850 1800
Wire Wire Line
	5850 1800 6350 1800
Wire Wire Line
	3800 1000 3800 1200
Wire Wire Line
	4050 1800 4050 1900
Wire Wire Line
	3800 1200 3800 1400
Wire Wire Line
	3800 1400 3800 2150
Wire Wire Line
	4050 1400 4300 1400
Wire Wire Line
	8200 10050 8800 10050
Wire Wire Line
	9000 10050 9600 10050
Wire Wire Line
	8800 10050 9000 10050
Wire Wire Line
	9600 10050 10550 10050
Wire Wire Line
	7500 2150 7600 2150
Wire Wire Line
	7400 2150 7500 2150
Wire Wire Line
	11550 10050 12000 10050
Wire Wire Line
	10550 9050 10650 9050
Wire Wire Line
	10200 7900 10400 7900
Wire Wire Line
	10200 7900 10200 7950
Wire Wire Line
	9850 7900 10200 7900
Wire Wire Line
	10400 7450 10200 7450
Wire Wire Line
	11900 7900 12100 7900
Wire Wire Line
	12500 7900 12950 7900
Wire Wire Line
	12500 8300 13450 8300
Wire Wire Line
	13750 7950 13750 8050
Wire Wire Line
	13450 7950 13750 7950
Wire Wire Line
	13750 8300 13750 8350
Wire Wire Line
	11150 7500 11150 7600
Wire Wire Line
	12950 7500 13750 7500
Wire Wire Line
	11750 8750 11750 9050
Wire Wire Line
	13450 8300 13750 8300
Wire Wire Line
	11750 7500 12950 7500
Wire Wire Line
	10550 10050 11550 10050
Wire Wire Line
	7200 10050 7300 10050
Wire Wire Line
	13150 4350 13150 4450
Wire Wire Line
	13150 5050 13150 5150
Wire Wire Line
	3800 4750 5350 4750
Wire Wire Line
	3800 4850 3650 4850
Wire Wire Line
	3800 4650 3650 4650
Wire Wire Line
	3900 7650 3650 7650
Wire Wire Line
	3900 7550 5300 7550
Wire Wire Line
	3900 7450 3650 7450
Wire Wire Line
	3900 7350 3650 7350
Wire Wire Line
	3900 7250 5800 7250
Wire Wire Line
	3900 7150 5800 7150
Wire Wire Line
	3800 4550 5800 4550
Wire Wire Line
	3800 4450 5800 4450
Wire Wire Line
	3050 3650 3050 3700
Wire Wire Line
	3050 4250 3200 4250
Wire Wire Line
	3300 4500 3800 4500
Wire Wire Line
	12950 7900 12950 7950
Wire Wire Line
	3800 5250 5800 5250
Wire Wire Line
	3800 5350 5800 5350
Wire Wire Line
	3800 5450 5800 5450
Wire Wire Line
	3800 5550 5800 5550
Wire Wire Line
	3800 3150 5800 3150
Wire Wire Line
	3800 3050 5800 3050
Wire Wire Line
	3800 2950 5800 2950
Wire Wire Line
	12450 4650 12650 4650
Wire Wire Line
	4850 3950 4950 3950
Wire Wire Line
	5350 4050 5450 4050
Wire Wire Line
	5000 8200 5100 8200
Wire Wire Line
	5100 8200 5200 8200
Wire Wire Line
	5200 8200 5300 8200
Wire Wire Line
	5200 8750 5800 8750
Wire Wire Line
	5300 9050 5800 9050
Wire Wire Line
	5100 10050 5200 10050
Wire Wire Line
	5200 10050 7200 10050
Wire Wire Line
	4900 10050 5100 10050
Wire Wire Line
	4750 8200 5000 8200
Wire Wire Line
	4300 8750 4500 8750
Wire Wire Line
	10000 1000 10000 2150
Wire Wire Line
	5300 8850 5000 8850
Wire Wire Line
	4950 9050 5300 9050
Wire Wire Line
	5150 8950 5800 8950
Wire Wire Line
	5100 8750 5200 8750
Wire Wire Line
	13150 4100 13250 4100
Wire Wire Line
	13150 3950 13150 4100
Wire Wire Line
	13150 4200 13250 4200
Wire Wire Line
	13150 4200 13150 4350
$EndSCHEMATC
