PCBNEW-LibModule-V1  
# encoding utf-8
Units mm
$INDEX
SOP63P600X175-16N
$EndINDEX
$MODULE SOP63P600X175-16N
Po 0 0 0 15 00000000 00000000 ~~
Li SOP63P600X175-16N
Cd 
Sc 00000000
At SMD
Op 0 0 0
.SolderMask 0
.SolderPaste 0
T0 0.7112 -4.2164 1.64 1.64 0 0.05 N V 21 "SOP63P600X175-16N"
T1 1.7526 4.0386 1.64 1.64 0 0.05 N V 21 "VAL**"
DS -2.0066 -2.0828 -2.0066 -2.3622 0 24
DS -2.0066 -2.3622 -3.0988 -2.3622 0 24
DS -3.0988 -2.3622 -3.0988 -2.0828 0 24
DS -3.0988 -2.0828 -2.0066 -2.0828 0 24
DS -2.0066 -1.4478 -2.0066 -1.7272 0 24
DS -2.0066 -1.7272 -3.0988 -1.7272 0 24
DS -3.0988 -1.7272 -3.0988 -1.4478 0 24
DS -3.0988 -1.4478 -2.0066 -1.4478 0 24
DS -2.0066 -0.8128 -2.0066 -1.0922 0 24
DS -2.0066 -1.0922 -3.0988 -1.0922 0 24
DS -3.0988 -1.0922 -3.0988 -0.8128 0 24
DS -3.0988 -0.8128 -2.0066 -0.8128 0 24
DS -2.0066 -0.1778 -2.0066 -0.4572 0 24
DS -2.0066 -0.4572 -3.0988 -0.4572 0 24
DS -3.0988 -0.4572 -3.0988 -0.1778 0 24
DS -3.0988 -0.1778 -2.0066 -0.1778 0 24
DS -2.0066 0.4572 -2.0066 0.1778 0 24
DS -2.0066 0.1778 -3.0988 0.1778 0 24
DS -3.0988 0.1778 -3.0988 0.4572 0 24
DS -3.0988 0.4572 -2.0066 0.4572 0 24
DS -2.0066 1.0922 -2.0066 0.8128 0 24
DS -2.0066 0.8128 -3.0988 0.8128 0 24
DS -3.0988 0.8128 -3.0988 1.0922 0 24
DS -3.0988 1.0922 -2.0066 1.0922 0 24
DS -2.0066 1.7272 -2.0066 1.4478 0 24
DS -2.0066 1.4478 -3.0988 1.4478 0 24
DS -3.0988 1.4478 -3.0988 1.7272 0 24
DS -3.0988 1.7272 -2.0066 1.7272 0 24
DS -2.0066 2.3622 -2.0066 2.0828 0 24
DS -2.0066 2.0828 -3.0988 2.0828 0 24
DS -3.0988 2.0828 -3.0988 2.3622 0 24
DS -3.0988 2.3622 -2.0066 2.3622 0 24
DS 2.0066 2.0828 2.0066 2.3622 0 24
DS 2.0066 2.3622 3.0988 2.3622 0 24
DS 3.0988 2.3622 3.0988 2.0828 0 24
DS 3.0988 2.0828 2.0066 2.0828 0 24
DS 2.0066 1.4478 2.0066 1.7272 0 24
DS 2.0066 1.7272 3.0988 1.7272 0 24
DS 3.0988 1.7272 3.0988 1.4478 0 24
DS 3.0988 1.4478 2.0066 1.4478 0 24
DS 2.0066 0.8128 2.0066 1.0922 0 24
DS 2.0066 1.0922 3.0988 1.0922 0 24
DS 3.0988 1.0922 3.0988 0.8128 0 24
DS 3.0988 0.8128 2.0066 0.8128 0 24
DS 2.0066 0.1778 2.0066 0.4572 0 24
DS 2.0066 0.4572 3.0988 0.4572 0 24
DS 3.0988 0.4572 3.0988 0.1778 0 24
DS 3.0988 0.1778 2.0066 0.1778 0 24
DS 2.0066 -0.4572 2.0066 -0.1778 0 24
DS 2.0066 -0.1778 3.0988 -0.1778 0 24
DS 3.0988 -0.1778 3.0988 -0.4572 0 24
DS 3.0988 -0.4572 2.0066 -0.4572 0 24
DS 2.0066 -1.0922 2.0066 -0.8128 0 24
DS 2.0066 -0.8128 3.0988 -0.8128 0 24
DS 3.0988 -0.8128 3.0988 -1.0922 0 24
DS 3.0988 -1.0922 2.0066 -1.0922 0 24
DS 2.0066 -1.7272 2.0066 -1.4478 0 24
DS 2.0066 -1.4478 3.0988 -1.4478 0 24
DS 3.0988 -1.4478 3.0988 -1.7272 0 24
DS 3.0988 -1.7272 2.0066 -1.7272 0 24
DS 2.0066 -2.3622 2.0066 -2.0828 0 24
DS 2.0066 -2.0828 3.0988 -2.0828 0 24
DS 3.0988 -2.0828 3.0988 -2.3622 0 24
DS 3.0988 -2.3622 2.0066 -2.3622 0 24
DS -2.0066 2.4892 2.0066 2.4892 0 24
DS 2.0066 2.4892 2.0066 -2.4892 0 24
DS 2.0066 -2.4892 0.3048 -2.4892 0 24
DS 0.3048 -2.4892 -0.3048 -2.4892 0 24
DS -0.3048 -2.4892 -2.0066 -2.4892 0 24
DS -2.0066 -2.4892 -2.0066 2.4892 0 24
DA 0 -2.4892 -0.3048 -2.4892 -1800 0 24
DS 4.7752 1.5494 3.7592 1.5494 0.1524 21
DS -1.5494 2.4892 1.5494 2.4892 0.1524 21
DS 1.5494 -2.4892 0.3048 -2.4892 0.1524 21
DS 0.3048 -2.4892 -0.3048 -2.4892 0.1524 21
DS -0.3048 -2.4892 -1.5494 -2.4892 0.1524 21
DA 0 -2.4892 -0.3048 -2.4892 -1800 0.1524 21
$PAD
Sh "1" R 1.6002 0.3556 0 0 0
At SMD N 00888000
.SolderMask 0
.SolderPaste 0
Ne 0 ""
Po -2.667 -2.2352
$EndPAD
$PAD
Sh "2" R 1.6002 0.3556 0 0 0
At SMD N 00888000
.SolderMask 0
.SolderPaste 0
Ne 0 ""
Po -2.667 -1.5748
$EndPAD
$PAD
Sh "3" R 1.6002 0.3556 0 0 0
At SMD N 00888000
.SolderMask 0
.SolderPaste 0
Ne 0 ""
Po -2.667 -0.9652
$EndPAD
$PAD
Sh "4" R 1.6002 0.3556 0 0 0
At SMD N 00888000
.SolderMask 0
.SolderPaste 0
Ne 0 ""
Po -2.667 -0.3048
$EndPAD
$PAD
Sh "5" R 1.6002 0.3556 0 0 0
At SMD N 00888000
.SolderMask 0
.SolderPaste 0
Ne 0 ""
Po -2.667 0.3048
$EndPAD
$PAD
Sh "6" R 1.6002 0.3556 0 0 0
At SMD N 00888000
.SolderMask 0
.SolderPaste 0
Ne 0 ""
Po -2.667 0.9652
$EndPAD
$PAD
Sh "7" R 1.6002 0.3556 0 0 0
At SMD N 00888000
.SolderMask 0
.SolderPaste 0
Ne 0 ""
Po -2.667 1.5748
$EndPAD
$PAD
Sh "8" R 1.6002 0.3556 0 0 0
At SMD N 00888000
.SolderMask 0
.SolderPaste 0
Ne 0 ""
Po -2.667 2.2352
$EndPAD
$PAD
Sh "9" R 1.6002 0.3556 0 0 0
At SMD N 00888000
.SolderMask 0
.SolderPaste 0
Ne 0 ""
Po 2.667 2.2352
$EndPAD
$PAD
Sh "10" R 1.6002 0.3556 0 0 0
At SMD N 00888000
.SolderMask 0
.SolderPaste 0
Ne 0 ""
Po 2.667 1.5748
$EndPAD
$PAD
Sh "11" R 1.6002 0.3556 0 0 0
At SMD N 00888000
.SolderMask 0
.SolderPaste 0
Ne 0 ""
Po 2.667 0.9652
$EndPAD
$PAD
Sh "12" R 1.6002 0.3556 0 0 0
At SMD N 00888000
.SolderMask 0
.SolderPaste 0
Ne 0 ""
Po 2.667 0.3048
$EndPAD
$PAD
Sh "13" R 1.6002 0.3556 0 0 0
At SMD N 00888000
.SolderMask 0
.SolderPaste 0
Ne 0 ""
Po 2.667 -0.3048
$EndPAD
$PAD
Sh "14" R 1.6002 0.3556 0 0 0
At SMD N 00888000
.SolderMask 0
.SolderPaste 0
Ne 0 ""
Po 2.667 -0.9652
$EndPAD
$PAD
Sh "15" R 1.6002 0.3556 0 0 0
At SMD N 00888000
.SolderMask 0
.SolderPaste 0
Ne 0 ""
Po 2.667 -1.5748
$EndPAD
$PAD
Sh "16" R 1.6002 0.3556 0 0 0
At SMD N 00888000
.SolderMask 0
.SolderPaste 0
Ne 0 ""
Po 2.667 -2.2352
$EndPAD
$EndMODULE SOP63P600X175-16N
