PCBNEW-LibModule-V1  
# encoding utf-8
Units mm
$INDEX
SOIC127P620X175-8N
$EndINDEX
$MODULE SOIC127P620X175-8N
Po 0 0 0 15 00000000 00000000 ~~
Li SOIC127P620X175-8N
Cd 
Sc 00000000
At SMD
Op 0 0 0
.SolderMask 0
.SolderPaste 0
T0 -0.5334 -4.191 1.64 1.64 0 0.05 N V 21 "SOIC127P620X175-8N"
T1 -0.3302 3.81 1.64 1.64 0 0.05 N V 21 "VAL**"
DS -1.9812 -1.651 -1.9812 -2.159 0.1524 24
DS -1.9812 -2.159 -3.0988 -2.159 0.1524 24
DS -3.0988 -2.159 -3.0988 -1.651 0.1524 24
DS -3.0988 -1.651 -1.9812 -1.651 0.1524 24
DS -1.9812 -0.381 -1.9812 -0.889 0.1524 24
DS -1.9812 -0.889 -3.0988 -0.889 0.1524 24
DS -3.0988 -0.889 -3.0988 -0.381 0.1524 24
DS -3.0988 -0.381 -1.9812 -0.381 0.1524 24
DS -1.9812 0.889 -1.9812 0.381 0.1524 24
DS -1.9812 0.381 -3.0988 0.381 0.1524 24
DS -3.0988 0.381 -3.0988 0.889 0.1524 24
DS -3.0988 0.889 -1.9812 0.889 0.1524 24
DS -1.9812 2.159 -1.9812 1.651 0.1524 24
DS -1.9812 1.651 -3.0988 1.651 0.1524 24
DS -3.0988 1.651 -3.0988 2.159 0.1524 24
DS -3.0988 2.159 -1.9812 2.159 0.1524 24
DS 1.9812 1.651 1.9812 2.159 0.1524 24
DS 1.9812 2.159 3.0988 2.159 0.1524 24
DS 3.0988 2.159 3.0988 1.651 0.1524 24
DS 3.0988 1.651 1.9812 1.651 0.1524 24
DS 1.9812 0.381 1.9812 0.889 0.1524 24
DS 1.9812 0.889 3.0988 0.889 0.1524 24
DS 3.0988 0.889 3.0988 0.381 0.1524 24
DS 3.0988 0.381 1.9812 0.381 0.1524 24
DS 1.9812 -0.889 1.9812 -0.381 0.1524 24
DS 1.9812 -0.381 3.0988 -0.381 0.1524 24
DS 3.0988 -0.381 3.0988 -0.889 0.1524 24
DS 3.0988 -0.889 1.9812 -0.889 0.1524 24
DS 1.9812 -2.159 1.9812 -1.651 0.1524 24
DS 1.9812 -1.651 3.0988 -1.651 0.1524 24
DS 3.0988 -1.651 3.0988 -2.159 0.1524 24
DS 3.0988 -2.159 1.9812 -2.159 0.1524 24
DS -1.9812 2.4892 1.9812 2.4892 0.1524 24
DS 1.9812 2.4892 1.9812 -2.4892 0.1524 24
DS 1.9812 -2.4892 -0.3048 -2.4892 0.1524 24
DS -0.3048 -2.4892 -1.9812 -2.4892 0.1524 24
DS -1.9812 -2.4892 -1.9812 2.4892 0.1524 24
DA 0 -2.5019 -0.3048 -2.4892 -1800 0 24
DS -1.3716 2.4892 1.3716 2.4892 0.1524 21
DS 1.3716 -2.4892 -0.3048 -2.4892 0.1524 21
DS -0.3048 -2.4892 -1.3716 -2.4892 0.1524 21
DA 0 -2.5019 -0.3048 -2.4892 -1800 0 21
$PAD
Sh "1" R 1.9812 0.5588 0 0 0
At SMD N 00888000
.SolderMask 0
.SolderPaste 0
Ne 0 ""
Po -2.4638 -1.905
$EndPAD
$PAD
Sh "2" R 1.9812 0.5588 0 0 0
At SMD N 00888000
.SolderMask 0
.SolderPaste 0
Ne 0 ""
Po -2.4638 -0.635
$EndPAD
$PAD
Sh "3" R 1.9812 0.5588 0 0 0
At SMD N 00888000
.SolderMask 0
.SolderPaste 0
Ne 0 ""
Po -2.4638 0.635
$EndPAD
$PAD
Sh "4" R 1.9812 0.5588 0 0 0
At SMD N 00888000
.SolderMask 0
.SolderPaste 0
Ne 0 ""
Po -2.4638 1.905
$EndPAD
$PAD
Sh "5" R 1.9812 0.5588 0 0 0
At SMD N 00888000
.SolderMask 0
.SolderPaste 0
Ne 0 ""
Po 2.4638 1.905
$EndPAD
$PAD
Sh "6" R 1.9812 0.5588 0 0 0
At SMD N 00888000
.SolderMask 0
.SolderPaste 0
Ne 0 ""
Po 2.4638 0.635
$EndPAD
$PAD
Sh "7" R 1.9812 0.5588 0 0 0
At SMD N 00888000
.SolderMask 0
.SolderPaste 0
Ne 0 ""
Po 2.4638 -0.635
$EndPAD
$PAD
Sh "8" R 1.9812 0.5588 0 0 0
At SMD N 00888000
.SolderMask 0
.SolderPaste 0
Ne 0 ""
Po 2.4638 -1.905
$EndPAD
$EndMODULE SOIC127P620X175-8N
